<?xml version="1.0" encoding="UTF-8"?><Transaction xmlns:xsd="http://www.w3.org/2001/XMLSchema" xmlns:xsi="http://www.w3.org/2001/XMLSchema-instance" Version="15.1.2.14"><TransactionAttributes><ContextItem><Name>Description</Name><Description>Transaction Description</Description><MinRange>0</MinRange><MaxRange>0</MaxRange><Value xsi:type="string"/><ReadOnly>true</ReadOnly><AlertXMLAssigned>false</AlertXMLAssigned></ContextItem><ContextItem><Name>Comments</Name><Description>User Comments</Description><MinRange>0</MinRange><MaxRange>0</MaxRange><Value xsi:type="string"/><ReadOnly>true</ReadOnly><AlertXMLAssigned>false</AlertXMLAssigned></ContextItem><ContextItem><Name>CreatedBy</Name><Description>Created By</Description><MinRange>0</MinRange><MaxRange>0</MaxRange><Value xsi:type="string">it-rosbru</Value><ReadOnly>true</ReadOnly><AlertXMLAssigned>false</AlertXMLAssigned></ContextItem><ContextItem><Name>CreationDate</Name><Description>Creation Date</Description><MinRange>0</MinRange><MaxRange>0</MaxRange><Value xsi:type="dateTime">2018-04-05T10:24:41</Value><ReadOnly>true</ReadOnly><AlertXMLAssigned>false</AlertXMLAssigned></ContextItem><ContextItem><Name>Category</Name><Description>Transaction Category</Description><MinRange>0</MinRange><MaxRange>0</MaxRange><Value xsi:type="string"/><ReadOnly>true</ReadOnly><AlertXMLAssigned>false</AlertXMLAssigned></ContextItem><ContextItem><Name>Status</Name><Description>Deployment Status</Description><MinRange>0</MinRange><MaxRange>0</MaxRange><Value xsi:type="string">DEVELOPMENT</Value><ReadOnly>true</ReadOnly><AlertXMLAssigned>false</AlertXMLAssigned></ContextItem><ContextItem><Name>LegacyProcessingMode</Name><Description>Support the pre MII 12.1 Transaction Engine.</Description><MinRange>0</MinRange><MaxRange>0</MaxRange><Value xsi:type="boolean">0</Value><ReadOnly>true</ReadOnly><AlertXMLAssigned>false</AlertXMLAssigned></ContextItem><ContextItem><Name>AutoAppendBlankNamespaces</Name><Description>AutoAppendBlankNamespaces</Description><MinRange>0</MinRange><MaxRange>0</MaxRange><Value xsi:type="boolean">1</Value><ReadOnly>true</ReadOnly><AlertXMLAssigned>false</AlertXMLAssigned></ContextItem><ContextItem><Name>ThrowOnLinkError</Name><Description>Throws an exception when a link error occures</Description><MinRange>0</MinRange><MaxRange>0</MaxRange><Value xsi:type="boolean">0</Value><ReadOnly>true</ReadOnly><AlertXMLAssigned>false</AlertXMLAssigned></ContextItem><ContextItem><Name>ThrowOnActionError</Name><Description>Throws an exception when an action error occurs</Description><MinRange>0</MinRange><MaxRange>0</MaxRange><Value xsi:type="boolean">1</Value><ReadOnly>true</ReadOnly><AlertXMLAssigned>false</AlertXMLAssigned></ContextItem><ContextItem><Name>FormatXMLOnConversion</Name><Description>By default XML will be formatted when assigned from XML data type to String data type. This behaviour can be changed with this flag.</Description><MinRange>0</MinRange><MaxRange>0</MaxRange><Value xsi:type="boolean">1</Value><ReadOnly>true</ReadOnly><AlertXMLAssigned>false</AlertXMLAssigned></ContextItem><ContextItem><Name>LastEditedBy</Name><Description>Last Edited By</Description><MinRange>0</MinRange><MaxRange>0</MaxRange><Value xsi:type="xsd:string">it-rosbru</Value><ReadOnly>true</ReadOnly><AlertXMLAssigned>false</AlertXMLAssigned></ContextItem><ContextItem><Name>LastEditedDate</Name><Description>Last Edited Date</Description><MinRange>0</MinRange><MaxRange>0</MaxRange><Value xsi:type="xsd:dateTime">2018-05-08T10:42:54</Value><ReadOnly>true</ReadOnly><AlertXMLAssigned>false</AlertXMLAssigned></ContextItem></TransactionAttributes><Name>ProductionMain/DataLoad/PCo/FMB/DIESSE/TEST_importDiesseProdFileTR</Name><Version>23</Version><WriterRoles>SAP_XMII_Super_Administrator,SAP_XMII_Administrator,SAP_XMII_Developer</WriterRoles><Context/><Local><ContextItem><Name>InputParams</Name><Description>parametri d'ingresso</Description><MinRange>0</MinRange><MaxRange>0</MaxRange><Value xsi:type="xml"><ReferenceDocumentSource/>&lt;?xml version="1.0" encoding="UTF-8"?&gt;&lt;NotificationMessage&gt;&#13;
    &lt;Header&gt;&#13;
        &lt;Name&gt;SendFile&lt;/Name&gt;&#13;
        &lt;Description/&gt;&#13;
        &lt;Destination&gt;MII_Sviluppo&lt;/Destination&gt;&#13;
        &lt;CreatedDate&gt;2018-04-04T15:34:22&lt;/CreatedDate&gt;&#13;
        &lt;ID&gt;8beaca31-b29c-4e04-ae16-771d9df78bf8&lt;/ID&gt;&#13;
        &lt;Status&gt;Delivered&lt;/Status&gt;&#13;
    &lt;/Header&gt;&#13;
    &lt;Body&gt;&#13;
        &lt;Values&gt;&#13;
            &lt;MAT_PREFIX quality="None" timeStamp="0001-01-01T00:00:00.0000000" type="xsd:string"&gt;&lt;![CDATA[L10]]&gt;&lt;/MAT_PREFIX&gt;&#13;
            &lt;IDLINE quality="None" timeStamp="0001-01-01T00:00:00.0000000" type="xsd:string"&gt;&lt;![CDATA[XXDIE]]&gt;&lt;/IDLINE&gt;&#13;
            &lt;ReceiveDataFileContent quality="None" timeStamp="0001-01-01T00:00:00.0000000" type="xsd:string"&gt;&lt;![CDATA[Nr_Progessivo;Code_LH (Sx);DM_LH;Code_RH (Dx);DM_RH;Nr_Figura;Nr_ Macchina;Matr_Operatore;Date_Colata;Nr_Siviera;Temp_Forno;Temp_Canale1;Temp_Canale2;Iniez_Fase1_mbar;Iniez_Fase1_time;Iniez_Fase2_mbar;Iniez_Fase2_time;Iniez_Fase3_mbar;Iniez_Fase3_time;SUP_Z1.Temp_SetPoint;SUP_Z1.Temp_Value;SUP_Z1.Delay_pause;SUP_Z1.Delay_work;SUP_Z1.Temp_modo_lavoro;SUP_Z1.H2O_set_point;SUP_Z1.AIR_set_point;SUP_Z1.Raffr_Tipo_lavoro;SUP_Z2.Temp_SetPoint;SUP_Z2.Temp_Value;SUP_Z2.Delay_pause;SUP_Z2.Delay_work;SUP_Z2.Temp_modo_lavoro;SUP_Z2.H2O_set_point;SUP_Z2.AIR_set_point;SUP_Z2.Raffr_Tipo_lavoro;SUP_Z3.Temp_SetPoint;SUP_Z3.Temp_Value;SUP_Z3.Delay_pause;SUP_Z3.Delay_work;SUP_Z3.Temp_modo_lavoro;SUP_Z3.H2O_set_point;SUP_Z3.AIR_set_point;SUP_Z3.Raffr_Tipo_lavoro;SUP_Z4.Temp_SetPoint;SUP_Z4.Temp_Value;SUP_Z4.Delay_pause;SUP_Z4.Delay_work;SUP_Z4.Temp_modo_lavoro;SUP_Z4.H2O_set_point;SUP_Z4.AIR_set_point;SUP_Z4.Raffr_Tipo_lavoro;SUP_Z5.Temp_SetPoint;SUP_Z5.Temp_Value;SUP_Z5.Delay_pause;SUP_Z5.Delay_work;SUP_Z5.Temp_modo_lavoro;SUP_Z5.H2O_set_point;SUP_Z5.AIR_set_point;SUP_Z5.Raffr_Tipo_lavoro;INF_Z1.Temp_SetPoint;INF_Z1.Temp_Value;INF_Z1.Delay_pause;INF_Z1.Delay_work;INF_Z1.Temp_modo_lavoro;INF_Z1.H2O_set_point;INF_Z1.AIR_set_point;INF_Z1.Raffr_Tipo_lavoro;INF_Z2.Temp_SetPoint;INF_Z2.Temp_Value;INF_Z2.Delay_pause;INF_Z2.Delay_work;INF_Z2.Temp_modo_lavoro;INF_Z2.H2O_set_point;INF_Z2.AIR_set_point;INF_Z2.Raffr_Tipo_lavoro;INF_Z3.Temp_SetPoint;INF_Z3.Temp_Value;INF_Z3.Delay_pause;INF_Z3.Delay_work;INF_Z3.Temp_modo_lavoro;INF_Z3.H2O_set_point;INF_Z3.AIR_set_point;INF_Z3.Raffr_Tipo_lavoro;INF_Z4.Temp_SetPoint;INF_Z4.Temp_Value;INF_Z4.Delay_pause;INF_Z4.Delay_work;INF_Z4.Temp_modo_lavoro;INF_Z4.H2O_set_point;INF_Z4.AIR_set_point;INF_Z4.Raffr_Tipo_lavoro;INF_Z5.Temp_SetPoint;INF_Z5.Temp_Value;INF_Z5.Delay_pause;INF_Z5.Delay_work;INF_Z5.Temp_modo_lavoro;INF_Z5.H2O_set_point;INF_Z5.AIR_set_point;INF_Z5.Raffr_Tipo_lavoro;Raffredd.Carota_time;Raffredd.Pezzo_time;Pezzo Colato;Marcatura OK;Marcatura NOK;Pezzo Depositato;Rich. Controllo;Controllo OK;Controllo NOK;Tolto da Controllo&#13;
7142;000670102652;00067010265202F12818F07142;000670102650;00067010265002F12818F07142;2;6;500;08/05/2018 10:01:44;8;722;698;3276;218;5;400;10;400;9;0;376;0;90000;2;100;100;1;0;294;0;110000;2;100;100;2;0;359;0;110000;2;100;100;1;0;3276;0;110000;2;100;100;2;0;3276;0;60000;2;100;100;1;0;455;0;60000;2;100;100;1;0;458;0;60000;2;100;100;1;0;3276;0;60000;2;100;100;1;0;3276;0;60000;2;100;10;0;0;3276;30000;60000;2;100;100;2;76;65;Vero;Vero;Falso;Vero;Falso;Falso;Falso;Falso]]&gt;&lt;/ReceiveDataFileContent&gt;&#13;
            &lt;ReceiveDataIsAccessible quality="None" timeStamp="0001-01-01T00:00:00.0000000" type="xsd:string"&gt;&lt;![CDATA[True]]&gt;&lt;/ReceiveDataIsAccessible&gt;&#13;
            &lt;ReceiveDataNewFileName quality="None" timeStamp="0001-01-01T00:00:00.0000000" type="xsd:string"&gt;&lt;![CDATA[C:\Users\AdminOMR.DESKTOP-TEUG4P2\Desktop\1_Anno2018_Mese3_gg28_h10_m42_s - luca Copia.csv]]&gt;&lt;/ReceiveDataNewFileName&gt;&#13;
            &lt;ReceiveDataOriginalFileName quality="None" timeStamp="0001-01-01T00:00:00.0000000" type="xsd:string"&gt;&lt;![CDATA[C:\Users\AdminOMR.DESKTOP-TEUG4P2\Desktop\Test\1_Anno2018_Mese3_gg28_h10_m42_s - luca Copia.csv]]&gt;&lt;/ReceiveDataOriginalFileName&gt;&#13;
        &lt;/Values&gt;&#13;
    &lt;/Body&gt;&#13;
    &lt;Faults/&gt;&#13;
&lt;/NotificationMessage&gt;</Value><SchemaURI/><SchemaElement/><ValidateXMLOnExecution>1</ValidateXMLOnExecution><ReadOnly>false</ReadOnly><AlertXMLAssigned>false</AlertXMLAssigned></ContextItem><ContextItem><Name>LogEsteso</Name><Description>flag per la scrittura dei log</Description><MinRange>0</MinRange><MaxRange>0</MaxRange><Value xsi:type="boolean">1</Value><ReadOnly>false</ReadOnly><AlertXMLAssigned>false</AlertXMLAssigned></ContextItem></Local><Layout><GUILayoutItem><Name>Sequenza</Name><X>8</X><Y>8</Y><Width>120</Width><SpacingWidth>120</SpacingWidth><DescendantWidth>0</DescendantWidth><Height>96</Height></GUILayoutItem><GUILayoutItem><Name>importDiesseProdFileTR__0</Name><X>16</X><Y>24</Y><Width>104</Width><SpacingWidth>0</SpacingWidth><DescendantWidth>0</DescendantWidth><Height>72</Height></GUILayoutItem></Layout><Actions><ContextItem><Name>importDiesseProdFileTR__0</Name><Description/><MinRange>0</MinRange><MaxRange>0</MaxRange><Value xsi:type="TransactionCall"><ResetState>false</ResetState><TransactionName>ProductionMain/DataLoad/PCo/FMB/DIESSE/importDiesseProdFileTR </TransactionName><Async>false</Async><Persist>INHERIT</Persist><LogLevel>INHERIT</LogLevel><LogType>INHERIT</LogType><StoreTransactionOutput>false</StoreTransactionOutput><Expiration>-1</Expiration><LogEsteso>true</LogEsteso><InputParams><ReferenceDocumentSource/>&lt;?xml version="1.0" encoding="UTF-8"?&gt;&lt;NotificationMessage&gt;&#13;
    &lt;Header&gt;&#13;
        &lt;Name&gt;SendLocalFile&lt;/Name&gt;&#13;
        &lt;Description&gt;&lt;![CDATA[Invia i dati a MM]]&gt;&lt;/Description&gt;&#13;
        &lt;Destination&gt;Istanza MII Sviluppo&lt;/Destination&gt;&#13;
        &lt;CreatedDate&gt;2017-06-06T13:22:14&lt;/CreatedDate&gt;&#13;
        &lt;ID&gt;ff72dbb3-46d9-4deb-af3e-3392a5769681&lt;/ID&gt;&#13;
        &lt;Status&gt;Delivered&lt;/Status&gt;&#13;
    &lt;/Header&gt;&#13;
    &lt;Body&gt;&#13;
        &lt;Values&gt;&#13;
            &lt;ReceiveDataFileContent quality="None" timeStamp="0001-01-01T00:00:00.0000000" type="xsd:string"&gt;&lt;![CDATA[Nr_Progessivo;Code_LH (Sx);Code_RH (Dx);Nr_Figura;Nr_ Macchina;Matr_Operatore;Date_Colata;Nr_Siviera;Temp_Forno;Temp_Canale1;Temp_Canale2;Iniez_Fase1_mbar;Iniez_Fase1_time;Iniez_Fase2_mbar;Iniez_Fase2_time;Iniez_Fase3_mbar;Iniez_Fase3_time;SUP_Z1.Temp_SetPoint;SUP_Z1.Temp_Value;SUP_Z1.Delay_pause;SUP_Z1.Delay_work;SUP_Z1.Temp_modo_lavoro;SUP_Z1.H2O_set_point;SUP_Z1.AIR_set_point;SUP_Z1.Raffr_Tipo_lavoro;SUP_Z2.Temp_SetPoint;SUP_Z2.Temp_Value;SUP_Z2.Delay_pause;SUP_Z2.Delay_work;SUP_Z2.Temp_modo_lavoro;SUP_Z2.H2O_set_point;SUP_Z2.AIR_set_point;SUP_Z2.Raffr_Tipo_lavoro;SUP_Z3.Temp_SetPoint;SUP_Z3.Temp_Value;SUP_Z3.Delay_pause;SUP_Z3.Delay_work;SUP_Z3.Temp_modo_lavoro;SUP_Z3.H2O_set_point;SUP_Z3.AIR_set_point;SUP_Z3.Raffr_Tipo_lavoro;SUP_Z4.Temp_SetPoint;SUP_Z4.Temp_Value;SUP_Z4.Delay_pause;SUP_Z4.Delay_work;SUP_Z4.Temp_modo_lavoro;SUP_Z4.H2O_set_point;SUP_Z4.AIR_set_point;SUP_Z4.Raffr_Tipo_lavoro;SUP_Z5.Temp_SetPoint;SUP_Z5.Temp_Value;SUP_Z5.Delay_pause;SUP_Z5.Delay_work;SUP_Z5.Temp_modo_lavoro;SUP_Z5.H2O_set_point;SUP_Z5.AIR_set_point;SUP_Z5.Raffr_Tipo_lavoro;INF_Z1.Temp_SetPoint;INF_Z1.Temp_Value;INF_Z1.Delay_pause;INF_Z1.Delay_work;INF_Z1.Temp_modo_lavoro;INF_Z1.H2O_set_point;INF_Z1.AIR_set_point;INF_Z1.Raffr_Tipo_lavoro;INF_Z2.Temp_SetPoint;INF_Z2.Temp_Value;INF_Z2.Delay_pause;INF_Z2.Delay_work;INF_Z2.Temp_modo_lavoro;INF_Z2.H2O_set_point;INF_Z2.AIR_set_point;INF_Z2.Raffr_Tipo_lavoro;INF_Z3.Temp_SetPoint;INF_Z3.Temp_Value;INF_Z3.Delay_pause;INF_Z3.Delay_work;INF_Z3.Temp_modo_lavoro;INF_Z3.H2O_set_point;INF_Z3.AIR_set_point;INF_Z3.Raffr_Tipo_lavoro;INF_Z4.Temp_SetPoint;INF_Z4.Temp_Value;INF_Z4.Delay_pause;INF_Z4.Delay_work;INF_Z4.Temp_modo_lavoro;INF_Z4.H2O_set_point;INF_Z4.AIR_set_point;INF_Z4.Raffr_Tipo_lavoro;INF_Z5.Temp_SetPoint;INF_Z5.Temp_Value;INF_Z5.Delay_pause;INF_Z5.Delay_work;INF_Z5.Temp_modo_lavoro;INF_Z5.H2O_set_point;INF_Z5.AIR_set_point;INF_Z5.Raffr_Tipo_lavoro;Raffredd.Carota_time;Raffredd.Pezzo_time;Pezzo Colato;Marcatura OK;Marcatura NOK;Pezzo Depositato;Rich. Controllo;Controllo OK;Controllo NOK;Tolto da Controllo&#13;
36256;FA00ADA89420;FA00ADA89421;2;1;991;19/06/2017 23:23:23;2;735;682;3276;266;2;340;9;400;10;0;3276;120000;90000;2;100;100;1;0;282;10000;30000;2;100;100;1;0;3276;10000;30000;2;100;100;1;0;3276;120000;90000;2;100;100;1;0;3276;0;190000;0;10;100;0;0;332;10000;240000;0;100;100;0;0;276;10000;240000;0;10;100;0;0;310;140000;60000;2;100;100;1;0;3276;140000;60000;2;100;10;1;0;3276;60000;120000;0;100;100;0;111;110;Vero;Vero;Falso;Vero;Falso;Falso;Falso;Falso]]&gt;&lt;/ReceiveDataFileContent&gt;&#13;
            &lt;ReceiveDataOriginalFileName quality="None" timeStamp="0001-01-01T00:00:00.0000000" type="xsd:string"&gt;&lt;![CDATA[C:\Users\Guido.DeCarli\Documents\ProvaPCO\PMonitorLog0606.txt]]&gt;&lt;/ReceiveDataOriginalFileName&gt;&#13;
            &lt;ReceiveDataIsAccessible quality="None" timeStamp="0001-01-01T00:00:00.0000000" type="xsd:string"&gt;&lt;![CDATA[True]]&gt;&lt;/ReceiveDataIsAccessible&gt;&#13;
            &lt;ReceiveDataNewFileName quality="None" timeStamp="0001-01-01T00:00:00.0000000" type="xsd:string"&gt;&lt;![CDATA[C:\Users\Guido.DeCarli\Documents\ProvaPCO\Processati\PMonitorLog0606.txt]]&gt;&lt;/ReceiveDataNewFileName&gt;&#13;
            &lt;IDLINE quality="None" timeStamp="0001-01-01T00:00:00.0000000" type="xsd:string"&gt;&lt;![CDATA[XXDIE]]&gt;&lt;/IDLINE&gt;&#13;
            &lt;IDSLD quality="None" timeStamp="0001-01-01T00:00:00.0000000" type="xsd:string"&gt;&lt;![CDATA[GD1]]&gt;&lt;/IDSLD&gt;&#13;
            &lt;MAT_PREFIX quality="None" timeStamp="0001-01-01T00:00:00.0000000" type="xsd:string"&gt;&lt;![CDATA[XXX]]&gt;&lt;/MAT_PREFIX&gt;&#13;
        &lt;/Values&gt;&#13;
    &lt;/Body&gt;&#13;
    &lt;Faults/&gt;&#13;
&lt;/NotificationMessage&gt;</InputParams></Value><SchemaURI/><SchemaElement/><ValidateXMLOnExecution>1</ValidateXMLOnExecution><ReadOnly>false</ReadOnly><AlertXMLAssigned>false</AlertXMLAssigned></ContextItem></Actions><ReaderRoles>SAP_XMII_Super_Administrator,SAP_XMII_Administrator,SAP_XMII_Developer,SAP_XMII_User</ReaderRoles><Steps><Step xsi:type="ActionSequence"><Name>Sequenza</Name><Description/><Steps/><Actions><Action><Name>importDiesseProdFileTR__0</Name><Description> </Description><IncomingLinks><Assign xsi:type="AssignXml"><Name/><Description/><To>importDiesseProdFileTR__0.InputParams</To><From>Local.InputParams</From></Assign><Assign xsi:type="Assign"><Name/><Description/><To>importDiesseProdFileTR__0.LogEsteso</To><From>Local.LogEsteso</From></Assign></IncomingLinks><OutgoingLinks/></Action></Actions></Step></Steps></Transaction>