Linea IVECOF1A = L17
Riga 1 Colonna 5 Valore = Codice Prodotto
Riga 1 Colonna 6 Valore = DM finito
Riga 2 Colonna 2 Valore = 14/06/19
Riga 2 Colonna 3 Valore = 12:10:00
Riga 2 Colonna 4 Valore = 20000
Riga 2 Colonna 5 Valore = 5801983900_test_BR
Riga 2 Colonna 6 Valore =                           
Riga 2 Colonna 7 Valore = OP40  
Riga 2 Colonna 8 Valore = Buono                       