<?xml version="1.0" encoding="UTF-8"?><Transaction xmlns:xsd="http://www.w3.org/2001/XMLSchema" xmlns:xsi="http://www.w3.org/2001/XMLSchema-instance" Version="15.1.2.14"><TransactionAttributes><ContextItem><Name>AutoAppendBlankNamespaces</Name><Description>AutoAppendBlankNamespaces</Description><MinRange>0</MinRange><MaxRange>0</MaxRange><Value xsi:type="boolean">1</Value><ReadOnly>true</ReadOnly><AlertXMLAssigned>false</AlertXMLAssigned></ContextItem><ContextItem><Name>Category</Name><Description>Transaction Category</Description><MinRange>0</MinRange><MaxRange>0</MaxRange><Value xsi:type="string"/><ReadOnly>true</ReadOnly><AlertXMLAssigned>false</AlertXMLAssigned></ContextItem><ContextItem><Name>Comments</Name><Description>User Comments</Description><MinRange>0</MinRange><MaxRange>0</MaxRange><Value xsi:type="string"/><ReadOnly>true</ReadOnly><AlertXMLAssigned>false</AlertXMLAssigned></ContextItem><ContextItem><Name>CreatedBy</Name><Description>Created By</Description><MinRange>0</MinRange><MaxRange>0</MaxRange><Value xsi:type="string">it-adaluc</Value><ReadOnly>true</ReadOnly><AlertXMLAssigned>false</AlertXMLAssigned></ContextItem><ContextItem><Name>CreationDate</Name><Description>Creation Date</Description><MinRange>0</MinRange><MaxRange>0</MaxRange><Value xsi:type="dateTime">2017-08-02T16:12:20</Value><ReadOnly>true</ReadOnly><AlertXMLAssigned>false</AlertXMLAssigned></ContextItem><ContextItem><Name>Description</Name><Description>Transaction Description</Description><MinRange>0</MinRange><MaxRange>0</MaxRange><Value xsi:type="string"/><ReadOnly>true</ReadOnly><AlertXMLAssigned>false</AlertXMLAssigned></ContextItem><ContextItem><Name>FormatXMLOnConversion</Name><Description>By default XML will be formatted when assigned from XML data type to String data type. This behaviour can be changed with this flag.</Description><MinRange>0</MinRange><MaxRange>0</MaxRange><Value xsi:type="boolean">1</Value><ReadOnly>true</ReadOnly><AlertXMLAssigned>false</AlertXMLAssigned></ContextItem><ContextItem><Name>LastEditedBy</Name><Description>Last Edited By</Description><MinRange>0</MinRange><MaxRange>0</MaxRange><Value xsi:type="xsd:string">it-adaluc</Value><ReadOnly>true</ReadOnly><AlertXMLAssigned>false</AlertXMLAssigned></ContextItem><ContextItem><Name>LastEditedDate</Name><Description>Last Edited Date</Description><MinRange>0</MinRange><MaxRange>0</MaxRange><Value xsi:type="xsd:dateTime">2018-02-28T18:25:53</Value><ReadOnly>true</ReadOnly><AlertXMLAssigned>false</AlertXMLAssigned></ContextItem><ContextItem><Name>LegacyProcessingMode</Name><Description>Support the pre MII 12.1 Transaction Engine.</Description><MinRange>0</MinRange><MaxRange>0</MaxRange><Value xsi:type="boolean">0</Value><ReadOnly>true</ReadOnly><AlertXMLAssigned>false</AlertXMLAssigned></ContextItem><ContextItem><Name>Status</Name><Description>Deployment Status</Description><MinRange>0</MinRange><MaxRange>0</MaxRange><Value xsi:type="string">DEVELOPMENT</Value><ReadOnly>true</ReadOnly><AlertXMLAssigned>false</AlertXMLAssigned></ContextItem><ContextItem><Name>ThrowOnActionError</Name><Description>Throws an exception when an action error occurs</Description><MinRange>0</MinRange><MaxRange>0</MaxRange><Value xsi:type="boolean">0</Value><ReadOnly>true</ReadOnly><AlertXMLAssigned>false</AlertXMLAssigned></ContextItem><ContextItem><Name>ThrowOnLinkError</Name><Description>Throws an exception when a link error occures</Description><MinRange>0</MinRange><MaxRange>0</MaxRange><Value xsi:type="boolean">0</Value><ReadOnly>true</ReadOnly><AlertXMLAssigned>false</AlertXMLAssigned></ContextItem></TransactionAttributes><Name>ProductionMain/Sap/To/cancelConfProdToSapTR</Name><Version>98</Version><WriterRoles>SAP_XMII_Super_Administrator,SAP_XMII_Administrator,SAP_XMII_Developer</WriterRoles><Context><ContextItem><Name>DataConf</Name><Description/><MinRange>0</MinRange><MaxRange>0</MaxRange><Value xsi:type="xml"><ReferenceDocumentSource/>&lt;?xml version="1.0" encoding="UTF-8"?&gt;&lt;RFC_BAPI&gt;
&lt;IV_AUFNR/&gt;
&lt;IV_CODIM/&gt; 
&lt;IV_CSSOS/&gt; 
&lt;IV_EXIDV/&gt; 
&lt;IV_MINUT/&gt; 
&lt;IV_OPRMT/&gt; 
&lt;IV_PDATU/&gt; 
&lt;IV_PTIME/&gt; 
&lt;IV_QTNEW/&gt; 
&lt;IV_QTOLD/&gt; 
&lt;IV_STAMP/&gt; 
&lt;IV_TPOPE/&gt; 
&lt;IV_TPQTY/&gt;
&lt;IV_TURNO/&gt; 
&lt;IV_VORNR/&gt; 
&lt;IV_WERKS/&gt; 
&lt;IV_DATAR/&gt; 
&lt;IV_CESTT/&gt; 
&lt;IV_GUID_SC/&gt; 
&lt;/RFC_BAPI&gt;</Value><SchemaURI/><SchemaElement/><ValidateXMLOnExecution>1</ValidateXMLOnExecution><ReadOnly>false</ReadOnly><AlertXMLAssigned>false</AlertXMLAssigned></ContextItem><ContextItem><Name>ErrCode</Name><Description/><MinRange>0</MinRange><MaxRange>0</MaxRange><Value xsi:type="integer">0</Value><ReadOnly>true</ReadOnly><AlertXMLAssigned>false</AlertXMLAssigned></ContextItem><ContextItem><Name>ErrMsg</Name><Description/><MinRange>0</MinRange><MaxRange>0</MaxRange><Value xsi:type="string"/><ReadOnly>true</ReadOnly><AlertXMLAssigned>false</AlertXMLAssigned></ContextItem><ContextItem><Name>MiiGuid</Name><Description/><MinRange>0</MinRange><MaxRange>0</MaxRange><Value xsi:type="string"/><ReadOnly>false</ReadOnly><AlertXMLAssigned>false</AlertXMLAssigned></ContextItem><ContextItem><Name>newGuid</Name><Description/><MinRange>0</MinRange><MaxRange>0</MaxRange><Value xsi:type="string"/><ReadOnly>true</ReadOnly><AlertXMLAssigned>false</AlertXMLAssigned></ContextItem><ContextItem><Name>Note</Name><Description/><MinRange>0</MinRange><MaxRange>0</MaxRange><Value xsi:type="string"/><ReadOnly>false</ReadOnly><AlertXMLAssigned>false</AlertXMLAssigned></ContextItem><ContextItem><Name>Reason</Name><Description/><MinRange>0</MinRange><MaxRange>0</MaxRange><Value xsi:type="string"/><ReadOnly>false</ReadOnly><AlertXMLAssigned>false</AlertXMLAssigned></ContextItem><ContextItem><Name>UdcData</Name><Description/><MinRange>0</MinRange><MaxRange>0</MaxRange><Value xsi:type="xml"><ReferenceDocumentSource/>&lt;?xml version="1.0" encoding="UTF-8"?&gt;&lt;ZMIII002_TB_UDC&gt;
&lt;item&gt;
&lt;EXIDV/&gt;
&lt;ENMNG/&gt;
&lt;OFMNG/&gt;
&lt;/item&gt;
&lt;/ZMIII002_TB_UDC&gt;</Value><SchemaURI/><SchemaElement/><ValidateXMLOnExecution>1</ValidateXMLOnExecution><ReadOnly>false</ReadOnly><AlertXMLAssigned>false</AlertXMLAssigned></ContextItem></Context><Local><ContextItem><Name>newGuid</Name><Description/><MinRange>0</MinRange><MaxRange>0</MaxRange><Value xsi:type="string"/><ReadOnly>false</ReadOnly><AlertXMLAssigned>false</AlertXMLAssigned></ContextItem><ContextItem><Name>GuidSap</Name><Description/><MinRange>0</MinRange><MaxRange>0</MaxRange><Value xsi:type="string"/><ReadOnly>false</ReadOnly><AlertXMLAssigned>false</AlertXMLAssigned></ContextItem></Local><Layout><GUILayoutItem><Name>Sequenza</Name><X>752</X><Y>8</Y><Width>480</Width><SpacingWidth>1968</SpacingWidth><DescendantWidth>1968</DescendantWidth><Height>96</Height></GUILayoutItem><GUILayoutItem><Name>createSapNumberTR_0</Name><X>760</X><Y>24</Y><Width>104</Width><SpacingWidth>0</SpacingWidth><DescendantWidth>0</DescendantWidth><Height>72</Height></GUILayoutItem><GUILayoutItem><Name>getUserInfoTR_0</Name><X>880</X><Y>24</Y><Width>104</Width><SpacingWidth>0</SpacingWidth><DescendantWidth>0</DescendantWidth><Height>72</Height></GUILayoutItem><GUILayoutItem><Name>Tracer_0</Name><X>1000</X><Y>24</Y><Width>104</Width><SpacingWidth>0</SpacingWidth><DescendantWidth>0</DescendantWidth><Height>72</Height></GUILayoutItem><GUILayoutItem><Name>Sequenza_Else</Name><X>440</X><Y>280</Y><Width>120</Width><SpacingWidth>120</SpacingWidth><DescendantWidth>0</DescendantWidth><Height>96</Height></GUILayoutItem><GUILayoutItem><Name>Sequenza_FW</Name><X>296</X><Y>280</Y><Width>120</Width><SpacingWidth>120</SpacingWidth><DescendantWidth>0</DescendantWidth><Height>96</Height></GUILayoutItem><GUILayoutItem><Name>Sequenza_2</Name><X>1160</X><Y>280</Y><Width>240</Width><SpacingWidth>1392</SpacingWidth><DescendantWidth>1392</DescendantWidth><Height>96</Height></GUILayoutItem><GUILayoutItem><Name>SAP_JCo_Start_Session_0</Name><X>1168</X><Y>296</Y><Width>104</Width><SpacingWidth>0</SpacingWidth><DescendantWidth>0</DescendantWidth><Height>72</Height></GUILayoutItem><GUILayoutItem><Name>SaveHistoricalConfRFC</Name><X>1288</X><Y>296</Y><Width>104</Width><SpacingWidth>0</SpacingWidth><DescendantWidth>0</DescendantWidth><Height>72</Height></GUILayoutItem><GUILayoutItem><Name>Sequenza_14</Name><X>1220</X><Y>416</Y><Width>120</Width><SpacingWidth>1392</SpacingWidth><DescendantWidth>1392</DescendantWidth><Height>96</Height></GUILayoutItem><GUILayoutItem><Name>SAP_JCo_Function_0</Name><X>1228</X><Y>432</Y><Width>104</Width><SpacingWidth>0</SpacingWidth><DescendantWidth>0</DescendantWidth><Height>72</Height></GUILayoutItem><GUILayoutItem><Name>Sequenza_56</Name><X>1220</X><Y>552</Y><Width>120</Width><SpacingWidth>1392</SpacingWidth><DescendantWidth>1392</DescendantWidth><Height>96</Height></GUILayoutItem><GUILayoutItem><Name>Conditional_14</Name><X>1228</X><Y>568</Y><Width>104</Width><SpacingWidth>0</SpacingWidth><DescendantWidth>0</DescendantWidth><Height>72</Height></GUILayoutItem><GUILayoutItem><Name>Sequenza_3</Name><X>656</X><Y>688</Y><Width>120</Width><SpacingWidth>264</SpacingWidth><DescendantWidth>264</DescendantWidth><Height>96</Height></GUILayoutItem><GUILayoutItem><Name>Conditional_0</Name><X>664</X><Y>704</Y><Width>104</Width><SpacingWidth>0</SpacingWidth><DescendantWidth>0</DescendantWidth><Height>72</Height></GUILayoutItem><GUILayoutItem><Name>Sequenza_61</Name><X>584</X><Y>824</Y><Width>120</Width><SpacingWidth>120</SpacingWidth><DescendantWidth>120</DescendantWidth><Height>96</Height></GUILayoutItem><GUILayoutItem><Name>Assignment_GUID</Name><X>592</X><Y>840</Y><Width>104</Width><SpacingWidth>0</SpacingWidth><DescendantWidth>0</DescendantWidth><Height>72</Height></GUILayoutItem><GUILayoutItem><Name>Sequenza_9</Name><X>584</X><Y>960</Y><Width>120</Width><SpacingWidth>120</SpacingWidth><DescendantWidth>0</DescendantWidth><Height>96</Height></GUILayoutItem><GUILayoutItem><Name>UpdateHistoricalConfRFC_0</Name><X>592</X><Y>976</Y><Width>104</Width><SpacingWidth>0</SpacingWidth><DescendantWidth>0</DescendantWidth><Height>72</Height></GUILayoutItem><GUILayoutItem><Name>Sequenza_8</Name><X>728</X><Y>824</Y><Width>120</Width><SpacingWidth>120</SpacingWidth><DescendantWidth>120</DescendantWidth><Height>96</Height></GUILayoutItem><GUILayoutItem><Name>Esito_transazione</Name><X>736</X><Y>840</Y><Width>104</Width><SpacingWidth>0</SpacingWidth><DescendantWidth>0</DescendantWidth><Height>72</Height></GUILayoutItem><GUILayoutItem><Name>Sequenza_5</Name><X>728</X><Y>960</Y><Width>120</Width><SpacingWidth>120</SpacingWidth><DescendantWidth>0</DescendantWidth><Height>96</Height></GUILayoutItem><GUILayoutItem><Name>Assignment_Esito</Name><X>736</X><Y>976</Y><Width>104</Width><SpacingWidth>0</SpacingWidth><DescendantWidth>0</DescendantWidth><Height>72</Height></GUILayoutItem><GUILayoutItem><Name>Sequenza_1</Name><X>1076</X><Y>688</Y><Width>120</Width><SpacingWidth>528</SpacingWidth><DescendantWidth>528</DescendantWidth><Height>96</Height></GUILayoutItem><GUILayoutItem><Name>Conditional_15</Name><X>1084</X><Y>704</Y><Width>104</Width><SpacingWidth>0</SpacingWidth><DescendantWidth>0</DescendantWidth><Height>72</Height></GUILayoutItem><GUILayoutItem><Name>Sequenza_Buffferizzato</Name><X>872</X><Y>824</Y><Width>120</Width><SpacingWidth>120</SpacingWidth><DescendantWidth>120</DescendantWidth><Height>96</Height></GUILayoutItem><GUILayoutItem><Name>Trans_buffered</Name><X>880</X><Y>840</Y><Width>104</Width><SpacingWidth>0</SpacingWidth><DescendantWidth>0</DescendantWidth><Height>72</Height></GUILayoutItem><GUILayoutItem><Name>Sequenza_62</Name><X>872</X><Y>960</Y><Width>120</Width><SpacingWidth>120</SpacingWidth><DescendantWidth>0</DescendantWidth><Height>96</Height></GUILayoutItem><GUILayoutItem><Name>Assignment_Buffered</Name><X>880</X><Y>976</Y><Width>104</Width><SpacingWidth>0</SpacingWidth><DescendantWidth>0</DescendantWidth><Height>72</Height></GUILayoutItem><GUILayoutItem><Name>Sequenza_Errore</Name><X>1016</X><Y>824</Y><Width>120</Width><SpacingWidth>120</SpacingWidth><DescendantWidth>120</DescendantWidth><Height>96</Height></GUILayoutItem><GUILayoutItem><Name>Trans_error</Name><X>1024</X><Y>840</Y><Width>104</Width><SpacingWidth>0</SpacingWidth><DescendantWidth>0</DescendantWidth><Height>72</Height></GUILayoutItem><GUILayoutItem><Name>Sequenza_63</Name><X>1016</X><Y>960</Y><Width>120</Width><SpacingWidth>120</SpacingWidth><DescendantWidth>0</DescendantWidth><Height>96</Height></GUILayoutItem><GUILayoutItem><Name>Assignment_Error</Name><X>1024</X><Y>976</Y><Width>104</Width><SpacingWidth>0</SpacingWidth><DescendantWidth>0</DescendantWidth><Height>72</Height></GUILayoutItem><GUILayoutItem><Name>Sequenza_57</Name><X>1160</X><Y>824</Y><Width>240</Width><SpacingWidth>240</SpacingWidth><DescendantWidth>0</DescendantWidth><Height>96</Height></GUILayoutItem><GUILayoutItem><Name>Tracer_Request</Name><X>1168</X><Y>840</Y><Width>104</Width><SpacingWidth>0</SpacingWidth><DescendantWidth>0</DescendantWidth><Height>72</Height></GUILayoutItem><GUILayoutItem><Name>Tracer_Response</Name><X>1288</X><Y>840</Y><Width>104</Width><SpacingWidth>0</SpacingWidth><DescendantWidth>0</DescendantWidth><Height>72</Height></GUILayoutItem><GUILayoutItem><Name>Sequenza_4</Name><X>1640</X><Y>688</Y><Width>120</Width><SpacingWidth>552</SpacingWidth><DescendantWidth>552</DescendantWidth><Height>96</Height></GUILayoutItem><GUILayoutItem><Name>Tracer_Esito</Name><X>1648</X><Y>704</Y><Width>104</Width><SpacingWidth>0</SpacingWidth><DescendantWidth>0</DescendantWidth><Height>72</Height></GUILayoutItem><GUILayoutItem><Name>Sequenza_7</Name><X>1640</X><Y>824</Y><Width>120</Width><SpacingWidth>552</SpacingWidth><DescendantWidth>552</DescendantWidth><Height>96</Height></GUILayoutItem><GUILayoutItem><Name>SQL_Query_insertConfLogSQ</Name><X>1648</X><Y>840</Y><Width>104</Width><SpacingWidth>0</SpacingWidth><DescendantWidth>0</DescendantWidth><Height>72</Height></GUILayoutItem><GUILayoutItem><Name>Sequenza_0</Name><X>1640</X><Y>960</Y><Width>120</Width><SpacingWidth>552</SpacingWidth><DescendantWidth>552</DescendantWidth><Height>96</Height></GUILayoutItem><GUILayoutItem><Name>Switch_0</Name><X>1648</X><Y>976</Y><Width>104</Width><SpacingWidth>0</SpacingWidth><DescendantWidth>0</DescendantWidth><Height>72</Height></GUILayoutItem><GUILayoutItem><Name>Sequenza_12</Name><X>1424</X><Y>1096</Y><Width>120</Width><SpacingWidth>120</SpacingWidth><DescendantWidth>120</DescendantWidth><Height>96</Height></GUILayoutItem><GUILayoutItem><Name>UpdateConfProdGuid_ST</Name><X>1432</X><Y>1112</Y><Width>104</Width><SpacingWidth>0</SpacingWidth><DescendantWidth>0</DescendantWidth><Height>72</Height></GUILayoutItem><GUILayoutItem><Name>Sequenza_15</Name><X>1568</X><Y>1096</Y><Width>120</Width><SpacingWidth>120</SpacingWidth><DescendantWidth>120</DescendantWidth><Height>96</Height></GUILayoutItem><GUILayoutItem><Name>Sequenza_16</Name><X>1712</X><Y>1096</Y><Width>120</Width><SpacingWidth>120</SpacingWidth><DescendantWidth>0</DescendantWidth><Height>96</Height></GUILayoutItem><GUILayoutItem><Name>Sequenza_17</Name><X>1856</X><Y>1096</Y><Width>120</Width><SpacingWidth>120</SpacingWidth><DescendantWidth>0</DescendantWidth><Height>96</Height></GUILayoutItem><GUILayoutItem><Name>Sequenza_10</Name><X>932</X><Y>144</Y><Width>120</Width><SpacingWidth>1968</SpacingWidth><DescendantWidth>1968</DescendantWidth><Height>96</Height></GUILayoutItem><GUILayoutItem><Name>Switch_1</Name><X>940</X><Y>160</Y><Width>104</Width><SpacingWidth>0</SpacingWidth><DescendantWidth>0</DescendantWidth><Height>72</Height></GUILayoutItem><GUILayoutItem><Name>Sequenza_ST</Name><X>8</X><Y>416</Y><Width>120</Width><SpacingWidth>120</SpacingWidth><DescendantWidth>120</DescendantWidth><Height>96</Height></GUILayoutItem><GUILayoutItem><Name>Sequenza_RT</Name><X>152</X><Y>280</Y><Width>120</Width><SpacingWidth>120</SpacingWidth><DescendantWidth>120</DescendantWidth><Height>96</Height></GUILayoutItem><GUILayoutItem><Name>getConfProd4Copy_0</Name><X>160</X><Y>296</Y><Width>104</Width><SpacingWidth>0</SpacingWidth><DescendantWidth>0</DescendantWidth><Height>72</Height></GUILayoutItem><GUILayoutItem><Name>Sequenza_6</Name><X>152</X><Y>416</Y><Width>120</Width><SpacingWidth>120</SpacingWidth><DescendantWidth>120</DescendantWidth><Height>96</Height></GUILayoutItem><GUILayoutItem><Name>InsertConfProdTR_preliminare</Name><X>160</X><Y>432</Y><Width>104</Width><SpacingWidth>0</SpacingWidth><DescendantWidth>0</DescendantWidth><Height>72</Height></GUILayoutItem><GUILayoutItem><Name>UpdateConfProdGuid_RT</Name><X>1576</X><Y>1112</Y><Width>104</Width><SpacingWidth>0</SpacingWidth><DescendantWidth>0</DescendantWidth><Height>72</Height></GUILayoutItem><GUILayoutItem><Name>UpdateConfProdGuid_FW</Name><X>1720</X><Y>1112</Y><Width>104</Width><SpacingWidth>0</SpacingWidth><DescendantWidth>0</DescendantWidth><Height>72</Height></GUILayoutItem><GUILayoutItem><Name>getConfProd4Copy_Resend</Name><X>304</X><Y>296</Y><Width>104</Width><SpacingWidth>0</SpacingWidth><DescendantWidth>0</DescendantWidth><Height>72</Height></GUILayoutItem><GUILayoutItem><Name>UpdateOperProdStorno_0</Name><X>16</X><Y>432</Y><Width>104</Width><SpacingWidth>0</SpacingWidth><DescendantWidth>0</DescendantWidth><Height>72</Height></GUILayoutItem><GUILayoutItem><Name>Sequenza_Storno</Name><X>8</X><Y>280</Y><Width>120</Width><SpacingWidth>120</SpacingWidth><DescendantWidth>120</DescendantWidth><Height>96</Height></GUILayoutItem><GUILayoutItem><Name>getConfProd4Copy_ST</Name><X>16</X><Y>296</Y><Width>104</Width><SpacingWidth>0</SpacingWidth><DescendantWidth>0</DescendantWidth><Height>72</Height></GUILayoutItem><GUILayoutItem><Name>Sequenza_11</Name><X>8</X><Y>552</Y><Width>120</Width><SpacingWidth>120</SpacingWidth><DescendantWidth>0</DescendantWidth><Height>96</Height></GUILayoutItem><GUILayoutItem><Name>removeFromUDCMovTR_0</Name><X>16</X><Y>568</Y><Width>104</Width><SpacingWidth>0</SpacingWidth><DescendantWidth>0</DescendantWidth><Height>72</Height></GUILayoutItem><GUILayoutItem><Name>Sequenza_13</Name><X>152</X><Y>688</Y><Width>120</Width><SpacingWidth>120</SpacingWidth><DescendantWidth>0</DescendantWidth><Height>96</Height></GUILayoutItem><GUILayoutItem><Name>saveUDCMovTR_0</Name><X>160</X><Y>704</Y><Width>104</Width><SpacingWidth>0</SpacingWidth><DescendantWidth>0</DescendantWidth><Height>72</Height></GUILayoutItem><GUILayoutItem><Name>Sequenza_18</Name><X>1568</X><Y>1232</Y><Width>120</Width><SpacingWidth>120</SpacingWidth><DescendantWidth>120</DescendantWidth><Height>96</Height></GUILayoutItem><GUILayoutItem><Name>UpdateConfProdGuid_RT_Bis</Name><X>1576</X><Y>1248</Y><Width>104</Width><SpacingWidth>0</SpacingWidth><DescendantWidth>0</DescendantWidth><Height>72</Height></GUILayoutItem><GUILayoutItem><Name>Sequenza_19</Name><X>1424</X><Y>1232</Y><Width>120</Width><SpacingWidth>120</SpacingWidth><DescendantWidth>0</DescendantWidth><Height>96</Height></GUILayoutItem><GUILayoutItem><Name>RestoreUDCfromCancelTR_Storno</Name><X>1432</X><Y>1248</Y><Width>104</Width><SpacingWidth>0</SpacingWidth><DescendantWidth>0</DescendantWidth><Height>72</Height></GUILayoutItem><GUILayoutItem><Name>Sequenza_20</Name><X>1568</X><Y>1368</Y><Width>120</Width><SpacingWidth>120</SpacingWidth><DescendantWidth>0</DescendantWidth><Height>96</Height></GUILayoutItem><GUILayoutItem><Name>RestoreUDCfromCancelTR_Rett</Name><X>1576</X><Y>1384</Y><Width>104</Width><SpacingWidth>0</SpacingWidth><DescendantWidth>0</DescendantWidth><Height>72</Height></GUILayoutItem><GUILayoutItem><Name>Sequenza_21</Name><X>152</X><Y>552</Y><Width>120</Width><SpacingWidth>120</SpacingWidth><DescendantWidth>120</DescendantWidth><Height>96</Height></GUILayoutItem><GUILayoutItem><Name>Conditional_1</Name><X>160</X><Y>568</Y><Width>104</Width><SpacingWidth>0</SpacingWidth><DescendantWidth>0</DescendantWidth><Height>72</Height></GUILayoutItem><GUILayoutItem><Name>getPlantbyIDSQ_0</Name><X>1120</X><Y>24</Y><Width>104</Width><SpacingWidth>0</SpacingWidth><DescendantWidth>0</DescendantWidth><Height>72</Height></GUILayoutItem></Layout><Actions><ContextItem><Name>createSapNumberTR_0</Name><Description/><MinRange>0</MinRange><MaxRange>0</MaxRange><Value xsi:type="TransactionCall"><ResetState>false</ResetState><TransactionName>ProductionMain/Sap/createSapNumberTR</TransactionName><Async>false</Async><Persist>INHERIT</Persist><LogLevel>INHERIT</LogLevel><LogType>INHERIT</LogType><StoreTransactionOutput>false</StoreTransactionOutput><Expiration>-1</Expiration><key02/><Plant>4101</Plant></Value><ReadOnly>false</ReadOnly><AlertXMLAssigned>false</AlertXMLAssigned></ContextItem><ContextItem><Name>getUserInfoTR_0</Name><Description/><MinRange>0</MinRange><MaxRange>0</MaxRange><Value xsi:type="TransactionCall"><ResetState>false</ResetState><TransactionName>ProductionMain/Common/BasicComponents/getUserInfoTR</TransactionName><Async>false</Async><Persist>INHERIT</Persist><LogLevel>INHERIT</LogLevel><LogType>INHERIT</LogType><StoreTransactionOutput>false</StoreTransactionOutput><Expiration>-1</Expiration></Value><ReadOnly>false</ReadOnly><AlertXMLAssigned>false</AlertXMLAssigned></ContextItem><ContextItem><Name>Tracer_0</Name><Description/><MinRange>0</MinRange><MaxRange>0</MaxRange><Value xsi:type="Tracer"><Message/><Level>INFO</Level></Value><ReadOnly>false</ReadOnly><AlertXMLAssigned>false</AlertXMLAssigned></ContextItem><ContextItem><Name>SAP_JCo_Start_Session_0</Name><Description/><MinRange>0</MinRange><MaxRange>0</MaxRange><Value xsi:type="SAPJCOStartSession"><ConnPropAlias>EOQ</ConnPropAlias><CredentialAlias>S4_MII_User</CredentialAlias><SAPServerName/><SAPClient/><SAPSystemNumber/><Language/><ConnectionPoolSize>10</ConnectionPoolSize><SAPUserName/><SAPPassword/><SAPSSO2Ticket/><PoolConnections>true</PoolConnections><LogonGroup/><ConnectionTimeout>0</ConnectionTimeout></Value><ReadOnly>false</ReadOnly><AlertXMLAssigned>false</AlertXMLAssigned></ContextItem><ContextItem><Name>SaveHistoricalConfRFC</Name><Description/><MinRange>0</MinRange><MaxRange>0</MaxRange><Value xsi:type="IlluminatorSQLQueryObject"><Timeout>60</Timeout><QueryParameters/><QueryTemplate>ProductionMain/Sap/To/SaveHistoricalConfRFC</QueryTemplate><QueryEndDate>2017-08-02T14:26:39</QueryEndDate><SQLTransaction/><TagList/><Results><ReferenceDocumentSource/>&lt;?xml version="1.0" encoding="UTF-8"?&gt;&lt;Rowsets CachedTime="" DateCreated="2017-08-02T14:44:03" EndDate="2017-08-02T14:44:03" StartDate="2017-08-02T13:44:03" Version="15.1 SP2 Patch 14 (Oct 17, 2016)"/&gt;</Results><QueryStartDate>2017-08-02T14:26:39</QueryStartDate></Value><SchemaURI/><SchemaElement/><ValidateXMLOnExecution>1</ValidateXMLOnExecution><ReadOnly>false</ReadOnly><AlertXMLAssigned>false</AlertXMLAssigned></ContextItem><ContextItem><Name>SAP_JCo_Function_0</Name><Description/><MinRange>0</MinRange><MaxRange>0</MaxRange><Value xsi:type="SAPJCOFunction"><SourceSession>SAP_JCo_Start_Session_0</SourceSession><Request><ReferenceDocumentSource/>&lt;?xml version="1.0" encoding="UTF-8"?&gt;&lt;Z_MIII002_MOV_CASSONI&gt;&lt;INPUT&gt;&lt;IV_AUFNR/&gt;&lt;IV_CODIM/&gt;&lt;IV_CSSOS/&gt;&lt;IV_EXIDV/&gt;&lt;IV_GUID_MII/&gt;&lt;IV_GUID_SC/&gt;&lt;IV_MINUT/&gt;&lt;IV_OPRMT/&gt;&lt;IV_PDATU/&gt;&lt;IV_PTIME/&gt;&lt;IV_QTNEW/&gt;&lt;IV_QTOLD/&gt;&lt;IV_STAMP/&gt;&lt;IV_TPOPE/&gt;&lt;IV_TPQTY/&gt;&lt;IV_TURNO/&gt;&lt;IV_VORNR/&gt;&lt;IV_WERKS/&gt;&lt;/INPUT&gt;&lt;TABLES&gt;&lt;TT_ESITO_BAPI&gt;&lt;item&gt;&lt;TYPE/&gt;&lt;ID/&gt;&lt;NUMBER/&gt;&lt;MESSAGE/&gt;&lt;LOG_NO/&gt;&lt;LOG_MSG_NO/&gt;&lt;MESSAGE_V1/&gt;&lt;MESSAGE_V2/&gt;&lt;MESSAGE_V3/&gt;&lt;MESSAGE_V4/&gt;&lt;PARAMETER/&gt;&lt;ROW/&gt;&lt;FIELD/&gt;&lt;SYSTEM/&gt;&lt;/item&gt;&lt;/TT_ESITO_BAPI&gt;&lt;ZMIII002_TB_UDC&gt;&lt;item&gt;&lt;EXIDV/&gt;&lt;ENMNG/&gt;&lt;OFMNG/&gt;&lt;/item&gt;&lt;/ZMIII002_TB_UDC&gt;&lt;/TABLES&gt;&lt;/Z_MIII002_MOV_CASSONI&gt;</Request><Response><ReferenceDocumentSource/>&lt;?xml version="1.0" encoding="UTF-8"?&gt;&lt;Z_MIII002_MOV_CASSONI&gt;&lt;OUTPUT&gt;&lt;EV_ESITO_GUID/&gt;&lt;/OUTPUT&gt;&lt;TABLES&gt;&lt;TT_ESITO_BAPI&gt;&lt;item&gt;&lt;TYPE/&gt;&lt;ID/&gt;&lt;NUMBER/&gt;&lt;MESSAGE/&gt;&lt;LOG_NO/&gt;&lt;LOG_MSG_NO/&gt;&lt;MESSAGE_V1/&gt;&lt;MESSAGE_V2/&gt;&lt;MESSAGE_V3/&gt;&lt;MESSAGE_V4/&gt;&lt;PARAMETER/&gt;&lt;ROW/&gt;&lt;FIELD/&gt;&lt;SYSTEM/&gt;&lt;/item&gt;&lt;/TT_ESITO_BAPI&gt;&lt;ZMIII002_TB_UDC&gt;&lt;item&gt;&lt;EXIDV/&gt;&lt;ENMNG/&gt;&lt;OFMNG/&gt;&lt;/item&gt;&lt;/ZMIII002_TB_UDC&gt;&lt;/TABLES&gt;&lt;/Z_MIII002_MOV_CASSONI&gt;</Response><SAPRFC>Z_MIII002_MOV_CASSONI</SAPRFC><TYPERFC>0</TYPERFC><QueueName/><ExecuteFunction>true</ExecuteFunction><RecreateFunction>true</RecreateFunction><AllowMultipleRows>true</AllowMultipleRows><DaysRetention>7</DaysRetention><MaxRetryCount>500</MaxRetryCount><RetryInterval>600000</RetryInterval><ProcessingMode>2</ProcessingMode><Filter/><DataBufferComment/><RetryImmediately>false</RetryImmediately></Value><SchemaURI/><SchemaElement/><ValidateXMLOnExecution>1</ValidateXMLOnExecution><SchemaURI/><SchemaElement/><ValidateXMLOnExecution>1</ValidateXMLOnExecution><ReadOnly>false</ReadOnly><AlertXMLAssigned>false</AlertXMLAssigned></ContextItem><ContextItem><Name>Conditional_14</Name><Description/><MinRange>0</MinRange><MaxRange>0</MaxRange><Value xsi:type="ConditionalAction"><Output>false</Output><InputCount>1</InputCount><LogicalAnd>false</LogicalAnd><Input1>false</Input1></Value><ReadOnly>false</ReadOnly><AlertXMLAssigned>false</AlertXMLAssigned></ContextItem><ContextItem><Name>Conditional_0</Name><Description/><MinRange>0</MinRange><MaxRange>0</MaxRange><Value xsi:type="ConditionalAction"><Output>false</Output><InputCount>1</InputCount><LogicalAnd>false</LogicalAnd><Input1>false</Input1></Value><ReadOnly>false</ReadOnly><AlertXMLAssigned>false</AlertXMLAssigned></ContextItem><ContextItem><Name>Assignment_GUID</Name><Description/><MinRange>0</MinRange><MaxRange>0</MaxRange><Value xsi:type="Assignment"/><ReadOnly>false</ReadOnly><AlertXMLAssigned>false</AlertXMLAssigned></ContextItem><ContextItem><Name>UpdateHistoricalConfRFC_0</Name><Description/><MinRange>0</MinRange><MaxRange>0</MaxRange><Value xsi:type="IlluminatorSQLQueryObject"><Timeout>60</Timeout><QueryParameters/><QueryTemplate>ProductionMain/Sap/To/UpdateHistoricalConfRFC</QueryTemplate><QueryEndDate>2017-08-02T14:53:03</QueryEndDate><SQLTransaction/><TagList/><Results><ReferenceDocumentSource/>&lt;?xml version="1.0" encoding="UTF-8"?&gt;&lt;Rowsets CachedTime="" DateCreated="2017-08-02T14:53:04" EndDate="2017-08-02T14:53:04" StartDate="2017-08-02T13:53:04" Version="15.1 SP2 Patch 14 (Oct 17, 2016)"/&gt;</Results><QueryStartDate>2017-08-02T14:53:03</QueryStartDate></Value><SchemaURI/><SchemaElement/><ValidateXMLOnExecution>1</ValidateXMLOnExecution><ReadOnly>false</ReadOnly><AlertXMLAssigned>false</AlertXMLAssigned></ContextItem><ContextItem><Name>Esito_transazione</Name><Description/><MinRange>0</MinRange><MaxRange>0</MaxRange><Value xsi:type="Tracer"><Message/><Level>ERROR</Level></Value><ReadOnly>false</ReadOnly><AlertXMLAssigned>false</AlertXMLAssigned></ContextItem><ContextItem><Name>Assignment_Esito</Name><Description/><MinRange>0</MinRange><MaxRange>0</MaxRange><Value xsi:type="Assignment"/><ReadOnly>false</ReadOnly><AlertXMLAssigned>false</AlertXMLAssigned></ContextItem><ContextItem><Name>Conditional_15</Name><Description/><MinRange>0</MinRange><MaxRange>0</MaxRange><Value xsi:type="ConditionalAction"><Output>false</Output><InputCount>1</InputCount><LogicalAnd>false</LogicalAnd><Input1>false</Input1></Value><ReadOnly>false</ReadOnly><AlertXMLAssigned>false</AlertXMLAssigned></ContextItem><ContextItem><Name>Trans_buffered</Name><Description/><MinRange>0</MinRange><MaxRange>0</MaxRange><Value xsi:type="Tracer"><Message/><Level>ERROR</Level></Value><ReadOnly>false</ReadOnly><AlertXMLAssigned>false</AlertXMLAssigned></ContextItem><ContextItem><Name>Assignment_Buffered</Name><Description/><MinRange>0</MinRange><MaxRange>0</MaxRange><Value xsi:type="Assignment"/><ReadOnly>false</ReadOnly><AlertXMLAssigned>false</AlertXMLAssigned></ContextItem><ContextItem><Name>Trans_error</Name><Description/><MinRange>0</MinRange><MaxRange>0</MaxRange><Value xsi:type="Tracer"><Message/><Level>ERROR</Level></Value><ReadOnly>false</ReadOnly><AlertXMLAssigned>false</AlertXMLAssigned></ContextItem><ContextItem><Name>Assignment_Error</Name><Description/><MinRange>0</MinRange><MaxRange>0</MaxRange><Value xsi:type="Assignment"/><ReadOnly>false</ReadOnly><AlertXMLAssigned>false</AlertXMLAssigned></ContextItem><ContextItem><Name>Tracer_Request</Name><Description/><MinRange>0</MinRange><MaxRange>0</MaxRange><Value xsi:type="Tracer"><Message/><Level>ERROR</Level></Value><ReadOnly>false</ReadOnly><AlertXMLAssigned>false</AlertXMLAssigned></ContextItem><ContextItem><Name>Tracer_Response</Name><Description/><MinRange>0</MinRange><MaxRange>0</MaxRange><Value xsi:type="Tracer"><Message/><Level>ERROR</Level></Value><ReadOnly>false</ReadOnly><AlertXMLAssigned>false</AlertXMLAssigned></ContextItem><ContextItem><Name>Tracer_Esito</Name><Description/><MinRange>0</MinRange><MaxRange>0</MaxRange><Value xsi:type="Tracer"><Message/><Level>ERROR</Level></Value><ReadOnly>false</ReadOnly><AlertXMLAssigned>false</AlertXMLAssigned></ContextItem><ContextItem><Name>SQL_Query_insertConfLogSQ</Name><Description/><MinRange>0</MinRange><MaxRange>0</MaxRange><Value xsi:type="IlluminatorSQLQueryObject"><Timeout>60</Timeout><QueryParameters/><QueryTemplate>ProductionMain/Confirm/ConfProd/insertConfLogSQ</QueryTemplate><QueryEndDate>2017-05-22T13:00:46</QueryEndDate><SQLTransaction/><TagList/><Results><ReferenceDocumentSource/>&lt;?xml version="1.0" encoding="UTF-8"?&gt;&lt;Rowsets CachedTime="" DateCreated="2017-05-26T13:41:07" EndDate="2017-05-26T13:41:07" StartDate="2017-05-26T12:41:07" Version="15.1 SP2 Patch 14 (Oct 17, 2016)"&gt;&lt;FatalError&gt;java.sql.SQLException: Unable to parse boolean value for property Param.5 at index 5&lt;/FatalError&gt;&lt;/Rowsets&gt;</Results><QueryStartDate>2017-05-22T13:00:46</QueryStartDate></Value><SchemaURI/><SchemaElement/><ValidateXMLOnExecution>1</ValidateXMLOnExecution><ReadOnly>false</ReadOnly><AlertXMLAssigned>false</AlertXMLAssigned></ContextItem><ContextItem><Name>Switch_0</Name><Description/><MinRange>0</MinRange><MaxRange>0</MaxRange><Value xsi:type="SwitcherAction"><InputValue/><MatchCount>3</MatchCount><MatchValue1/><MatchValue2/><MatchValue3/></Value><ReadOnly>false</ReadOnly><AlertXMLAssigned>false</AlertXMLAssigned></ContextItem><ContextItem><Name>UpdateConfProdGuid_ST</Name><Description/><MinRange>0</MinRange><MaxRange>0</MaxRange><Value xsi:type="IlluminatorSQLQueryObject"><Timeout>60</Timeout><QueryParameters/><QueryTemplate>ProductionMain/Sap/To/UpdateConfProdGuid</QueryTemplate><QueryEndDate>2017-08-02T17:24:13</QueryEndDate><SQLTransaction/><TagList/><Results><ReferenceDocumentSource/>&lt;?xml version="1.0" encoding="UTF-8"?&gt;&lt;Rowsets CachedTime="" DateCreated="2017-08-02T18:35:56" EndDate="2017-08-02T18:35:56" StartDate="2017-08-02T17:35:56" Version="15.1 SP2 Patch 14 (Oct 17, 2016)"/&gt;</Results><QueryStartDate>2017-08-02T17:24:13</QueryStartDate></Value><SchemaURI/><SchemaElement/><ValidateXMLOnExecution>1</ValidateXMLOnExecution><ReadOnly>false</ReadOnly><AlertXMLAssigned>false</AlertXMLAssigned></ContextItem><ContextItem><Name>Switch_1</Name><Description/><MinRange>0</MinRange><MaxRange>0</MaxRange><Value xsi:type="SwitcherAction"><InputValue/><MatchCount>3</MatchCount><MatchValue1/><MatchValue2/><MatchValue3/></Value><ReadOnly>false</ReadOnly><AlertXMLAssigned>false</AlertXMLAssigned></ContextItem><ContextItem><Name>getConfProd4Copy_0</Name><Description/><MinRange>0</MinRange><MaxRange>0</MaxRange><Value xsi:type="IlluminatorSQLQueryObject"><Timeout>60</Timeout><QueryParameters/><QueryTemplate>ProductionMain/Sap/To/getConfProd4Copy</QueryTemplate><QueryEndDate>2017-08-02T19:25:05</QueryEndDate><SQLTransaction/><TagList/><Results><ReferenceDocumentSource/>&lt;?xml version="1.0" encoding="UTF-8"?&gt;&lt;Rowsets CachedTime="" DateCreated="2017-08-02T19:25:06" EndDate="2017-08-02T19:25:06" StartDate="2017-08-02T18:25:06" Version="15.1 SP2 Patch 14 (Oct 17, 2016)"&gt;&lt;Rowset&gt;&lt;Columns&gt;&lt;Column Description="IDLINE" MaxRange="1" MinRange="0" Name="IDLINE" SQLDataType="12" SourceColumn="IDLINE"/&gt;&lt;Column Description="DATE_SHIFT" MaxRange="1" MinRange="0" Name="DATE_SHIFT" SQLDataType="91" SourceColumn="DATE_SHIFT"/&gt;&lt;Column Description="SHIFT" MaxRange="1" MinRange="0" Name="SHIFT" SQLDataType="12" SourceColumn="SHIFT"/&gt;&lt;Column Description="OPEID" MaxRange="1" MinRange="0" Name="OPEID" SQLDataType="12" SourceColumn="OPEID"/&gt;&lt;Column Description="ORDER" MaxRange="1" MinRange="0" Name="ORDER" SQLDataType="12" SourceColumn="ORDER"/&gt;&lt;Column Description="POPER" MaxRange="1" MinRange="0" Name="POPER" SQLDataType="12" SourceColumn="POPER"/&gt;&lt;Column Description="TYPECONF" MaxRange="1" MinRange="0" Name="TYPECONF" SQLDataType="12" SourceColumn="TYPECONF"/&gt;&lt;Column Description="SREASID" MaxRange="1" MinRange="0" Name="SREASID" SQLDataType="12" SourceColumn="SREASID"/&gt;&lt;Column Description="UDCNR" MaxRange="1" MinRange="0" Name="UDCNR" SQLDataType="12" SourceColumn="UDCNR"/&gt;&lt;Column Description="TIME_ID" MaxRange="1" MinRange="0" Name="TIME_ID" SQLDataType="93" SourceColumn="TIME_ID"/&gt;&lt;Column Description="QTY" MaxRange="1" MinRange="0" Name="QTY" SQLDataType="7" SourceColumn="QTY"/&gt;&lt;Column Description="QTY_PRO" MaxRange="1" MinRange="0" Name="QTY_PRO" SQLDataType="7" SourceColumn="QTY_PRO"/&gt;&lt;Column Description="DATE_UPD" MaxRange="1" MinRange="0" Name="DATE_UPD" SQLDataType="93" SourceColumn="DATE_UPD"/&gt;&lt;Column Description="PLANT" MaxRange="1" MinRange="0" Name="PLANT" SQLDataType="12" SourceColumn="PLANT"/&gt;&lt;Column Description="CONFIRMED" MaxRange="1" MinRange="0" Name="CONFIRMED" SQLDataType="-7" SourceColumn="CONFIRMED"/&gt;&lt;Column Description="DELETED" MaxRange="1" MinRange="0" Name="DELETED" SQLDataType="-7" SourceColumn="DELETED"/&gt;&lt;Column Description="USERMOD" MaxRange="1" MinRange="0" Name="USERMOD" SQLDataType="12" SourceColumn="USERMOD"/&gt;&lt;Column Description="TYPEMOD" MaxRange="1" MinRange="0" Name="TYPEMOD" SQLDataType="12" SourceColumn="TYPEMOD"/&gt;&lt;Column Description="NRPRNT" MaxRange="1" MinRange="0" Name="NRPRNT" SQLDataType="12" SourceColumn="NRPRNT"/&gt;&lt;Column Description="WTDUR" MaxRange="1" MinRange="0" Name="WTDUR" SQLDataType="7" SourceColumn="WTDUR"/&gt;&lt;Column Description="UMDUR" MaxRange="1" MinRange="0" Name="UMDUR" SQLDataType="12" SourceColumn="UMDUR"/&gt;&lt;Column Description="ERROR" MaxRange="1" MinRange="0" Name="ERROR" SQLDataType="-7" SourceColumn="ERROR"/&gt;&lt;Column Description="MII_GUID" MaxRange="1" MinRange="0" Name="MII_GUID" SQLDataType="12" SourceColumn="MII_GUID"/&gt;&lt;Column Description="SAP_GUID" MaxRange="1" MinRange="0" Name="SAP_GUID" SQLDataType="12" SourceColumn="SAP_GUID"/&gt;&lt;Column Description="MII_GUID_ST" MaxRange="1" MinRange="0" Name="MII_GUID_ST" SQLDataType="12" SourceColumn="MII_GUID_ST"/&gt;&lt;Column Description="DATARIO" MaxRange="1" MinRange="0" Name="DATARIO" SQLDataType="12" SourceColumn="DATARIO"/&gt;&lt;Column Description="CESTA_TT" MaxRange="1" MinRange="0" Name="CESTA_TT" SQLDataType="12" SourceColumn="CESTA_TT"/&gt;&lt;/Columns&gt;&lt;Row&gt;&lt;IDLINE&gt;FFM1&lt;/IDLINE&gt;&lt;DATE_SHIFT&gt;2017-08-02T00:00:00&lt;/DATE_SHIFT&gt;&lt;SHIFT&gt;T2&lt;/SHIFT&gt;&lt;OPEID&gt;27011&lt;/OPEID&gt;&lt;ORDER&gt;000000700423&lt;/ORDER&gt;&lt;POPER&gt;0010&lt;/POPER&gt;&lt;TYPECONF&gt;G&lt;/TYPECONF&gt;&lt;SREASID/&gt;&lt;UDCNR&gt;17410180000741&lt;/UDCNR&gt;&lt;TIME_ID&gt;2017-08-02T14:46:52&lt;/TIME_ID&gt;&lt;QTY&gt;3&lt;/QTY&gt;&lt;QTY_PRO&gt;0&lt;/QTY_PRO&gt;&lt;DATE_UPD&gt;2017-08-02T14:46:58&lt;/DATE_UPD&gt;&lt;PLANT&gt;4101&lt;/PLANT&gt;&lt;CONFIRMED&gt;1&lt;/CONFIRMED&gt;&lt;DELETED&gt;0&lt;/DELETED&gt;&lt;USERMOD/&gt;&lt;TYPEMOD&gt;N&lt;/TYPEMOD&gt;&lt;NRPRNT&gt;L-1&lt;/NRPRNT&gt;&lt;WTDUR&gt;5&lt;/WTDUR&gt;&lt;UMDUR/&gt;&lt;ERROR&gt;0&lt;/ERROR&gt;&lt;MII_GUID&gt;41010000001159&lt;/MII_GUID&gt;&lt;SAP_GUID&gt;DED5A9296C021ED79DF012CB00FD8922&lt;/SAP_GUID&gt;&lt;MII_GUID_ST/&gt;&lt;DATARIO&gt;1707&lt;/DATARIO&gt;&lt;CESTA_TT&gt;Luca&lt;/CESTA_TT&gt;&lt;/Row&gt;&lt;/Rowset&gt;&lt;/Rowsets&gt;</Results><QueryStartDate>2017-08-02T19:25:05</QueryStartDate></Value><SchemaURI/><SchemaElement/><ValidateXMLOnExecution>1</ValidateXMLOnExecution><ReadOnly>false</ReadOnly><AlertXMLAssigned>false</AlertXMLAssigned></ContextItem><ContextItem><Name>InsertConfProdTR_preliminare</Name><Description/><MinRange>0</MinRange><MaxRange>0</MaxRange><Value xsi:type="TransactionCall"><ResetState>true</ResetState><TransactionName>ProductionMain/Confirm/ConfProd/insertConfProdTR</TransactionName><Async>false</Async><Persist>INHERIT</Persist><LogLevel>INHERIT</LogLevel><LogType>INHERIT</LogType><StoreTransactionOutput>false</StoreTransactionOutput><Expiration>-1</Expiration><PLANT>4101</PLANT><TYPECONF>G</TYPECONF><DELETED>false</DELETED><NRPRNT/><ORDER>000000700000</ORDER><SHIFT>T1</SHIFT><POPER>0040</POPER><MII_GUID/><CONFIRMED>false</CONFIRMED><UDCNR>17410180000013</UDCNR><WTDUR>2</WTDUR><QTY>1</QTY><UMDUR/><ERROR>false</ERROR><TYPEMOD/><CESTA_TT/><DATARIO/><OPEID>54321</OPEID><QTY_PRO>0</QTY_PRO><SREASID/><SAP_GUID/><USERMOD/><DATE_SHIFT>2017-07-05</DATE_SHIFT><TIME_ID>2017-07-05 12:05</TIME_ID><Note/><IDLINE>FFM1</IDLINE></Value><ReadOnly>false</ReadOnly><AlertXMLAssigned>false</AlertXMLAssigned></ContextItem><ContextItem><Name>UpdateConfProdGuid_RT</Name><Description/><MinRange>0</MinRange><MaxRange>0</MaxRange><Value xsi:type="IlluminatorSQLQueryObject"><Timeout>60</Timeout><QueryParameters/><QueryTemplate>ProductionMain/Sap/To/UpdateConfProdGuid</QueryTemplate><QueryEndDate>2017-08-02T17:24:13</QueryEndDate><SQLTransaction/><TagList/><Results><ReferenceDocumentSource/>&lt;?xml version="1.0" encoding="UTF-8"?&gt;&lt;Rowsets CachedTime="" DateCreated="2017-08-02T18:35:56" EndDate="2017-08-02T18:35:56" StartDate="2017-08-02T17:35:56" Version="15.1 SP2 Patch 14 (Oct 17, 2016)"/&gt;</Results><QueryStartDate>2017-08-02T17:24:13</QueryStartDate></Value><SchemaURI/><SchemaElement/><ValidateXMLOnExecution>1</ValidateXMLOnExecution><ReadOnly>false</ReadOnly><AlertXMLAssigned>false</AlertXMLAssigned></ContextItem><ContextItem><Name>UpdateConfProdGuid_FW</Name><Description/><MinRange>0</MinRange><MaxRange>0</MaxRange><Value xsi:type="IlluminatorSQLQueryObject"><Timeout>60</Timeout><QueryParameters/><QueryTemplate>ProductionMain/Sap/To/UpdateConfProdGuid</QueryTemplate><QueryEndDate>2017-08-02T17:24:13</QueryEndDate><SQLTransaction/><TagList/><Results><ReferenceDocumentSource/>&lt;?xml version="1.0" encoding="UTF-8"?&gt;&lt;Rowsets CachedTime="" DateCreated="2017-08-02T18:35:56" EndDate="2017-08-02T18:35:56" StartDate="2017-08-02T17:35:56" Version="15.1 SP2 Patch 14 (Oct 17, 2016)"/&gt;</Results><QueryStartDate>2017-08-02T17:24:13</QueryStartDate></Value><SchemaURI/><SchemaElement/><ValidateXMLOnExecution>1</ValidateXMLOnExecution><ReadOnly>false</ReadOnly><AlertXMLAssigned>false</AlertXMLAssigned></ContextItem><ContextItem><Name>getConfProd4Copy_Resend</Name><Description/><MinRange>0</MinRange><MaxRange>0</MaxRange><Value xsi:type="IlluminatorSQLQueryObject"><Timeout>60</Timeout><QueryParameters/><QueryTemplate>ProductionMain/Sap/To/getConfProd4Copy</QueryTemplate><QueryEndDate>2017-08-02T19:25:05</QueryEndDate><SQLTransaction/><TagList/><Results><ReferenceDocumentSource/>&lt;?xml version="1.0" encoding="UTF-8"?&gt;&lt;Rowsets CachedTime="" DateCreated="2017-08-02T19:25:06" EndDate="2017-08-02T19:25:06" StartDate="2017-08-02T18:25:06" Version="15.1 SP2 Patch 14 (Oct 17, 2016)"&gt;&lt;Rowset&gt;&lt;Columns&gt;&lt;Column Description="IDLINE" MaxRange="1" MinRange="0" Name="IDLINE" SQLDataType="12" SourceColumn="IDLINE"/&gt;&lt;Column Description="DATE_SHIFT" MaxRange="1" MinRange="0" Name="DATE_SHIFT" SQLDataType="91" SourceColumn="DATE_SHIFT"/&gt;&lt;Column Description="SHIFT" MaxRange="1" MinRange="0" Name="SHIFT" SQLDataType="12" SourceColumn="SHIFT"/&gt;&lt;Column Description="OPEID" MaxRange="1" MinRange="0" Name="OPEID" SQLDataType="12" SourceColumn="OPEID"/&gt;&lt;Column Description="ORDER" MaxRange="1" MinRange="0" Name="ORDER" SQLDataType="12" SourceColumn="ORDER"/&gt;&lt;Column Description="POPER" MaxRange="1" MinRange="0" Name="POPER" SQLDataType="12" SourceColumn="POPER"/&gt;&lt;Column Description="TYPECONF" MaxRange="1" MinRange="0" Name="TYPECONF" SQLDataType="12" SourceColumn="TYPECONF"/&gt;&lt;Column Description="SREASID" MaxRange="1" MinRange="0" Name="SREASID" SQLDataType="12" SourceColumn="SREASID"/&gt;&lt;Column Description="UDCNR" MaxRange="1" MinRange="0" Name="UDCNR" SQLDataType="12" SourceColumn="UDCNR"/&gt;&lt;Column Description="TIME_ID" MaxRange="1" MinRange="0" Name="TIME_ID" SQLDataType="93" SourceColumn="TIME_ID"/&gt;&lt;Column Description="QTY" MaxRange="1" MinRange="0" Name="QTY" SQLDataType="7" SourceColumn="QTY"/&gt;&lt;Column Description="QTY_PRO" MaxRange="1" MinRange="0" Name="QTY_PRO" SQLDataType="7" SourceColumn="QTY_PRO"/&gt;&lt;Column Description="DATE_UPD" MaxRange="1" MinRange="0" Name="DATE_UPD" SQLDataType="93" SourceColumn="DATE_UPD"/&gt;&lt;Column Description="PLANT" MaxRange="1" MinRange="0" Name="PLANT" SQLDataType="12" SourceColumn="PLANT"/&gt;&lt;Column Description="CONFIRMED" MaxRange="1" MinRange="0" Name="CONFIRMED" SQLDataType="-7" SourceColumn="CONFIRMED"/&gt;&lt;Column Description="DELETED" MaxRange="1" MinRange="0" Name="DELETED" SQLDataType="-7" SourceColumn="DELETED"/&gt;&lt;Column Description="USERMOD" MaxRange="1" MinRange="0" Name="USERMOD" SQLDataType="12" SourceColumn="USERMOD"/&gt;&lt;Column Description="TYPEMOD" MaxRange="1" MinRange="0" Name="TYPEMOD" SQLDataType="12" SourceColumn="TYPEMOD"/&gt;&lt;Column Description="NRPRNT" MaxRange="1" MinRange="0" Name="NRPRNT" SQLDataType="12" SourceColumn="NRPRNT"/&gt;&lt;Column Description="WTDUR" MaxRange="1" MinRange="0" Name="WTDUR" SQLDataType="7" SourceColumn="WTDUR"/&gt;&lt;Column Description="UMDUR" MaxRange="1" MinRange="0" Name="UMDUR" SQLDataType="12" SourceColumn="UMDUR"/&gt;&lt;Column Description="ERROR" MaxRange="1" MinRange="0" Name="ERROR" SQLDataType="-7" SourceColumn="ERROR"/&gt;&lt;Column Description="MII_GUID" MaxRange="1" MinRange="0" Name="MII_GUID" SQLDataType="12" SourceColumn="MII_GUID"/&gt;&lt;Column Description="SAP_GUID" MaxRange="1" MinRange="0" Name="SAP_GUID" SQLDataType="12" SourceColumn="SAP_GUID"/&gt;&lt;Column Description="MII_GUID_ST" MaxRange="1" MinRange="0" Name="MII_GUID_ST" SQLDataType="12" SourceColumn="MII_GUID_ST"/&gt;&lt;Column Description="DATARIO" MaxRange="1" MinRange="0" Name="DATARIO" SQLDataType="12" SourceColumn="DATARIO"/&gt;&lt;Column Description="CESTA_TT" MaxRange="1" MinRange="0" Name="CESTA_TT" SQLDataType="12" SourceColumn="CESTA_TT"/&gt;&lt;/Columns&gt;&lt;Row&gt;&lt;IDLINE&gt;FFM1&lt;/IDLINE&gt;&lt;DATE_SHIFT&gt;2017-08-02T00:00:00&lt;/DATE_SHIFT&gt;&lt;SHIFT&gt;T2&lt;/SHIFT&gt;&lt;OPEID&gt;27011&lt;/OPEID&gt;&lt;ORDER&gt;000000700423&lt;/ORDER&gt;&lt;POPER&gt;0010&lt;/POPER&gt;&lt;TYPECONF&gt;G&lt;/TYPECONF&gt;&lt;SREASID/&gt;&lt;UDCNR&gt;17410180000741&lt;/UDCNR&gt;&lt;TIME_ID&gt;2017-08-02T14:46:52&lt;/TIME_ID&gt;&lt;QTY&gt;3&lt;/QTY&gt;&lt;QTY_PRO&gt;0&lt;/QTY_PRO&gt;&lt;DATE_UPD&gt;2017-08-02T14:46:58&lt;/DATE_UPD&gt;&lt;PLANT&gt;4101&lt;/PLANT&gt;&lt;CONFIRMED&gt;1&lt;/CONFIRMED&gt;&lt;DELETED&gt;0&lt;/DELETED&gt;&lt;USERMOD/&gt;&lt;TYPEMOD&gt;N&lt;/TYPEMOD&gt;&lt;NRPRNT&gt;L-1&lt;/NRPRNT&gt;&lt;WTDUR&gt;5&lt;/WTDUR&gt;&lt;UMDUR/&gt;&lt;ERROR&gt;0&lt;/ERROR&gt;&lt;MII_GUID&gt;41010000001159&lt;/MII_GUID&gt;&lt;SAP_GUID&gt;DED5A9296C021ED79DF012CB00FD8922&lt;/SAP_GUID&gt;&lt;MII_GUID_ST/&gt;&lt;DATARIO&gt;1707&lt;/DATARIO&gt;&lt;CESTA_TT&gt;Luca&lt;/CESTA_TT&gt;&lt;/Row&gt;&lt;/Rowset&gt;&lt;/Rowsets&gt;</Results><QueryStartDate>2017-08-02T19:25:05</QueryStartDate></Value><SchemaURI/><SchemaElement/><ValidateXMLOnExecution>1</ValidateXMLOnExecution><ReadOnly>false</ReadOnly><AlertXMLAssigned>false</AlertXMLAssigned></ContextItem><ContextItem><Name>UpdateOperProdStorno_0</Name><Description/><MinRange>0</MinRange><MaxRange>0</MaxRange><Value xsi:type="IlluminatorSQLQueryObject"><Timeout>60</Timeout><QueryParameters/><QueryTemplate>ProductionMain/Sap/To/UpdateOperProdStorno</QueryTemplate><QueryEndDate>2017-08-23T12:29:42</QueryEndDate><SQLTransaction/><TagList/><Results><ReferenceDocumentSource/>&lt;?xml version="1.0" encoding="UTF-8"?&gt;&lt;Rowsets CachedTime="" DateCreated="2017-08-23T12:29:53" EndDate="2017-08-23T12:29:53" StartDate="2017-08-23T11:29:53" Version="15.1 SP2 Patch 14 (Oct 17, 2016)"&gt;&lt;FatalError&gt;com.mysql.jdbc.MysqlDataTruncation: Data truncation: Incorrect date value: '' for column 'DATE_SHIFT' at row 1&lt;/FatalError&gt;&lt;/Rowsets&gt;</Results><QueryStartDate>2017-08-23T12:29:42</QueryStartDate></Value><SchemaURI/><SchemaElement/><ValidateXMLOnExecution>1</ValidateXMLOnExecution><ReadOnly>false</ReadOnly><AlertXMLAssigned>false</AlertXMLAssigned></ContextItem><ContextItem><Name>getConfProd4Copy_ST</Name><Description/><MinRange>0</MinRange><MaxRange>0</MaxRange><Value xsi:type="IlluminatorSQLQueryObject"><Timeout>60</Timeout><QueryParameters/><QueryTemplate>ProductionMain/Sap/To/getConfProd4Copy</QueryTemplate><QueryEndDate>2017-08-02T19:25:05</QueryEndDate><SQLTransaction/><TagList/><Results><ReferenceDocumentSource/>&lt;?xml version="1.0" encoding="UTF-8"?&gt;&lt;Rowsets CachedTime="" DateCreated="2017-08-02T19:25:06" EndDate="2017-08-02T19:25:06" StartDate="2017-08-02T18:25:06" Version="15.1 SP2 Patch 14 (Oct 17, 2016)"&gt;&lt;Rowset&gt;&lt;Columns&gt;&lt;Column Description="IDLINE" MaxRange="1" MinRange="0" Name="IDLINE" SQLDataType="12" SourceColumn="IDLINE"/&gt;&lt;Column Description="DATE_SHIFT" MaxRange="1" MinRange="0" Name="DATE_SHIFT" SQLDataType="91" SourceColumn="DATE_SHIFT"/&gt;&lt;Column Description="SHIFT" MaxRange="1" MinRange="0" Name="SHIFT" SQLDataType="12" SourceColumn="SHIFT"/&gt;&lt;Column Description="OPEID" MaxRange="1" MinRange="0" Name="OPEID" SQLDataType="12" SourceColumn="OPEID"/&gt;&lt;Column Description="ORDER" MaxRange="1" MinRange="0" Name="ORDER" SQLDataType="12" SourceColumn="ORDER"/&gt;&lt;Column Description="POPER" MaxRange="1" MinRange="0" Name="POPER" SQLDataType="12" SourceColumn="POPER"/&gt;&lt;Column Description="TYPECONF" MaxRange="1" MinRange="0" Name="TYPECONF" SQLDataType="12" SourceColumn="TYPECONF"/&gt;&lt;Column Description="SREASID" MaxRange="1" MinRange="0" Name="SREASID" SQLDataType="12" SourceColumn="SREASID"/&gt;&lt;Column Description="UDCNR" MaxRange="1" MinRange="0" Name="UDCNR" SQLDataType="12" SourceColumn="UDCNR"/&gt;&lt;Column Description="TIME_ID" MaxRange="1" MinRange="0" Name="TIME_ID" SQLDataType="93" SourceColumn="TIME_ID"/&gt;&lt;Column Description="QTY" MaxRange="1" MinRange="0" Name="QTY" SQLDataType="7" SourceColumn="QTY"/&gt;&lt;Column Description="QTY_PRO" MaxRange="1" MinRange="0" Name="QTY_PRO" SQLDataType="7" SourceColumn="QTY_PRO"/&gt;&lt;Column Description="DATE_UPD" MaxRange="1" MinRange="0" Name="DATE_UPD" SQLDataType="93" SourceColumn="DATE_UPD"/&gt;&lt;Column Description="PLANT" MaxRange="1" MinRange="0" Name="PLANT" SQLDataType="12" SourceColumn="PLANT"/&gt;&lt;Column Description="CONFIRMED" MaxRange="1" MinRange="0" Name="CONFIRMED" SQLDataType="-7" SourceColumn="CONFIRMED"/&gt;&lt;Column Description="DELETED" MaxRange="1" MinRange="0" Name="DELETED" SQLDataType="-7" SourceColumn="DELETED"/&gt;&lt;Column Description="USERMOD" MaxRange="1" MinRange="0" Name="USERMOD" SQLDataType="12" SourceColumn="USERMOD"/&gt;&lt;Column Description="TYPEMOD" MaxRange="1" MinRange="0" Name="TYPEMOD" SQLDataType="12" SourceColumn="TYPEMOD"/&gt;&lt;Column Description="NRPRNT" MaxRange="1" MinRange="0" Name="NRPRNT" SQLDataType="12" SourceColumn="NRPRNT"/&gt;&lt;Column Description="WTDUR" MaxRange="1" MinRange="0" Name="WTDUR" SQLDataType="7" SourceColumn="WTDUR"/&gt;&lt;Column Description="UMDUR" MaxRange="1" MinRange="0" Name="UMDUR" SQLDataType="12" SourceColumn="UMDUR"/&gt;&lt;Column Description="ERROR" MaxRange="1" MinRange="0" Name="ERROR" SQLDataType="-7" SourceColumn="ERROR"/&gt;&lt;Column Description="MII_GUID" MaxRange="1" MinRange="0" Name="MII_GUID" SQLDataType="12" SourceColumn="MII_GUID"/&gt;&lt;Column Description="SAP_GUID" MaxRange="1" MinRange="0" Name="SAP_GUID" SQLDataType="12" SourceColumn="SAP_GUID"/&gt;&lt;Column Description="MII_GUID_ST" MaxRange="1" MinRange="0" Name="MII_GUID_ST" SQLDataType="12" SourceColumn="MII_GUID_ST"/&gt;&lt;Column Description="DATARIO" MaxRange="1" MinRange="0" Name="DATARIO" SQLDataType="12" SourceColumn="DATARIO"/&gt;&lt;Column Description="CESTA_TT" MaxRange="1" MinRange="0" Name="CESTA_TT" SQLDataType="12" SourceColumn="CESTA_TT"/&gt;&lt;/Columns&gt;&lt;Row&gt;&lt;IDLINE&gt;FFM1&lt;/IDLINE&gt;&lt;DATE_SHIFT&gt;2017-08-02T00:00:00&lt;/DATE_SHIFT&gt;&lt;SHIFT&gt;T2&lt;/SHIFT&gt;&lt;OPEID&gt;27011&lt;/OPEID&gt;&lt;ORDER&gt;000000700423&lt;/ORDER&gt;&lt;POPER&gt;0010&lt;/POPER&gt;&lt;TYPECONF&gt;G&lt;/TYPECONF&gt;&lt;SREASID/&gt;&lt;UDCNR&gt;17410180000741&lt;/UDCNR&gt;&lt;TIME_ID&gt;2017-08-02T14:46:52&lt;/TIME_ID&gt;&lt;QTY&gt;3&lt;/QTY&gt;&lt;QTY_PRO&gt;0&lt;/QTY_PRO&gt;&lt;DATE_UPD&gt;2017-08-02T14:46:58&lt;/DATE_UPD&gt;&lt;PLANT&gt;4101&lt;/PLANT&gt;&lt;CONFIRMED&gt;1&lt;/CONFIRMED&gt;&lt;DELETED&gt;0&lt;/DELETED&gt;&lt;USERMOD/&gt;&lt;TYPEMOD&gt;N&lt;/TYPEMOD&gt;&lt;NRPRNT&gt;L-1&lt;/NRPRNT&gt;&lt;WTDUR&gt;5&lt;/WTDUR&gt;&lt;UMDUR/&gt;&lt;ERROR&gt;0&lt;/ERROR&gt;&lt;MII_GUID&gt;41010000001159&lt;/MII_GUID&gt;&lt;SAP_GUID&gt;DED5A9296C021ED79DF012CB00FD8922&lt;/SAP_GUID&gt;&lt;MII_GUID_ST/&gt;&lt;DATARIO&gt;1707&lt;/DATARIO&gt;&lt;CESTA_TT&gt;Luca&lt;/CESTA_TT&gt;&lt;/Row&gt;&lt;/Rowset&gt;&lt;/Rowsets&gt;</Results><QueryStartDate>2017-08-02T19:25:05</QueryStartDate></Value><SchemaURI/><SchemaElement/><ValidateXMLOnExecution>1</ValidateXMLOnExecution><ReadOnly>false</ReadOnly><AlertXMLAssigned>false</AlertXMLAssigned></ContextItem><ContextItem><Name>removeFromUDCMovTR_0</Name><Description/><MinRange>0</MinRange><MaxRange>0</MaxRange><Value xsi:type="TransactionCall"><ResetState>false</ResetState><TransactionName>ProductionMain/Movement/UDC/removeFromUDCMovTR</TransactionName><Async>false</Async><Persist>INHERIT</Persist><LogLevel>INHERIT</LogLevel><LogType>INHERIT</LogType><StoreTransactionOutput>false</StoreTransactionOutput><Expiration>-1</Expiration><cancel>false</cancel><NoteDet/><poper/><quantity>0</quantity><shift/><udcnr/><lineid/><dateshift/><opeid/><datetime/><Language/><material/><plant/><order/></Value><ReadOnly>false</ReadOnly><AlertXMLAssigned>false</AlertXMLAssigned></ContextItem><ContextItem><Name>saveUDCMovTR_0</Name><Description/><MinRange>0</MinRange><MaxRange>0</MaxRange><Value xsi:type="TransactionCall"><ResetState>false</ResetState><TransactionName>ProductionMain/Movement/UDC/saveUDCMovTR</TransactionName><Async>false</Async><Persist>INHERIT</Persist><LogLevel>INHERIT</LogLevel><LogType>INHERIT</LogType><StoreTransactionOutput>false</StoreTransactionOutput><Expiration>-1</Expiration><NoteDet/><quantity>1</quantity><basketTt/><origin/><shift>T1</shift><destination/><mastStat/><dater/><dateshift>2017-05-12</dateshift><workTime>0</workTime><opeid>ID_prova</opeid><datetime>2017-04-27 14:45:00</datetime><Language/><material/><serial/><udc>17410180000009</udc><plant>4101</plant><langID>IT</langID><nrprnt/><order_poper>0001000070870010</order_poper><idLine>FFM1</idLine><nmimb/><movStat/></Value><ReadOnly>false</ReadOnly><AlertXMLAssigned>false</AlertXMLAssigned></ContextItem><ContextItem><Name>UpdateConfProdGuid_RT_Bis</Name><Description/><MinRange>0</MinRange><MaxRange>0</MaxRange><Value xsi:type="IlluminatorSQLQueryObject"><Timeout>60</Timeout><QueryParameters/><QueryTemplate>ProductionMain/Sap/To/UpdateConfProdGuidRett</QueryTemplate><QueryEndDate>2017-08-02T17:24:13</QueryEndDate><SQLTransaction/><TagList/><Results><ReferenceDocumentSource/>&lt;?xml version="1.0" encoding="UTF-8"?&gt;&lt;Rowsets CachedTime="" DateCreated="2017-09-05T15:21:38" EndDate="2017-09-05T15:21:38" StartDate="2017-09-05T14:21:38" Version="15.1 SP2 Patch 14 (Oct 17, 2016)"/&gt;</Results><QueryStartDate>2017-08-02T17:24:13</QueryStartDate></Value><SchemaURI/><SchemaElement/><ValidateXMLOnExecution>1</ValidateXMLOnExecution><ReadOnly>false</ReadOnly><AlertXMLAssigned>false</AlertXMLAssigned></ContextItem><ContextItem><Name>RestoreUDCfromCancelTR_Storno</Name><Description/><MinRange>0</MinRange><MaxRange>0</MaxRange><Value xsi:type="TransactionCall"><ResetState>false</ResetState><TransactionName>ProductionMain/Sap/To/RestoreUDCfromCancelTR</TransactionName><Async>false</Async><Persist>INHERIT</Persist><LogLevel>INHERIT</LogLevel><LogType>INHERIT</LogType><StoreTransactionOutput>false</StoreTransactionOutput><Expiration>-1</Expiration><MiiGuid/><Type>S</Type><UDC_IN>&lt;?xml version="1.0" encoding="UTF-8"?&gt;&lt;TB_ZMIII002_TB_UDC&gt;&lt;?xml version="1.0" encoding="UTF-8"?&gt;&lt;ZMIII002_TB_UDC&gt;
&lt;item&gt;
&lt;EXIDV&gt;17410180001356&lt;/EXIDV&gt;
&lt;ENMNG&gt;1&lt;/ENMNG&gt;
&lt;OFMNG/&gt;
&lt;/item&gt;
&lt;/ZMIII002_TB_UDC&gt;&lt;/TB_ZMIII002_TB_UDC&gt;</UDC_IN><DataConf><ReferenceDocumentSource/>&lt;?xml version="1.0" encoding="UTF-8"?&gt;&lt;RFC_BAPI&gt;
&lt;IV_AUFNR/&gt;
&lt;IV_CODIM/&gt; 
&lt;IV_CSSOS/&gt; 
&lt;IV_EXIDV/&gt; 
&lt;IV_MINUT/&gt; 
&lt;IV_OPRMT/&gt; 
&lt;IV_PDATU/&gt; 
&lt;IV_PTIME/&gt; 
&lt;IV_QTNEW/&gt; 
&lt;IV_QTOLD/&gt; 
&lt;IV_STAMP/&gt; 
&lt;IV_TPOPE/&gt; 
&lt;IV_TPQTY/&gt;
&lt;IV_TURNO/&gt; 
&lt;IV_VORNR/&gt; 
&lt;IV_WERKS/&gt; 
&lt;IV_DATAR/&gt; 
&lt;IV_CESTT/&gt; 
&lt;IV_GUID_SC/&gt; 
&lt;/RFC_BAPI&gt;</DataConf></Value><SchemaURI/><SchemaElement/><ValidateXMLOnExecution>1</ValidateXMLOnExecution><ReadOnly>false</ReadOnly><AlertXMLAssigned>false</AlertXMLAssigned></ContextItem><ContextItem><Name>RestoreUDCfromCancelTR_Rett</Name><Description/><MinRange>0</MinRange><MaxRange>0</MaxRange><Value xsi:type="TransactionCall"><ResetState>false</ResetState><TransactionName>ProductionMain/Sap/To/RestoreUDCfromCancelTR</TransactionName><Async>false</Async><Persist>INHERIT</Persist><LogLevel>INHERIT</LogLevel><LogType>INHERIT</LogType><StoreTransactionOutput>false</StoreTransactionOutput><Expiration>-1</Expiration><MiiGuid/><Type>S</Type><UDC_IN>&lt;?xml version="1.0" encoding="UTF-8"?&gt;&lt;TB_ZMIII002_TB_UDC&gt;&lt;?xml version="1.0" encoding="UTF-8"?&gt;&lt;ZMIII002_TB_UDC&gt;
&lt;item&gt;
&lt;EXIDV&gt;17410180001356&lt;/EXIDV&gt;
&lt;ENMNG&gt;1&lt;/ENMNG&gt;
&lt;OFMNG/&gt;
&lt;/item&gt;
&lt;/ZMIII002_TB_UDC&gt;&lt;/TB_ZMIII002_TB_UDC&gt;</UDC_IN><DataConf><ReferenceDocumentSource/>&lt;?xml version="1.0" encoding="UTF-8"?&gt;&lt;RFC_BAPI&gt;
&lt;IV_AUFNR/&gt;
&lt;IV_CODIM/&gt; 
&lt;IV_CSSOS/&gt; 
&lt;IV_EXIDV/&gt; 
&lt;IV_MINUT/&gt; 
&lt;IV_OPRMT/&gt; 
&lt;IV_PDATU/&gt; 
&lt;IV_PTIME/&gt; 
&lt;IV_QTNEW/&gt; 
&lt;IV_QTOLD/&gt; 
&lt;IV_STAMP/&gt; 
&lt;IV_TPOPE/&gt; 
&lt;IV_TPQTY/&gt;
&lt;IV_TURNO/&gt; 
&lt;IV_VORNR/&gt; 
&lt;IV_WERKS/&gt; 
&lt;IV_DATAR/&gt; 
&lt;IV_CESTT/&gt; 
&lt;IV_GUID_SC/&gt; 
&lt;/RFC_BAPI&gt;</DataConf></Value><SchemaURI/><SchemaElement/><ValidateXMLOnExecution>1</ValidateXMLOnExecution><ReadOnly>false</ReadOnly><AlertXMLAssigned>false</AlertXMLAssigned></ContextItem><ContextItem><Name>Conditional_1</Name><Description/><MinRange>0</MinRange><MaxRange>0</MaxRange><Value xsi:type="ConditionalAction"><Output>false</Output><InputCount>1</InputCount><LogicalAnd>false</LogicalAnd><Input1>false</Input1></Value><ReadOnly>false</ReadOnly><AlertXMLAssigned>false</AlertXMLAssigned></ContextItem><ContextItem><Name>getPlantbyIDSQ_0</Name><Description/><MinRange>0</MinRange><MaxRange>0</MaxRange><Value xsi:type="IlluminatorSQLQueryObject"><Timeout>60</Timeout><QueryParameters/><QueryTemplate>ProductionMain/MasterData/Plants/getPlantbyIDSQ</QueryTemplate><QueryEndDate>2018-02-28T18:25:08</QueryEndDate><SQLTransaction/><TagList/><Results><ReferenceDocumentSource/>&lt;?xml version="1.0" encoding="UTF-8"?&gt;&lt;Rowsets CachedTime="" DateCreated="2018-02-28T18:25:16" EndDate="2018-02-28T18:25:16" StartDate="2018-02-28T17:25:16" Version="15.1 SP2 Patch 14 (Oct 17, 2016)"&gt;&lt;Rowset&gt;&lt;Columns&gt;&lt;Column Description="PLANT" MaxRange="1" MinRange="0" Name="PLANT" SQLDataType="12" SourceColumn="PLANT"/&gt;&lt;Column Description="NAME1" MaxRange="1" MinRange="0" Name="NAME1" SQLDataType="12" SourceColumn="NAME1"/&gt;&lt;Column Description="NAME_LONG" MaxRange="1" MinRange="0" Name="NAME_LONG" SQLDataType="12" SourceColumn="NAME_LONG"/&gt;&lt;Column Description="PACFN" MaxRange="1" MinRange="0" Name="PACFN" SQLDataType="-7" SourceColumn="PACFN"/&gt;&lt;Column Description="CHECKSERIAL" MaxRange="1" MinRange="0" Name="CHECKSERIAL" SQLDataType="-7" SourceColumn="CHECKSERIAL"/&gt;&lt;Column Description="UDCFN" MaxRange="1" MinRange="0" Name="UDCFN" SQLDataType="-7" SourceColumn="UDCFN"/&gt;&lt;Column Description="UDCINFN" MaxRange="1" MinRange="0" Name="UDCINFN" SQLDataType="-7" SourceColumn="UDCINFN"/&gt;&lt;Column Description="TOSAPFN" MaxRange="1" MinRange="0" Name="TOSAPFN" SQLDataType="-7" SourceColumn="TOSAPFN"/&gt;&lt;Column Description="TIMEOUT" MaxRange="1" MinRange="0" Name="TIMEOUT" SQLDataType="4" SourceColumn="TIMEOUT"/&gt;&lt;Column Description="GLINK" MaxRange="1" MinRange="0" Name="GLINK" SQLDataType="-7" SourceColumn="GLINK"/&gt;&lt;Column Description="PRNTDIRECT" MaxRange="1" MinRange="0" Name="PRNTDIRECT" SQLDataType="-7" SourceColumn="PRNTDIRECT"/&gt;&lt;Column Description="LANGU" MaxRange="1" MinRange="0" Name="LANGU" SQLDataType="12" SourceColumn="LANGU"/&gt;&lt;Column Description="TIMEDIFF" MaxRange="1" MinRange="0" Name="TIMEDIFF" SQLDataType="5" SourceColumn="TIMEDIFF"/&gt;&lt;/Columns&gt;&lt;Row&gt;&lt;PLANT&gt;4101&lt;/PLANT&gt;&lt;NAME1&gt;Fonderia FMB&lt;/NAME1&gt;&lt;NAME_LONG&gt;Stabilimento F.M.B. s.r.l&lt;/NAME_LONG&gt;&lt;PACFN&gt;1&lt;/PACFN&gt;&lt;CHECKSERIAL&gt;1&lt;/CHECKSERIAL&gt;&lt;UDCFN&gt;1&lt;/UDCFN&gt;&lt;UDCINFN&gt;0&lt;/UDCINFN&gt;&lt;TOSAPFN&gt;1&lt;/TOSAPFN&gt;&lt;TIMEOUT&gt;300&lt;/TIMEOUT&gt;&lt;GLINK&gt;0&lt;/GLINK&gt;&lt;PRNTDIRECT&gt;0&lt;/PRNTDIRECT&gt;&lt;LANGU&gt;IT&lt;/LANGU&gt;&lt;TIMEDIFF&gt;0&lt;/TIMEDIFF&gt;&lt;/Row&gt;&lt;/Rowset&gt;&lt;/Rowsets&gt;</Results><QueryStartDate>2018-02-28T18:25:08</QueryStartDate></Value><SchemaURI/><SchemaElement/><ValidateXMLOnExecution>1</ValidateXMLOnExecution><ReadOnly>false</ReadOnly><AlertXMLAssigned>false</AlertXMLAssigned></ContextItem></Actions><ReaderRoles>SAP_XMII_Super_Administrator,SAP_XMII_Administrator,SAP_XMII_Developer,SAP_XMII_User</ReaderRoles><Steps><Step xsi:type="ActionSequence"><Name>Sequenza</Name><Description/><Steps><Step xsi:type="Switcher"><Name>Sequenza_10</Name><Description/><Steps><Step xsi:type="ActionSequence"><Name>Sequenza_Storno</Name><Description/><Steps><Step xsi:type="ActionSequence"><Name>Sequenza_ST</Name><Description/><Steps><Step xsi:type="ActionSequence"><Name>Sequenza_11</Name><Description/><Steps/><Actions><Action><Name>removeFromUDCMovTR_0</Name><Description> </Description><IncomingLinks><Assign xsi:type="Assign"><Name/><Description/><To>removeFromUDCMovTR_0.cancel</To><From>0</From></Assign><Assign xsi:type="Assign"><Name/><Description/><To>removeFromUDCMovTR_0.poper</To><From>getConfProd4Copy_ST.Results{/Rowsets/Rowset/Row/POPER}</From></Assign><Assign xsi:type="Assign"><Name/><Description/><To>removeFromUDCMovTR_0.quantity</To><From>getConfProd4Copy_ST.Results{/Rowsets/Rowset/Row/QTY}</From></Assign><Assign xsi:type="Assign"><Name/><Description/><To>removeFromUDCMovTR_0.dateshift</To><From>getConfProd4Copy_ST.Results{/Rowsets/Rowset/Row/DATE_SHIFT}</From></Assign><Assign xsi:type="Assign"><Name/><Description/><To>removeFromUDCMovTR_0.shift</To><From>getConfProd4Copy_ST.Results{/Rowsets/Rowset/Row/SHIFT}</From></Assign><Assign xsi:type="Assign"><Name/><Description/><To>removeFromUDCMovTR_0.datetime</To><From>datenow</From></Assign><Assign xsi:type="Assign"><Name/><Description/><To>removeFromUDCMovTR_0.udcnr</To><From>getConfProd4Copy_ST.Results{/Rowsets/Rowset/Row/UDCNR}</From></Assign><Assign xsi:type="Assign"><Name/><Description/><To>removeFromUDCMovTR_0.plant</To><From>getConfProd4Copy_ST.Results{/Rowsets/Rowset/Row/PLANT}</From></Assign><Assign xsi:type="Assign"><Name/><Description/><To>removeFromUDCMovTR_0.lineid</To><From>getConfProd4Copy_ST.Results{/Rowsets/Rowset/Row/IDLINE}</From></Assign><Assign xsi:type="Assign"><Name/><Description/><To>removeFromUDCMovTR_0.opeid</To><From>getConfProd4Copy_ST.Results{/Rowsets/Rowset/Row/OPEID}</From></Assign><Assign xsi:type="Assign"><Name/><Description/><To>removeFromUDCMovTR_0.order</To><From>getConfProd4Copy_ST.Results{/Rowsets/Rowset/Row/ORDER}</From></Assign><Assign xsi:type="Assign"><Name/><Description/><To>removeFromUDCMovTR_0.Async</To><From>1</From></Assign><Assign xsi:type="Assign"><Name/><Description/><To>removeFromUDCMovTR_0.material</To><From>getConfProd4Copy_ST.Results{/Rowsets/Rowset/Row/MATERIAL}</From></Assign><Assign xsi:type="Assign"><Name/><Description/><To>removeFromUDCMovTR_0.NoteDet</To><From>"Storno "  </From></Assign></IncomingLinks><OutgoingLinks/></Action></Actions></Step></Steps><Actions><Action><Name>UpdateOperProdStorno_0</Name><Description>SQL Query</Description><IncomingLinks><Assign xsi:type="Assign"><Name/><Description/><To>UpdateOperProdStorno_0.Param.1</To><From>getConfProd4Copy_ST.Results{/Rowsets/Rowset/Row/IDLINE}</From></Assign><Assign xsi:type="Assign"><Name/><Description/><To>UpdateOperProdStorno_0.Param.2</To><From>dateformat(getConfProd4Copy_ST.Results{/Rowsets/Rowset/Row/DATE_SHIFT},dateformat,"yyyy-MM-dd")</From></Assign><Assign xsi:type="Assign"><Name/><Description/><To>UpdateOperProdStorno_0.Param.3</To><From>getConfProd4Copy_ST.Results{/Rowsets/Rowset/Row/SHIFT}</From></Assign><Assign xsi:type="Assign"><Name/><Description/><To>UpdateOperProdStorno_0.Param.4</To><From>getConfProd4Copy_ST.Results{/Rowsets/Rowset/Row/OPEID}</From></Assign><Assign xsi:type="Assign"><Name/><Description/><To>UpdateOperProdStorno_0.Param.5</To><From>getConfProd4Copy_ST.Results{/Rowsets/Rowset/Row/TIME_ID}</From></Assign><Assign xsi:type="Assign"><Name/><Description/><To>UpdateOperProdStorno_0.Param.6</To><From>getConfProd4Copy_ST.Results{/Rowsets/Rowset/Row/UDCNR}</From></Assign></IncomingLinks><OutgoingLinks/></Action></Actions></Step></Steps><Actions><Action><Name>getConfProd4Copy_ST</Name><Description>SQL Query</Description><IncomingLinks><Assign xsi:type="Assign"><Name/><Description/><To>getConfProd4Copy_ST.Param.1</To><From>Transaction.MiiGuid</From></Assign></IncomingLinks><OutgoingLinks/></Action></Actions></Step><Step xsi:type="ActionSequence"><Name>Sequenza_RT</Name><Description/><Steps><Step xsi:type="ActionSequence"><Name>Sequenza_6</Name><Description/><Steps><Step xsi:type="Conditional"><Name>Sequenza_21</Name><Description/><Steps><Step xsi:type="ActionSequence"><Name>Sequenza_13</Name><Description/><Steps/><Actions><Action><Name>saveUDCMovTR_0</Name><Description> </Description><IncomingLinks><Assign xsi:type="Assign"><Name/><Description/><To>saveUDCMovTR_0.basketTt</To><From>Transaction.DataConf{/RFC_BAPI/IV_CESTT}</From></Assign><Assign xsi:type="Assign"><Name/><Description/><To>saveUDCMovTR_0.origin</To><From>stringif ((Transaction.DataConf{/RFC_BAPI/IV_TPOPE} == "BU")  || (Transaction.DataConf{/RFC_BAPI/IV_TPOPE} == "CL") 
,"M","C")</From></Assign><Assign xsi:type="Assign"><Name/><Description/><To>saveUDCMovTR_0.shift</To><From>getConfProd4Copy_0.Results{/Rowsets/Rowset/Row/SHIFT}</From></Assign><Assign xsi:type="Assign"><Name/><Description/><To>saveUDCMovTR_0.dater</To><From>Transaction.DataConf{/RFC_BAPI/IV_DATAR}</From></Assign><Assign xsi:type="Assign"><Name/><Description/><To>saveUDCMovTR_0.dateshift</To><From>getConfProd4Copy_0.Results{/Rowsets/Rowset/Row/DATE_SHIFT}</From></Assign><Assign xsi:type="Assign"><Name/><Description/><To>saveUDCMovTR_0.workTime</To><From>Transaction.DataConf{/RFC_BAPI/IV_MINUT}</From></Assign><Assign xsi:type="Assign"><Name/><Description/><To>saveUDCMovTR_0.opeid</To><From>Transaction.DataConf{/RFC_BAPI/IV_OPRMT}</From></Assign><Assign xsi:type="Assign"><Name/><Description/><To>saveUDCMovTR_0.datetime</To><From>datenow</From></Assign><Assign xsi:type="Assign"><Name/><Description/><To>saveUDCMovTR_0.material</To><From>getConfProd4Copy_0.Results{/Rowsets/Rowset/Row/MATERIAL}</From></Assign><Assign xsi:type="Assign"><Name/><Description/><To>saveUDCMovTR_0.serial</To><From>""</From></Assign><Assign xsi:type="Assign"><Name/><Description/><To>saveUDCMovTR_0.udc</To><From>getConfProd4Copy_0.Results{/Rowsets/Rowset/Row/UDCNR}</From></Assign><Assign xsi:type="Assign"><Name/><Description/><To>saveUDCMovTR_0.plant</To><From>getConfProd4Copy_0.Results{/Rowsets/Rowset/Row/PLANT}</From></Assign><Assign xsi:type="Assign"><Name/><Description/><To>saveUDCMovTR_0.langID</To><From>"it"</From></Assign><Assign xsi:type="Assign"><Name/><Description/><To>saveUDCMovTR_0.nrprnt</To><From>Transaction.DataConf{/RFC_BAPI/IV_STAMP}</From></Assign><Assign xsi:type="Assign"><Name/><Description/><To>saveUDCMovTR_0.order_poper</To><From>getConfProd4Copy_0.Results{/Rowsets/Rowset/Row/ORDER} &amp; getConfProd4Copy_0.Results{/Rowsets/Rowset/Row/POPER}</From></Assign><Assign xsi:type="Assign"><Name/><Description/><To>saveUDCMovTR_0.idLine</To><From>getConfProd4Copy_0.Results{/Rowsets/Rowset/Row/IDLINE}</From></Assign><Assign xsi:type="Assign"><Name/><Description/><To>saveUDCMovTR_0.movStat</To><From>"U"</From></Assign><Assign xsi:type="Assign"><Name/><Description/><To>saveUDCMovTR_0.mastStat</To><From>"O"</From></Assign><Assign xsi:type="Assign"><Name/><Description/><To>saveUDCMovTR_0.quantity</To><From>Transaction.DataConf{/RFC_BAPI/IV_QTNEW}</From></Assign><Assign xsi:type="Assign"><Name/><Description/><To>saveUDCMovTR_0.NoteDet</To><From>"Rettifica"</From></Assign></IncomingLinks><OutgoingLinks/></Action></Actions></Step></Steps><Actions><Action><Name>Conditional_1</Name><Description> </Description><IncomingLinks><Assign xsi:type="Assign"><Name/><Description/><To>Conditional_1.Input1</To><From>1 == 1</From></Assign></IncomingLinks><OutgoingLinks/></Action></Actions></Step></Steps><Actions><Action><Name>InsertConfProdTR_preliminare</Name><Description> </Description><IncomingLinks><Assign xsi:type="Assign"><Name/><Description/><To>InsertConfProdTR_preliminare.SAP_GUID</To><From>""</From></Assign><Assign xsi:type="Assign"><Name/><Description/><To>InsertConfProdTR_preliminare.ERROR</To><From>0</From></Assign><Assign xsi:type="Assign"><Name/><Description/><To>InsertConfProdTR_preliminare.MII_GUID</To><From>Local.newGuid</From></Assign><Assign xsi:type="Assign"><Name/><Description/><To>InsertConfProdTR_preliminare.UDCNR</To><From>getConfProd4Copy_0.Results{/Rowsets/Rowset/Row/UDCNR}</From></Assign><Assign xsi:type="Assign"><Name/><Description/><To>InsertConfProdTR_preliminare.ORDER</To><From>getConfProd4Copy_0.Results{/Rowsets/Rowset/Row/ORDER}</From></Assign><Assign xsi:type="Assign"><Name/><Description/><To>InsertConfProdTR_preliminare.PLANT</To><From>getConfProd4Copy_0.Results{/Rowsets/Rowset/Row/PLANT}</From></Assign><Assign xsi:type="Assign"><Name/><Description/><To>InsertConfProdTR_preliminare.TYPECONF</To><From>getConfProd4Copy_0.Results{/Rowsets/Rowset/Row/TYPECONF}</From></Assign><Assign xsi:type="Assign"><Name/><Description/><To>InsertConfProdTR_preliminare.DELETED</To><From>0</From></Assign><Assign xsi:type="Assign"><Name/><Description/><To>InsertConfProdTR_preliminare.NRPRNT</To><From>getConfProd4Copy_0.Results{/Rowsets/Rowset/Row/NRPRNT}</From></Assign><Assign xsi:type="Assign"><Name/><Description/><To>InsertConfProdTR_preliminare.SHIFT</To><From>getConfProd4Copy_0.Results{/Rowsets/Rowset/Row/SHIFT}</From></Assign><Assign xsi:type="Assign"><Name/><Description/><To>InsertConfProdTR_preliminare.POPER</To><From>getConfProd4Copy_0.Results{/Rowsets/Rowset/Row/POPER}</From></Assign><Assign xsi:type="Assign"><Name/><Description/><To>InsertConfProdTR_preliminare.CONFIRMED</To><From>0</From></Assign><Assign xsi:type="Assign"><Name/><Description/><To>InsertConfProdTR_preliminare.WTDUR</To><From>Transaction.DataConf{/RFC_BAPI/IV_MINUT}</From></Assign><Assign xsi:type="Assign"><Name/><Description/><To>InsertConfProdTR_preliminare.QTY</To><From>Transaction.DataConf{/RFC_BAPI/IV_QTNEW}</From></Assign><Assign xsi:type="Assign"><Name/><Description/><To>InsertConfProdTR_preliminare.TYPEMOD</To><From>"R"</From></Assign><Assign xsi:type="Assign"><Name/><Description/><To>InsertConfProdTR_preliminare.DATE_SHIFT</To><From>dateformat(getConfProd4Copy_0.Results{/Rowsets/Rowset/Row/DATE_SHIFT},dateformat,"yyyy-MM-dd")</From></Assign><Assign xsi:type="Assign"><Name/><Description/><To>InsertConfProdTR_preliminare.TIME_ID</To><From>datenow</From></Assign><Assign xsi:type="Assign"><Name/><Description/><To>InsertConfProdTR_preliminare.IDLINE</To><From>getConfProd4Copy_0.Results{/Rowsets/Rowset/Row/IDLINE}</From></Assign><Assign xsi:type="Assign"><Name/><Description/><To>InsertConfProdTR_preliminare.SREASID</To><From>getConfProd4Copy_0.Results{/Rowsets/Rowset/Row/SREASID}</From></Assign><Assign xsi:type="Assign"><Name/><Description/><To>InsertConfProdTR_preliminare.OPEID</To><From>Transaction.DataConf{/RFC_BAPI/IV_OPRMT}</From></Assign><Assign xsi:type="Assign"><Name/><Description/><To>InsertConfProdTR_preliminare.DATARIO</To><From>Transaction.DataConf{/RFC_BAPI/IV_DATAR}</From></Assign><Assign xsi:type="Assign"><Name/><Description/><To>InsertConfProdTR_preliminare.CESTA_TT</To><From>Transaction.DataConf{/RFC_BAPI/IV_CESTT}</From></Assign><Assign xsi:type="Assign"><Name/><Description/><To>InsertConfProdTR_preliminare.QTY_PRO</To><From>0</From></Assign><Assign xsi:type="Assign"><Name/><Description/><To>InsertConfProdTR_preliminare.USERMOD</To><From>getvaluefromMap(getUserInfoTR_0.userInfo, "IllumLoginName")</From></Assign><Assign xsi:type="Assign"><Name/><Description/><To>InsertConfProdTR_preliminare.Note</To><From>Transaction.Note</From></Assign><Assign xsi:type="Assign"><Name/><Description/><To>InsertConfProdTR_preliminare.UMDUR</To><From>"MIN"</From></Assign></IncomingLinks><OutgoingLinks/></Action></Actions></Step></Steps><Actions><Action><Name>getConfProd4Copy_0</Name><Description>SQL Query</Description><IncomingLinks><Assign xsi:type="Assign"><Name/><Description/><To>getConfProd4Copy_0.Param.1</To><From>Transaction.MiiGuid</From></Assign></IncomingLinks><OutgoingLinks/></Action></Actions></Step><Step xsi:type="ActionSequence"><Name>Sequenza_FW</Name><Description/><Steps/><Actions><Action><Name>getConfProd4Copy_Resend</Name><Description>SQL Query</Description><IncomingLinks><Assign xsi:type="Assign"><Name/><Description/><To>getConfProd4Copy_Resend.Param.1</To><From>Transaction.MiiGuid</From></Assign></IncomingLinks><OutgoingLinks/></Action></Actions></Step><Step xsi:type="ActionSequence"><Name>Sequenza_Else</Name><Description/><Steps/><Actions/></Step><Step xsi:type="ActionSequence"><Name>Sequenza_2</Name><Description/><Steps><Step xsi:type="ActionSequence"><Name>Sequenza_14</Name><Description/><Steps><Step xsi:type="Conditional"><Name>Sequenza_56</Name><Description/><Steps><Step xsi:type="Conditional"><Name>Sequenza_3</Name><Description/><Steps><Step xsi:type="ActionSequence"><Name>Sequenza_61</Name><Description/><Steps><Step xsi:type="ActionSequence"><Name>Sequenza_9</Name><Description/><Steps/><Actions><Action><Name>UpdateHistoricalConfRFC_0</Name><Description>SQL Query</Description><IncomingLinks><Assign xsi:type="Assign"><Name/><Description/><To>UpdateHistoricalConfRFC_0.Param.1</To><From>Local.GuidSap</From></Assign><Assign xsi:type="Assign"><Name/><Description/><To>UpdateHistoricalConfRFC_0.Param.2</To><From>Local.newGuid</From></Assign></IncomingLinks><OutgoingLinks/></Action></Actions></Step></Steps><Actions><Action><Name>Assignment_GUID</Name><Description> </Description><IncomingLinks/><OutgoingLinks><Assign xsi:type="Assign"><Name/><Description/><To>Local.GuidSap</To><From>SAP_JCo_Function_0.Response{/Z_MIII002_MOV_CASSONI/OUTPUT/EV_ESITO_GUID}</From></Assign><Assign xsi:type="Assign"><Name/><Description/><To>Transaction.ErrCode</To><From>0</From></Assign><Assign xsi:type="Assign"><Name/><Description/><To>Transaction.ErrMsg</To><From>""</From></Assign></OutgoingLinks></Action></Actions></Step><Step xsi:type="ActionSequence"><Name>Sequenza_8</Name><Description/><Steps><Step xsi:type="ActionSequence"><Name>Sequenza_5</Name><Description/><Steps/><Actions><Action><Name>Assignment_Esito</Name><Description> </Description><IncomingLinks/><OutgoingLinks><Assign xsi:type="Assign"><Name/><Description/><To>Transaction.ErrCode</To><From>1</From></Assign><Assign xsi:type="Assign"><Name/><Description/><To>Transaction.ErrMsg</To><From>"Nessun GUID di ritorno da SAP"</From></Assign><Assign xsi:type="Assign"><Name/><Description/><To>Local.GuidSap</To><From>"MISSING"</From></Assign></OutgoingLinks></Action></Actions></Step></Steps><Actions><Action><Name>Esito_transazione</Name><Description> </Description><IncomingLinks><Assign xsi:type="Assign"><Name/><Description/><To>Esito_transazione.Message</To><From>"  --&gt;  ESITO TRANSAZIONE:  " &amp; Transaction.ErrCode &amp; " - " &amp; Transaction.ErrMsg</From></Assign></IncomingLinks><OutgoingLinks/></Action></Actions></Step></Steps><Actions><Action><Name>Conditional_0</Name><Description> </Description><IncomingLinks><Assign xsi:type="Assign"><Name/><Description/><To>Conditional_0.Input1</To><From>SAP_JCo_Function_0.Response{/Z_MIII002_MOV_CASSONI/OUTPUT/EV_ESITO_GUID} !=  ""</From></Assign></IncomingLinks><OutgoingLinks/></Action></Actions></Step><Step xsi:type="Conditional"><Name>Sequenza_1</Name><Description/><Steps><Step xsi:type="ActionSequence"><Name>Sequenza_Buffferizzato</Name><Description/><Steps><Step xsi:type="ActionSequence"><Name>Sequenza_62</Name><Description/><Steps/><Actions><Action><Name>Assignment_Buffered</Name><Description> </Description><IncomingLinks/><OutgoingLinks><Assign xsi:type="Assign"><Name/><Description/><To>Transaction.ErrCode</To><From>2</From></Assign><Assign xsi:type="Assign"><Name/><Description/><To>Transaction.ErrMsg</To><From>"Esecuzione bufferizzata"</From></Assign><Assign xsi:type="Assign"><Name/><Description/><To>Local.GuidSap</To><From>"Buffered"</From></Assign></OutgoingLinks></Action></Actions></Step></Steps><Actions><Action><Name>Trans_buffered</Name><Description> </Description><IncomingLinks><Assign xsi:type="Assign"><Name/><Description/><To>Trans_buffered.Message</To><From>"BUFFER"</From></Assign></IncomingLinks><OutgoingLinks/></Action></Actions></Step><Step xsi:type="ActionSequence"><Name>Sequenza_Errore</Name><Description/><Steps><Step xsi:type="ActionSequence"><Name>Sequenza_63</Name><Description/><Steps/><Actions><Action><Name>Assignment_Error</Name><Description> </Description><IncomingLinks/><OutgoingLinks><Assign xsi:type="Assign"><Name/><Description/><To>Transaction.ErrCode</To><From>3</From></Assign><Assign xsi:type="Assign"><Name/><Description/><To>Transaction.ErrMsg</To><From>"Errore in RFC"</From></Assign><Assign xsi:type="Assign"><Name/><Description/><To>Local.GuidSap</To><From>"RFC Error"</From></Assign></OutgoingLinks></Action></Actions></Step></Steps><Actions><Action><Name>Trans_error</Name><Description> </Description><IncomingLinks><Assign xsi:type="Assign"><Name/><Description/><To>Trans_error.Message</To><From>"CRITICAL"</From></Assign></IncomingLinks><OutgoingLinks/></Action></Actions></Step><Step xsi:type="ActionSequence"><Name>Sequenza_57</Name><Description/><Steps/><Actions><Action><Name>Tracer_Request</Name><Description> </Description><IncomingLinks><Assign xsi:type="Assign"><Name/><Description/><To>Tracer_Request.Message</To><From>SAP_JCo_Function_0.Request</From></Assign></IncomingLinks><OutgoingLinks/></Action><Action><Name>Tracer_Response</Name><Description> </Description><IncomingLinks><Assign xsi:type="Assign"><Name/><Description/><To>Tracer_Response.Message</To><From>SAP_JCo_Function_0.Response</From></Assign></IncomingLinks><OutgoingLinks/></Action></Actions></Step></Steps><Actions><Action><Name>Conditional_15</Name><Description> </Description><IncomingLinks><Assign xsi:type="Assign"><Name/><Description/><To>Conditional_15.Input1</To><From>SAP_JCo_Function_0.Buffered</From></Assign></IncomingLinks><OutgoingLinks/></Action></Actions></Step><Step xsi:type="ActionSequence"><Name>Sequenza_4</Name><Description/><Steps><Step xsi:type="ActionSequence"><Name>Sequenza_7</Name><Description/><Steps><Step xsi:type="Switcher"><Name>Sequenza_0</Name><Description/><Steps><Step xsi:type="ActionSequence"><Name>Sequenza_12</Name><Description/><Steps><Step xsi:type="ActionSequence"><Name>Sequenza_19</Name><Description/><Steps/><Actions><Action><Name>RestoreUDCfromCancelTR_Storno</Name><Description> </Description><IncomingLinks><Assign xsi:type="AssignXml"><Name/><Description/><To>RestoreUDCfromCancelTR_Storno.DataConf</To><From>Transaction.DataConf</From></Assign><Assign xsi:type="AssignXml"><Name/><Description/><To>RestoreUDCfromCancelTR_Storno.UDC_IN</To><From>(Transaction.UdcData)</From></Assign><Assign xsi:type="Assign"><Name/><Description/><To>RestoreUDCfromCancelTR_Storno.MiiGuid</To><From>Local.newGuid</From></Assign><Assign xsi:type="Assign"><Name/><Description/><To>RestoreUDCfromCancelTR_Storno.Type</To><From>"S"</From></Assign></IncomingLinks><OutgoingLinks/></Action></Actions></Step></Steps><Actions><Action><Name>UpdateConfProdGuid_ST</Name><Description>SQL Query</Description><IncomingLinks><Assign xsi:type="Assign"><Name/><Description/><To>UpdateConfProdGuid_ST.Param.1</To><From>Local.GuidSap</From></Assign><Assign xsi:type="Assign"><Name/><Description/><To>UpdateConfProdGuid_ST.Param.2</To><From>Local.newGuid</From></Assign><Assign xsi:type="Assign"><Name/><Description/><To>UpdateConfProdGuid_ST.Param.3</To><From>Transaction.MiiGuid</From></Assign><Assign xsi:type="Assign"><Name/><Description/><To>UpdateConfProdGuid_ST.Param.4</To><From>1</From></Assign><Assign xsi:type="Assign"><Name/><Description/><To>UpdateConfProdGuid_ST.Param.5</To><From>getvaluefromMap(getUserInfoTR_0.userInfo, "IllumLoginName")</From></Assign><Assign xsi:type="Assign"><Name/><Description/><To>UpdateConfProdGuid_ST.Param.6</To><From>datenow</From></Assign><Assign xsi:type="Assign"><Name/><Description/><To>UpdateConfProdGuid_ST.Param.7</To><From>"S"</From></Assign><Assign xsi:type="Assign"><Name/><Description/><To>UpdateConfProdGuid_ST.Param.8</To><From>Transaction.Note</From></Assign></IncomingLinks><OutgoingLinks/></Action></Actions></Step><Step xsi:type="ActionSequence"><Name>Sequenza_15</Name><Description/><Steps><Step xsi:type="ActionSequence"><Name>Sequenza_18</Name><Description/><Steps><Step xsi:type="ActionSequence"><Name>Sequenza_20</Name><Description/><Steps/><Actions><Action><Name>RestoreUDCfromCancelTR_Rett</Name><Description> </Description><IncomingLinks><Assign xsi:type="AssignXml"><Name/><Description/><To>RestoreUDCfromCancelTR_Rett.DataConf</To><From>Transaction.DataConf</From></Assign><Assign xsi:type="AssignXml"><Name/><Description/><To>RestoreUDCfromCancelTR_Rett.UDC_IN</To><From>(Transaction.UdcData)</From></Assign><Assign xsi:type="Assign"><Name/><Description/><To>RestoreUDCfromCancelTR_Rett.MiiGuid</To><From>Local.newGuid</From></Assign><Assign xsi:type="Assign"><Name/><Description/><To>RestoreUDCfromCancelTR_Rett.Type</To><From>"R"</From></Assign></IncomingLinks><OutgoingLinks/></Action></Actions></Step></Steps><Actions><Action><Name>UpdateConfProdGuid_RT_Bis</Name><Description>SQL Query</Description><IncomingLinks><Assign xsi:type="Assign"><Name/><Description/><To>UpdateConfProdGuid_RT_Bis.Param.1</To><From>
Local.newGuid</From></Assign><Assign xsi:type="Assign"><Name/><Description/><To>UpdateConfProdGuid_RT_Bis.Param.2</To><From>Transaction.MiiGuid</From></Assign></IncomingLinks><OutgoingLinks/></Action></Actions></Step></Steps><Actions><Action><Name>UpdateConfProdGuid_RT</Name><Description>SQL Query</Description><IncomingLinks><Assign xsi:type="Assign"><Name/><Description/><To>UpdateConfProdGuid_RT.Param.1</To><From>Local.GuidSap</From></Assign><Assign xsi:type="Assign"><Name/><Description/><To>UpdateConfProdGuid_RT.Param.2</To><From>Local.newGuid</From></Assign><Assign xsi:type="Assign"><Name/><Description/><To>UpdateConfProdGuid_RT.Param.3</To><From>Local.newGuid</From></Assign><Assign xsi:type="Assign"><Name/><Description/><To>UpdateConfProdGuid_RT.Param.4</To><From>0</From></Assign><Assign xsi:type="Assign"><Name/><Description/><To>UpdateConfProdGuid_RT.Param.5</To><From>getvaluefromMap(getUserInfoTR_0.userInfo, "IllumLoginName")</From></Assign><Assign xsi:type="Assign"><Name/><Description/><To>UpdateConfProdGuid_RT.Param.6</To><From>datenow</From></Assign><Assign xsi:type="Assign"><Name/><Description/><To>UpdateConfProdGuid_RT.Param.7</To><From>"R"</From></Assign><Assign xsi:type="Assign"><Name/><Description/><To>UpdateConfProdGuid_RT.Param.8</To><From>Transaction.Note</From></Assign></IncomingLinks><OutgoingLinks/></Action></Actions></Step><Step xsi:type="ActionSequence"><Name>Sequenza_16</Name><Description/><Steps/><Actions><Action><Name>UpdateConfProdGuid_FW</Name><Description>SQL Query</Description><IncomingLinks><Assign xsi:type="Assign"><Name/><Description/><To>UpdateConfProdGuid_FW.Param.1</To><From>Local.GuidSap</From></Assign><Assign xsi:type="Assign"><Name/><Description/><To>UpdateConfProdGuid_FW.Param.2</To><From>Local.newGuid</From></Assign><Assign xsi:type="Assign"><Name/><Description/><To>UpdateConfProdGuid_FW.Param.3</To><From>Transaction.MiiGuid</From></Assign><Assign xsi:type="Assign"><Name/><Description/><To>UpdateConfProdGuid_FW.Param.4</To><From>getConfProd4Copy_Resend.Results{/Rowsets/Rowset/Row/DELETED}</From></Assign><Assign xsi:type="Assign"><Name/><Description/><To>UpdateConfProdGuid_FW.Param.5</To><From>getvaluefromMap(getUserInfoTR_0.userInfo, "IllumLoginName")</From></Assign><Assign xsi:type="Assign"><Name/><Description/><To>UpdateConfProdGuid_FW.Param.6</To><From>datenow</From></Assign><Assign xsi:type="Assign"><Name/><Description/><To>UpdateConfProdGuid_FW.Param.7</To><From>"F"</From></Assign><Assign xsi:type="Assign"><Name/><Description/><To>UpdateConfProdGuid_FW.Param.8</To><From>Transaction.Note</From></Assign></IncomingLinks><OutgoingLinks/></Action></Actions></Step><Step xsi:type="ActionSequence"><Name>Sequenza_17</Name><Description/><Steps/><Actions/></Step></Steps><Actions><Action><Name>Switch_0</Name><Description> </Description><IncomingLinks><Assign xsi:type="Assign"><Name/><Description/><To>Switch_0.MatchValue1</To><From>"ST"</From></Assign><Assign xsi:type="Assign"><Name/><Description/><To>Switch_0.MatchValue2</To><From>"RT"</From></Assign><Assign xsi:type="Assign"><Name/><Description/><To>Switch_0.MatchValue3</To><From>"FW"</From></Assign><Assign xsi:type="Assign"><Name/><Description/><To>Switch_0.InputValue</To><From>Transaction.Reason</From></Assign></IncomingLinks><OutgoingLinks/></Action></Actions></Step></Steps><Actions><Action><Name>SQL_Query_insertConfLogSQ</Name><Description>SQL Query</Description><IncomingLinks><Assign xsi:type="Assign"><Name/><Description/><To>SQL_Query_insertConfLogSQ.Param.3</To><From>"OUT"</From></Assign><Assign xsi:type="Assign"><Name/><Description/><To>SQL_Query_insertConfLogSQ.Param.4</To><From>Local.GuidSap</From></Assign><Assign xsi:type="Assign"><Name/><Description/><To>SQL_Query_insertConfLogSQ.Param.5</To><From>Transaction.ErrCode</From></Assign><Assign xsi:type="Assign"><Name/><Description/><To>SQL_Query_insertConfLogSQ.Param.6</To><From>Transaction.ErrMsg</From></Assign><Assign xsi:type="Assign"><Name/><Description/><To>SQL_Query_insertConfLogSQ.Param.7</To><From>Transaction.DataConf{/RFC_BAPI/IV_EXIDV}</From></Assign><Assign xsi:type="Assign"><Name/><Description/><To>SQL_Query_insertConfLogSQ.Param.2</To><From>Local.newGuid</From></Assign><Assign xsi:type="Assign"><Name/><Description/><To>SQL_Query_insertConfLogSQ.Param.9</To><From>Transaction.DataConf{/RFC_BAPI/IV_STAMP}</From></Assign><Assign xsi:type="Assign"><Name/><Description/><To>SQL_Query_insertConfLogSQ.Param.8</To><From>Transaction.DataConf{/RFC_BAPI/IV_QTNEW}</From></Assign><Assign xsi:type="Assign"><Name/><Description/><To>SQL_Query_insertConfLogSQ.Param.10</To><From>Transaction.DataConf{/RFC_BAPI/IV_MINUT}</From></Assign><Assign xsi:type="Assign"><Name/><Description/><To>SQL_Query_insertConfLogSQ.Param.11</To><From>Transaction.DataConf{/RFC_BAPI/IV_TPOPE}</From></Assign><Assign xsi:type="Assign"><Name/><Description/><To>SQL_Query_insertConfLogSQ.Param.1</To><From>Transaction.DataConf{/RFC_BAPI/IV_WERKS}</From></Assign><Assign xsi:type="Assign"><Name/><Description/><To>SQL_Query_insertConfLogSQ.Param.14</To><From>""</From></Assign><Assign xsi:type="Assign"><Name/><Description/><To>SQL_Query_insertConfLogSQ.Param.12</To><From>datenow</From></Assign><Assign xsi:type="Assign"><Name/><Description/><To>SQL_Query_insertConfLogSQ.Param.15</To><From>transactionid</From></Assign><Assign xsi:type="Assign"><Name/><Description/><To>SQL_Query_insertConfLogSQ.Param.16</To><From>getvaluefromMap(getUserInfoTR_0.userInfo, "IllumLoginName")</From></Assign><Assign xsi:type="Assign"><Name/><Description/><To>SQL_Query_insertConfLogSQ.Param.17</To><From>Transaction.DataConf{/RFC_BAPI/IV_OPRMT}</From></Assign><Assign xsi:type="Assign"><Name/><Description/><To>SQL_Query_insertConfLogSQ.Param.13</To><From>Transaction.DataConf{/RFC_BAPI/IV_CSSOS}</From></Assign></IncomingLinks><OutgoingLinks/></Action></Actions></Step></Steps><Actions><Action><Name>Tracer_Esito</Name><Description> </Description><IncomingLinks><Assign xsi:type="Assign"><Name/><Description/><To>Tracer_Esito.Message</To><From>" Nuovo GUID SAP: " &amp; Local.GuidSap &amp; crlf &amp;
" Nuovo GUID MIi = " &amp; Local.newGuid  &amp; crlf &amp;
" prec GUID MIi = " &amp; Transaction.MiiGuid </From></Assign></IncomingLinks><OutgoingLinks/></Action></Actions></Step></Steps><Actions><Action><Name>Conditional_14</Name><Description> </Description><IncomingLinks><Assign xsi:type="Assign"><Name/><Description/><To>Conditional_14.Input1</To><From>SAP_JCo_Function_0.Success</From></Assign></IncomingLinks><OutgoingLinks/></Action></Actions></Step></Steps><Actions><Action><Name>SAP_JCo_Function_0</Name><Description> </Description><IncomingLinks><Assign xsi:type="Assign"><Name/><Description/><To>SAP_JCo_Function_0.Request{/Z_MIII002_MOV_CASSONI/INPUT/IV_AUFNR}</To><From>Transaction.DataConf{/RFC_BAPI/IV_AUFNR}</From></Assign><Assign xsi:type="Assign"><Name/><Description/><To>SAP_JCo_Function_0.Request{/Z_MIII002_MOV_CASSONI/INPUT/IV_CODIM}</To><From>Transaction.DataConf{/RFC_BAPI/IV_CODIM}</From></Assign><Assign xsi:type="Assign"><Name/><Description/><To>SAP_JCo_Function_0.Request{/Z_MIII002_MOV_CASSONI/INPUT/IV_CSSOS}</To><From>Transaction.DataConf{/RFC_BAPI/IV_CSSOS}</From></Assign><Assign xsi:type="Assign"><Name/><Description/><To>SAP_JCo_Function_0.Request{/Z_MIII002_MOV_CASSONI/INPUT/IV_EXIDV}</To><From>Transaction.DataConf{/RFC_BAPI/IV_EXIDV}</From></Assign><Assign xsi:type="Assign"><Name/><Description/><To>SAP_JCo_Function_0.Request{/Z_MIII002_MOV_CASSONI/INPUT/IV_MINUT}</To><From>Transaction.DataConf{/RFC_BAPI/IV_MINUT}</From></Assign><Assign xsi:type="Assign"><Name/><Description/><To>SAP_JCo_Function_0.Request{/Z_MIII002_MOV_CASSONI/INPUT/IV_OPRMT}</To><From>Transaction.DataConf{/RFC_BAPI/IV_OPRMT}</From></Assign><Assign xsi:type="Assign"><Name/><Description/><To>SAP_JCo_Function_0.Request{/Z_MIII002_MOV_CASSONI/INPUT/IV_PDATU}</To><From>Transaction.DataConf{/RFC_BAPI/IV_PDATU}</From></Assign><Assign xsi:type="Assign"><Name/><Description/><To>SAP_JCo_Function_0.Request{/Z_MIII002_MOV_CASSONI/INPUT/IV_PTIME}</To><From>Transaction.DataConf{/RFC_BAPI/IV_PTIME}</From></Assign><Assign xsi:type="Assign"><Name/><Description/><To>SAP_JCo_Function_0.Request{/Z_MIII002_MOV_CASSONI/INPUT/IV_QTNEW}</To><From>Transaction.DataConf{/RFC_BAPI/IV_QTNEW}</From></Assign><Assign xsi:type="Assign"><Name/><Description/><To>SAP_JCo_Function_0.Request{/Z_MIII002_MOV_CASSONI/INPUT/IV_QTOLD}</To><From>Transaction.DataConf{/RFC_BAPI/IV_QTOLD}</From></Assign><Assign xsi:type="Assign"><Name/><Description/><To>SAP_JCo_Function_0.Request{/Z_MIII002_MOV_CASSONI/INPUT/IV_STAMP}</To><From>Transaction.DataConf{/RFC_BAPI/IV_STAMP}</From></Assign><Assign xsi:type="Assign"><Name/><Description/><To>SAP_JCo_Function_0.Request{/Z_MIII002_MOV_CASSONI/INPUT/IV_TPOPE}</To><From>Transaction.DataConf{/RFC_BAPI/IV_TPOPE}</From></Assign><Assign xsi:type="Assign"><Name/><Description/><To>SAP_JCo_Function_0.Request{/Z_MIII002_MOV_CASSONI/INPUT/IV_TPQTY}</To><From>Transaction.DataConf{/RFC_BAPI/IV_TPQTY}</From></Assign><Assign xsi:type="Assign"><Name/><Description/><To>SAP_JCo_Function_0.Request{/Z_MIII002_MOV_CASSONI/INPUT/IV_TURNO}</To><From>Transaction.DataConf{/RFC_BAPI/IV_TURNO}</From></Assign><Assign xsi:type="Assign"><Name/><Description/><To>SAP_JCo_Function_0.Request{/Z_MIII002_MOV_CASSONI/INPUT/IV_VORNR}</To><From>Transaction.DataConf{/RFC_BAPI/IV_VORNR}</From></Assign><Assign xsi:type="Assign"><Name/><Description/><To>SAP_JCo_Function_0.Request{/Z_MIII002_MOV_CASSONI/INPUT/IV_WERKS}</To><From>Transaction.DataConf{/RFC_BAPI/IV_WERKS}</From></Assign><Assign xsi:type="AssignXml"><Name/><Description/><To>SAP_JCo_Function_0.Request{/Z_MIII002_MOV_CASSONI/TABLES/ZMIII002_TB_UDC}</To><From>Transaction.UdcData{/ZMIII002_TB_UDC}</From></Assign><Assign xsi:type="Assign"><Name/><Description/><To>SAP_JCo_Function_0.Request{/Z_MIII002_MOV_CASSONI/INPUT/IV_GUID_MII}</To><From>Local.newGuid</From></Assign><Assign xsi:type="Assign"><Name/><Description/><To>SAP_JCo_Function_0.Request{/Z_MIII002_MOV_CASSONI/INPUT/IV_GUID_SC}</To><From>Transaction.MiiGuid</From></Assign></IncomingLinks><OutgoingLinks/></Action></Actions></Step></Steps><Actions><Action><Name>SAP_JCo_Start_Session_0</Name><Description> </Description><IncomingLinks><Assign xsi:type="Assign"><Name/><Description/><To>SAP_JCo_Start_Session_0.ConnPropAlias</To><From>Persistent.JcoConnection</From></Assign><Assign xsi:type="Assign"><Name/><Description/><To>SAP_JCo_Start_Session_0.CredentialAlias</To><From>Persistent.JcoAuth</From></Assign><Assign xsi:type="Assign"><Name/><Description/><To>SAP_JCo_Start_Session_0.Language</To><From>getPlantbyIDSQ_0.Results{/Rowsets/Rowset/Row/LANGU}</From></Assign></IncomingLinks><OutgoingLinks/></Action><Action><Name>SaveHistoricalConfRFC</Name><Description>SQL Query</Description><IncomingLinks><Assign xsi:type="Assign"><Name/><Description/><To>SaveHistoricalConfRFC.Param.1</To><From>Local.newGuid</From></Assign><Assign xsi:type="Assign"><Name/><Description/><To>SaveHistoricalConfRFC.Param.2</To><From>Transaction.DataConf{/RFC_BAPI/IV_GUID_SC}</From></Assign><Assign xsi:type="Assign"><Name/><Description/><To>SaveHistoricalConfRFC.Param.3</To><From>Transaction.DataConf{/RFC_BAPI/IV_WERKS}</From></Assign><Assign xsi:type="Assign"><Name/><Description/><To>SaveHistoricalConfRFC.Param.4</To><From>Transaction.DataConf{/RFC_BAPI/IV_TPQTY}</From></Assign><Assign xsi:type="Assign"><Name/><Description/><To>SaveHistoricalConfRFC.Param.5</To><From>Transaction.DataConf{/RFC_BAPI/IV_TPOPE}</From></Assign><Assign xsi:type="Assign"><Name/><Description/><To>SaveHistoricalConfRFC.Param.6</To><From>Transaction.DataConf{/RFC_BAPI/IV_EXIDV}</From></Assign><Assign xsi:type="Assign"><Name/><Description/><To>SaveHistoricalConfRFC.Param.7</To><From>Transaction.DataConf{/RFC_BAPI/IV_QTNEW}</From></Assign><Assign xsi:type="Assign"><Name/><Description/><To>SaveHistoricalConfRFC.Param.8</To><From>Transaction.DataConf{/RFC_BAPI/IV_QTOLD}</From></Assign><Assign xsi:type="Assign"><Name/><Description/><To>SaveHistoricalConfRFC.Param.9</To><From>Transaction.DataConf{/RFC_BAPI/IV_CODIM}</From></Assign><Assign xsi:type="Assign"><Name/><Description/><To>SaveHistoricalConfRFC.Param.10</To><From>
Transaction.DataConf{/RFC_BAPI/IV_CSSOS}</From></Assign><Assign xsi:type="Assign"><Name/><Description/><To>SaveHistoricalConfRFC.Param.11</To><From>
Transaction.DataConf{/RFC_BAPI/IV_PDATU}</From></Assign><Assign xsi:type="Assign"><Name/><Description/><To>SaveHistoricalConfRFC.Param.12</To><From>
Transaction.DataConf{/RFC_BAPI/IV_PTIME}</From></Assign><Assign xsi:type="Assign"><Name/><Description/><To>SaveHistoricalConfRFC.Param.13</To><From>
Transaction.DataConf{/RFC_BAPI/IV_OPRMT}</From></Assign><Assign xsi:type="Assign"><Name/><Description/><To>SaveHistoricalConfRFC.Param.14</To><From>
Transaction.DataConf{/RFC_BAPI/IV_STAMP}</From></Assign><Assign xsi:type="Assign"><Name/><Description/><To>SaveHistoricalConfRFC.Param.15</To><From>
Transaction.DataConf{/RFC_BAPI/IV_MINUT}</From></Assign><Assign xsi:type="Assign"><Name/><Description/><To>SaveHistoricalConfRFC.Param.16</To><From>
Transaction.DataConf{/RFC_BAPI/IV_TURNO}</From></Assign><Assign xsi:type="Assign"><Name/><Description/><To>SaveHistoricalConfRFC.Param.17</To><From>
Transaction.DataConf{/RFC_BAPI/IV_DATAR}</From></Assign><Assign xsi:type="Assign"><Name/><Description/><To>SaveHistoricalConfRFC.Param.18</To><From>
Transaction.DataConf{RecRFC{/RFC_BAPI/IV_CESTT}</From></Assign><Assign xsi:type="Assign"><Name/><Description/><To>SaveHistoricalConfRFC.Param.19</To><From>xmldecode(Transaction.UdcData)</From></Assign><Assign xsi:type="Assign"><Name/><Description/><To>SaveHistoricalConfRFC.Param.20</To><From>Transaction.DataConf{/RFC_BAPI/IV_AUFNR}</From></Assign><Assign xsi:type="Assign"><Name/><Description/><To>SaveHistoricalConfRFC.Param.21</To><From>Transaction.DataConf{/RFC_BAPI/IV_VORNR}</From></Assign></IncomingLinks><OutgoingLinks/></Action></Actions></Step></Steps><Actions><Action><Name>Switch_1</Name><Description> </Description><IncomingLinks><Assign xsi:type="Assign"><Name/><Description/><To>Switch_1.MatchValue1</To><From>"ST"</From></Assign><Assign xsi:type="Assign"><Name/><Description/><To>Switch_1.MatchValue2</To><From>"RT"</From></Assign><Assign xsi:type="Assign"><Name/><Description/><To>Switch_1.MatchValue3</To><From>"FW"</From></Assign><Assign xsi:type="Assign"><Name/><Description/><To>Switch_1.InputValue</To><From>Transaction.Reason</From></Assign></IncomingLinks><OutgoingLinks/></Action></Actions></Step></Steps><Actions><Action><Name>createSapNumberTR_0</Name><Description> </Description><IncomingLinks><Assign xsi:type="Assign"><Name/><Description/><To>createSapNumberTR_0.Plant</To><From>Transaction.DataConf{/RFC_BAPI/IV_WERKS}</From></Assign></IncomingLinks><OutgoingLinks><Assign xsi:type="Assign"><Name/><Description/><To>Local.newGuid</To><From>createSapNumberTR_0.ID_MII</From></Assign><Assign xsi:type="Assign"><Name/><Description/><To>Transaction.newGuid</To><From>createSapNumberTR_0.ID_MII</From></Assign></OutgoingLinks></Action><Action><Name>getUserInfoTR_0</Name><Description> </Description><IncomingLinks><Assign xsi:type="Assign"><Name/><Description/><To>getUserInfoTR_0.LogLevel</To><From>"ERROR"</From></Assign><Assign xsi:type="Assign"><Name/><Description/><To>getUserInfoTR_0.StoreTransactionOutput</To><From>false</From></Assign></IncomingLinks><OutgoingLinks/></Action><Action><Name>Tracer_0</Name><Description> </Description><IncomingLinks><Assign xsi:type="Assign"><Name/><Description/><To>Tracer_0.Message</To><From>"Operazione " &amp; Transaction.Reason &amp; 
" MIIGuid = "   &amp; Transaction.MiiGuid &amp; crlf &amp;
"  DataConf = " &amp; Transaction.DataConf</From></Assign></IncomingLinks><OutgoingLinks/></Action><Action><Name>getPlantbyIDSQ_0</Name><Description>SQL Query</Description><IncomingLinks><Assign xsi:type="Assign"><Name/><Description/><To>getPlantbyIDSQ_0.Param.1</To><From>Transaction.DataConf{/RFC_BAPI/IV_WERKS}</From></Assign></IncomingLinks><OutgoingLinks/></Action></Actions></Step></Steps></Transaction>