<?xml version="1.0" encoding="UTF-8"?><Transaction xmlns:xsd="http://www.w3.org/2001/XMLSchema" xmlns:xsi="http://www.w3.org/2001/XMLSchema-instance" Version="15.1.2.14"><TransactionAttributes><ContextItem><Name>Description</Name><Description>Transaction Description</Description><MinRange>0</MinRange><MaxRange>0</MaxRange><Value xsi:type="string"/><ReadOnly>true</ReadOnly><AlertXMLAssigned>false</AlertXMLAssigned></ContextItem><ContextItem><Name>Comments</Name><Description>User Comments</Description><MinRange>0</MinRange><MaxRange>0</MaxRange><Value xsi:type="string"/><ReadOnly>true</ReadOnly><AlertXMLAssigned>false</AlertXMLAssigned></ContextItem><ContextItem><Name>CreatedBy</Name><Description>Created By</Description><MinRange>0</MinRange><MaxRange>0</MaxRange><Value xsi:type="string">it-link</Value><ReadOnly>true</ReadOnly><AlertXMLAssigned>false</AlertXMLAssigned></ContextItem><ContextItem><Name>CreationDate</Name><Description>Creation Date</Description><MinRange>0</MinRange><MaxRange>0</MaxRange><Value xsi:type="dateTime">2017-05-29T14:24:46</Value><ReadOnly>true</ReadOnly><AlertXMLAssigned>false</AlertXMLAssigned></ContextItem><ContextItem><Name>Category</Name><Description>Transaction Category</Description><MinRange>0</MinRange><MaxRange>0</MaxRange><Value xsi:type="string"/><ReadOnly>true</ReadOnly><AlertXMLAssigned>false</AlertXMLAssigned></ContextItem><ContextItem><Name>Status</Name><Description>Deployment Status</Description><MinRange>0</MinRange><MaxRange>0</MaxRange><Value xsi:type="string">DEVELOPMENT</Value><ReadOnly>true</ReadOnly><AlertXMLAssigned>false</AlertXMLAssigned></ContextItem><ContextItem><Name>LegacyProcessingMode</Name><Description>Support the pre MII 12.1 Transaction Engine.</Description><MinRange>0</MinRange><MaxRange>0</MaxRange><Value xsi:type="boolean">0</Value><ReadOnly>true</ReadOnly><AlertXMLAssigned>false</AlertXMLAssigned></ContextItem><ContextItem><Name>AutoAppendBlankNamespaces</Name><Description>AutoAppendBlankNamespaces</Description><MinRange>0</MinRange><MaxRange>0</MaxRange><Value xsi:type="boolean">1</Value><ReadOnly>true</ReadOnly><AlertXMLAssigned>false</AlertXMLAssigned></ContextItem><ContextItem><Name>ThrowOnLinkError</Name><Description>Throws an exception when a link error occures</Description><MinRange>0</MinRange><MaxRange>0</MaxRange><Value xsi:type="boolean">0</Value><ReadOnly>true</ReadOnly><AlertXMLAssigned>false</AlertXMLAssigned></ContextItem><ContextItem><Name>ThrowOnActionError</Name><Description>Throws an exception when an action error occurs</Description><MinRange>0</MinRange><MaxRange>0</MaxRange><Value xsi:type="boolean">1</Value><ReadOnly>true</ReadOnly><AlertXMLAssigned>false</AlertXMLAssigned></ContextItem><ContextItem><Name>FormatXMLOnConversion</Name><Description>By default XML will be formatted when assigned from XML data type to String data type. This behaviour can be changed with this flag.</Description><MinRange>0</MinRange><MaxRange>0</MaxRange><Value xsi:type="boolean">1</Value><ReadOnly>true</ReadOnly><AlertXMLAssigned>false</AlertXMLAssigned></ContextItem><ContextItem><Name>LastEditedBy</Name><Description>Last Edited By</Description><MinRange>0</MinRange><MaxRange>0</MaxRange><Value xsi:type="xsd:string">it-link</Value><ReadOnly>true</ReadOnly><AlertXMLAssigned>false</AlertXMLAssigned></ContextItem><ContextItem><Name>LastEditedDate</Name><Description>Last Edited Date</Description><MinRange>0</MinRange><MaxRange>0</MaxRange><Value xsi:type="xsd:dateTime">2017-05-29T17:21:02</Value><ReadOnly>true</ReadOnly><AlertXMLAssigned>false</AlertXMLAssigned></ContextItem></TransactionAttributes><Name>ProductionMain/Sap/From/TesWsCallTR</Name><Version>44</Version><WriterRoles>SAP_XMII_Super_Administrator,SAP_XMII_Administrator,SAP_XMII_Developer</WriterRoles><Context><ContextItem><Name>I_ESITO_GUID</Name><Description/><MinRange>0</MinRange><MaxRange>0</MaxRange><Value xsi:type="string">0050569A78BF1EE790948CCCABF6F3CA</Value><ReadOnly>false</ReadOnly><AlertXMLAssigned>false</AlertXMLAssigned></ContextItem></Context><Local><ContextItem><Name>TB_ESITO_BAPI</Name><Description/><MinRange>0</MinRange><MaxRange>0</MaxRange><Value xsi:type="xml"><ReferenceDocumentSource/>&lt;?xml version="1.0" encoding="UTF-8"?&gt;&lt;TT_ESITO_BAPI&gt;&#13;
&lt;item&gt;&#13;
    &lt;TYPE&gt;E&lt;/TYPE&gt;&#13;
    &lt;ID&gt;Z&lt;/ID&gt;&#13;
    &lt;NUMBER&gt;012&lt;/NUMBER&gt;&#13;
    &lt;MESSAGE&gt;warning&lt;/MESSAGE&gt;&#13;
    &lt;LOG_NO/&gt;&#13;
    &lt;MESSAGE_V1&gt;v1&lt;/MESSAGE_V1&gt;&#13;
    &lt;MESSAGE_V2&gt;v2&lt;/MESSAGE_V2&gt;&#13;
    &lt;MESSAGE_V3&gt;v3&lt;/MESSAGE_V3&gt;&#13;
    &lt;MESSAGE_V4&gt;v4&lt;/MESSAGE_V4&gt;&#13;
    &lt;PARAMETER/&gt;&#13;
    &lt;ROW/&gt;&#13;
    &lt;FIELD/&gt;&#13;
    &lt;SYSTEM/&gt;&#13;
&lt;/item&gt;&#13;
&lt;/TT_ESITO_BAPI&gt;</Value><SchemaURI/><SchemaElement/><ValidateXMLOnExecution>1</ValidateXMLOnExecution><ReadOnly>false</ReadOnly><AlertXMLAssigned>false</AlertXMLAssigned></ContextItem><ContextItem><Name>TB_UDC</Name><Description/><MinRange>0</MinRange><MaxRange>0</MaxRange><Value xsi:type="xml"><ReferenceDocumentSource/>&lt;?xml version="1.0" encoding="UTF-8"?&gt;&lt;ZMIII002_TB_UDC&gt;&#13;
&lt;item&gt;&#13;
    &lt;EXIDV&gt;0123456789&lt;/EXIDV&gt;&#13;
    &lt;ENMNG&gt;1&lt;/ENMNG&gt;&#13;
    &lt;OFMNG&gt;10&lt;/OFMNG&gt;&#13;
&lt;/item&gt;&#13;
&lt;item&gt;&#13;
    &lt;EXIDV&gt;0123456789&lt;/EXIDV&gt;&#13;
    &lt;ENMNG&gt;1&lt;/ENMNG&gt;&#13;
    &lt;OFMNG&gt;10&lt;/OFMNG&gt;&#13;
&lt;/item&gt;&#13;
&lt;/ZMIII002_TB_UDC&gt;</Value><SchemaURI/><SchemaElement/><ValidateXMLOnExecution>1</ValidateXMLOnExecution><ReadOnly>false</ReadOnly><AlertXMLAssigned>false</AlertXMLAssigned></ContextItem></Local><Layout><GUILayoutItem><Name>Sequenza</Name><X>8</X><Y>144</Y><Width>120</Width><SpacingWidth>120</SpacingWidth><DescendantWidth>0</DescendantWidth><Height>96</Height></GUILayoutItem><GUILayoutItem><Name>MIII002_MOV_CASSONI_ResponseTR_0</Name><X>16</X><Y>160</Y><Width>104</Width><SpacingWidth>0</SpacingWidth><DescendantWidth>0</DescendantWidth><Height>72</Height></GUILayoutItem><GUILayoutItem><Name>Sequenza_0</Name><X>8</X><Y>8</Y><Width>120</Width><SpacingWidth>120</SpacingWidth><DescendantWidth>120</DescendantWidth><Height>96</Height></GUILayoutItem><GUILayoutItem><Name>Document_0</Name><X>16</X><Y>24</Y><Width>104</Width><SpacingWidth>0</SpacingWidth><DescendantWidth>0</DescendantWidth><Height>72</Height></GUILayoutItem></Layout><Actions><ContextItem><Name>MIII002_MOV_CASSONI_ResponseTR_0</Name><Description/><MinRange>0</MinRange><MaxRange>0</MaxRange><Value xsi:type="TransactionCall"><ResetState>false</ResetState><TransactionName>ProductionMain/Sap/From/MIII002_MOV_CASSONI_ResponseTR</TransactionName><Async>false</Async><Persist>INHERIT</Persist><LogLevel>INHERIT</LogLevel><LogType>INHERIT</LogType><StoreTransactionOutput>false</StoreTransactionOutput><Expiration>-1</Expiration><T_ESITO_BAPI><ReferenceDocumentSource/></T_ESITO_BAPI><I_ESITO_GUID>0050569A78BF1EE790948CCCABF6F3CA</I_ESITO_GUID><T_ZMIII002_TB_UDC><ReferenceDocumentSource/></T_ZMIII002_TB_UDC></Value><SchemaURI/><SchemaElement/><ValidateXMLOnExecution>1</ValidateXMLOnExecution><SchemaURI/><SchemaElement/><ValidateXMLOnExecution>1</ValidateXMLOnExecution><ReadOnly>false</ReadOnly><AlertXMLAssigned>false</AlertXMLAssigned></ContextItem><ContextItem><Name>Document_0</Name><Description/><MinRange>0</MinRange><MaxRange>0</MaxRange><Value xsi:type="IlluminatorDocument"><StartDate>2017-05-29T14:26:28</StartDate><EndDate>2017-05-29T14:26:28</EndDate><ColumnSpecifications><ContextItem><Name>EXIDV</Name><Description/><MinRange>0</MinRange><MaxRange>1</MaxRange><Value xsi:type="string">STRING</Value><ReadOnly>false</ReadOnly><AlertXMLAssigned>false</AlertXMLAssigned></ContextItem><ContextItem><Name>ENMNG</Name><Description/><MinRange>0</MinRange><MaxRange>1</MaxRange><Value xsi:type="string">STRING</Value><ReadOnly>false</ReadOnly><AlertXMLAssigned>false</AlertXMLAssigned></ContextItem><ContextItem><Name>OFMNG</Name><Description/><MinRange>0</MinRange><MaxRange>1</MaxRange><Value xsi:type="string">STRING</Value><ReadOnly>false</ReadOnly><AlertXMLAssigned>false</AlertXMLAssigned></ContextItem></ColumnSpecifications><Output><ReferenceDocumentSource/>&lt;?xml version="1.0" encoding="UTF-8"?&gt;&lt;Rowsets DateCreated="2017-05-29T14:27:16" EndDate="2017-05-29T14:26:28" StartDate="2017-05-29T14:26:28" Version="15.1 SP2 Patch 14"&gt;&lt;Rowset&gt;&lt;Columns&gt;&lt;Column Description="" MaxRange="1" MinRange="0" Name="EXIDV" SQLDataType="1" SourceColumn="EXIDV"/&gt;&lt;Column Description="" MaxRange="1" MinRange="0" Name="ENMNG" SQLDataType="1" SourceColumn="ENMNG"/&gt;&lt;Column Description="" MaxRange="1" MinRange="0" Name="OFMNG" SQLDataType="1" SourceColumn="OFMNG"/&gt;&lt;/Columns&gt;&lt;Row&gt;&lt;EXIDV&gt;STRING&lt;/EXIDV&gt;&lt;ENMNG&gt;STRING&lt;/ENMNG&gt;&lt;OFMNG&gt;STRING&lt;/OFMNG&gt;&lt;/Row&gt;&lt;/Rowset&gt;&lt;/Rowsets&gt;</Output></Value><SchemaURI/><SchemaElement/><ValidateXMLOnExecution>1</ValidateXMLOnExecution><ReadOnly>false</ReadOnly><AlertXMLAssigned>false</AlertXMLAssigned></ContextItem></Actions><ReaderRoles>SAP_XMII_Super_Administrator,SAP_XMII_Administrator,SAP_XMII_Developer,SAP_XMII_User</ReaderRoles><Steps><Step xsi:type="ActionSequence"><Name>Sequenza_0</Name><Description/><Steps><Step xsi:type="ActionSequence"><Name>Sequenza</Name><Description/><Steps/><Actions><Action><Name>MIII002_MOV_CASSONI_ResponseTR_0</Name><Description> </Description><IncomingLinks><Assign xsi:type="AssignXml"><Name/><Description/><To>MIII002_MOV_CASSONI_ResponseTR_0.T_ZMIII002_TB_UDC</To><From>Local.TB_UDC</From></Assign><Assign xsi:type="AssignXml"><Name/><Description/><To>MIII002_MOV_CASSONI_ResponseTR_0.T_ESITO_BAPI</To><From>Local.TB_ESITO_BAPI</From></Assign><Assign xsi:type="Assign"><Name/><Description/><To>MIII002_MOV_CASSONI_ResponseTR_0.I_ESITO_GUID</To><From>Transaction.I_ESITO_GUID</From></Assign></IncomingLinks><OutgoingLinks/></Action></Actions></Step></Steps><Actions><Action><Name>Document_0</Name><Description> </Description><IncomingLinks/><OutgoingLinks/></Action></Actions></Step></Steps></Transaction>