<?xml version="1.0" encoding="UTF-8"?><Transaction xmlns:xsd="http://www.w3.org/2001/XMLSchema" xmlns:xsi="http://www.w3.org/2001/XMLSchema-instance" Version="15.1.2.14"><TransactionAttributes><ContextItem><Name>Description</Name><Description>Transaction Description</Description><MinRange>0</MinRange><MaxRange>0</MaxRange><Value xsi:type="string"/><ReadOnly>true</ReadOnly><AlertXMLAssigned>false</AlertXMLAssigned></ContextItem><ContextItem><Name>Comments</Name><Description>User Comments</Description><MinRange>0</MinRange><MaxRange>0</MaxRange><Value xsi:type="string"/><ReadOnly>true</ReadOnly><AlertXMLAssigned>false</AlertXMLAssigned></ContextItem><ContextItem><Name>CreatedBy</Name><Description>Created By</Description><MinRange>0</MinRange><MaxRange>0</MaxRange><Value xsi:type="string">it-decgui</Value><ReadOnly>true</ReadOnly><AlertXMLAssigned>false</AlertXMLAssigned></ContextItem><ContextItem><Name>CreationDate</Name><Description>Creation Date</Description><MinRange>0</MinRange><MaxRange>0</MaxRange><Value xsi:type="dateTime">2017-11-29T11:23:08</Value><ReadOnly>true</ReadOnly><AlertXMLAssigned>false</AlertXMLAssigned></ContextItem><ContextItem><Name>Category</Name><Description>Transaction Category</Description><MinRange>0</MinRange><MaxRange>0</MaxRange><Value xsi:type="string"/><ReadOnly>true</ReadOnly><AlertXMLAssigned>false</AlertXMLAssigned></ContextItem><ContextItem><Name>Status</Name><Description>Deployment Status</Description><MinRange>0</MinRange><MaxRange>0</MaxRange><Value xsi:type="string">DEVELOPMENT</Value><ReadOnly>true</ReadOnly><AlertXMLAssigned>false</AlertXMLAssigned></ContextItem><ContextItem><Name>LegacyProcessingMode</Name><Description>Support the pre MII 12.1 Transaction Engine.</Description><MinRange>0</MinRange><MaxRange>0</MaxRange><Value xsi:type="boolean">0</Value><ReadOnly>true</ReadOnly><AlertXMLAssigned>false</AlertXMLAssigned></ContextItem><ContextItem><Name>AutoAppendBlankNamespaces</Name><Description>AutoAppendBlankNamespaces</Description><MinRange>0</MinRange><MaxRange>0</MaxRange><Value xsi:type="boolean">1</Value><ReadOnly>true</ReadOnly><AlertXMLAssigned>false</AlertXMLAssigned></ContextItem><ContextItem><Name>ThrowOnLinkError</Name><Description>Throws an exception when a link error occures</Description><MinRange>0</MinRange><MaxRange>0</MaxRange><Value xsi:type="boolean">0</Value><ReadOnly>true</ReadOnly><AlertXMLAssigned>false</AlertXMLAssigned></ContextItem><ContextItem><Name>ThrowOnActionError</Name><Description>Throws an exception when an action error occurs</Description><MinRange>0</MinRange><MaxRange>0</MaxRange><Value xsi:type="boolean">1</Value><ReadOnly>true</ReadOnly><AlertXMLAssigned>false</AlertXMLAssigned></ContextItem><ContextItem><Name>FormatXMLOnConversion</Name><Description>By default XML will be formatted when assigned from XML data type to String data type. This behaviour can be changed with this flag.</Description><MinRange>0</MinRange><MaxRange>0</MaxRange><Value xsi:type="boolean">1</Value><ReadOnly>true</ReadOnly><AlertXMLAssigned>false</AlertXMLAssigned></ContextItem><ContextItem><Name>LastEditedBy</Name><Description>Last Edited By</Description><MinRange>0</MinRange><MaxRange>0</MaxRange><Value xsi:type="xsd:string">it-decgui</Value><ReadOnly>true</ReadOnly><AlertXMLAssigned>false</AlertXMLAssigned></ContextItem><ContextItem><Name>LastEditedDate</Name><Description>Last Edited Date</Description><MinRange>0</MinRange><MaxRange>0</MaxRange><Value xsi:type="xsd:dateTime">2017-11-30T14:29:14</Value><ReadOnly>true</ReadOnly><AlertXMLAssigned>false</AlertXMLAssigned></ContextItem></TransactionAttributes><Name>ProductionMain/DataLoad/DMG-SECHI/ReadConfigFieldsTR</Name><Version>56</Version><WriterRoles>SAP_XMII_Super_Administrator,SAP_XMII_Administrator,SAP_XMII_Developer</WriterRoles><Context><ContextItem><Name>IDLINE</Name><Description>ID Linea</Description><MinRange>0</MinRange><MaxRange>0</MaxRange><Value xsi:type="string"/><ReadOnly>false</ReadOnly><AlertXMLAssigned>false</AlertXMLAssigned></ContextItem><ContextItem><Name>LogEsteso</Name><Description>Visualizza i TRACE</Description><MinRange>0</MinRange><MaxRange>0</MaxRange><Value xsi:type="boolean">0</Value><ReadOnly>false</ReadOnly><AlertXMLAssigned>false</AlertXMLAssigned></ContextItem><ContextItem><Name>XML_OUT</Name><Description>XML in uscita</Description><MinRange>0</MinRange><MaxRange>0</MaxRange><Value xsi:type="xml"><ReferenceDocumentSource/>&lt;?xml version="1.0" encoding="UTF-8"?&gt;&lt;Rowsets&gt;&#13;
    &lt;Rowset&gt;&#13;
        &lt;Columns&gt;&#13;
            &lt;Column Description="IDLINE" MaxRange="0" MinRange="0" Name="IDLINE" SQLDataType="1" SourceColumn="IDLINE"/&gt;&#13;
            &lt;Column Description="CounterVarField0" MaxRange="0" MinRange="0" Name="CounterVarField0" SQLDataType="1" SourceColumn="CounterVarField0"/&gt;&#13;
            &lt;Column Description="CounterVarField1" MaxRange="0" MinRange="0" Name="CounterVarField1" SQLDataType="1" SourceColumn="CounterVarField1"/&gt;&#13;
            &lt;Column Description="CountVarPath0" MaxRange="0" MinRange="0" Name="CountVarPath0" SQLDataType="1" SourceColumn="CountVarPath0"/&gt;&#13;
            &lt;Column Description="CountVarPath1" MaxRange="0" MinRange="0" Name="CountVarPath1" SQLDataType="1" SourceColumn="CountVarPath1"/&gt;&#13;
            &lt;Column Description="MaterialVarField" MaxRange="0" MinRange="0" Name="MaterialVarField" SQLDataType="1" SourceColumn="MaterialVarField"/&gt;&#13;
            &lt;Column Description="PalletVarField" MaxRange="0" MinRange="0" Name="PalletVarField" SQLDataType="1" SourceColumn="PalletVarField"/&gt;&#13;
            &lt;Column Description="VariableCN" MaxRange="0" MinRange="0" Name="VariableCN" SQLDataType="1" SourceColumn="VariableCN"/&gt;&#13;
            &lt;Column Description="VariableCNPath" MaxRange="0" MinRange="0" Name="VariableCNPath" SQLDataType="1" SourceColumn="VariableCNPath"/&gt;&#13;
        &lt;/Columns&gt;&#13;
        &lt;Row&gt;&#13;
            &lt;IDLINE&gt;E01&lt;/IDLINE&gt;&#13;
            &lt;CounterVarField0&gt;580&lt;/CounterVarField0&gt;&#13;
            &lt;CounterVarField1&gt;581&lt;/CounterVarField1&gt;&#13;
            &lt;CountVarPath0&gt;MacroSample_Head1_Macro580&lt;/CountVarPath0&gt;&#13;
            &lt;CountVarPath1&gt;MacroSample_Head1_Macro581&lt;/CountVarPath1&gt;&#13;
            &lt;MaterialVarField&gt;550&lt;/MaterialVarField&gt;&#13;
            &lt;PalletVarField&gt;147&lt;/PalletVarField&gt;&#13;
            &lt;VariableCN&gt;550&lt;/VariableCN&gt;&#13;
            &lt;VariableCNPath&gt;MacroSample_Head1_Macro550&lt;/VariableCNPath&gt;&#13;
        &lt;/Row&gt;&#13;
    &lt;/Rowset&gt;&#13;
&lt;/Rowsets&gt;</Value><SchemaURI/><SchemaElement/><ValidateXMLOnExecution>1</ValidateXMLOnExecution><ReadOnly>true</ReadOnly><AlertXMLAssigned>false</AlertXMLAssigned></ContextItem></Context><Local><ContextItem><Name>Column_TMP</Name><Description>Colonne provvisorie del XML in uscita</Description><MinRange>0</MinRange><MaxRange>0</MaxRange><Value xsi:type="string"/><ReadOnly>false</ReadOnly><AlertXMLAssigned>false</AlertXMLAssigned></ContextItem><ContextItem><Name>Linea_TMP</Name><Description>Linea provvisoria del XML in uscita</Description><MinRange>0</MinRange><MaxRange>0</MaxRange><Value xsi:type="string"/><ReadOnly>false</ReadOnly><AlertXMLAssigned>false</AlertXMLAssigned></ContextItem><ContextItem><Name>Row_TMP</Name><Description>Riga XML</Description><MinRange>0</MinRange><MaxRange>0</MaxRange><Value xsi:type="string"/><ReadOnly>false</ReadOnly><AlertXMLAssigned>false</AlertXMLAssigned></ContextItem><ContextItem><Name>SMTCONF</Name><Description>Tabella SMTCONF</Description><MinRange>0</MinRange><MaxRange>0</MaxRange><Value xsi:type="xml"><ReferenceDocumentSource/></Value><SchemaURI/><SchemaElement/><ValidateXMLOnExecution>1</ValidateXMLOnExecution><ReadOnly>false</ReadOnly><AlertXMLAssigned>false</AlertXMLAssigned></ContextItem><ContextItem><Name>XML_TMP</Name><Description>FIle XML temporneo</Description><MinRange>0</MinRange><MaxRange>0</MaxRange><Value xsi:type="xml"><ReferenceDocumentSource/></Value><SchemaURI/><SchemaElement/><ValidateXMLOnExecution>1</ValidateXMLOnExecution><ReadOnly>false</ReadOnly><AlertXMLAssigned>false</AlertXMLAssigned></ContextItem></Local><Layout><GUILayoutItem><Name>Sequenza_11</Name><X>296</X><Y>8</Y><Width>120</Width><SpacingWidth>696</SpacingWidth><DescendantWidth>696</DescendantWidth><Height>96</Height></GUILayoutItem><GUILayoutItem><Name>Sequenza_10</Name><X>8</X><Y>144</Y><Width>120</Width><SpacingWidth>120</SpacingWidth><DescendantWidth>0</DescendantWidth><Height>96</Height></GUILayoutItem><GUILayoutItem><Name>ReadConfigFieldsQR_0</Name><X>16</X><Y>160</Y><Width>104</Width><SpacingWidth>0</SpacingWidth><DescendantWidth>0</DescendantWidth><Height>72</Height></GUILayoutItem><GUILayoutItem><Name>Sequenza_0</Name><X>152</X><Y>144</Y><Width>120</Width><SpacingWidth>120</SpacingWidth><DescendantWidth>120</DescendantWidth><Height>96</Height></GUILayoutItem><GUILayoutItem><Name>Conditional_0</Name><X>160</X><Y>160</Y><Width>104</Width><SpacingWidth>0</SpacingWidth><DescendantWidth>0</DescendantWidth><Height>72</Height></GUILayoutItem><GUILayoutItem><Name>Sequenza_1</Name><X>152</X><Y>280</Y><Width>120</Width><SpacingWidth>120</SpacingWidth><DescendantWidth>0</DescendantWidth><Height>96</Height></GUILayoutItem><GUILayoutItem><Name>ReadConfigFieldsQR_1</Name><X>160</X><Y>296</Y><Width>104</Width><SpacingWidth>0</SpacingWidth><DescendantWidth>0</DescendantWidth><Height>72</Height></GUILayoutItem><GUILayoutItem><Name>IDLINEA</Name><X>296</X><Y>144</Y><Width>120</Width><SpacingWidth>120</SpacingWidth><DescendantWidth>120</DescendantWidth><Height>96</Height></GUILayoutItem><GUILayoutItem><Name>Assignment_13</Name><X>304</X><Y>160</Y><Width>104</Width><SpacingWidth>0</SpacingWidth><DescendantWidth>0</DescendantWidth><Height>72</Height></GUILayoutItem><GUILayoutItem><Name>Sequenza_3</Name><X>296</X><Y>280</Y><Width>120</Width><SpacingWidth>120</SpacingWidth><DescendantWidth>120</DescendantWidth><Height>96</Height></GUILayoutItem><GUILayoutItem><Name>Repeater_0</Name><X>304</X><Y>296</Y><Width>104</Width><SpacingWidth>0</SpacingWidth><DescendantWidth>0</DescendantWidth><Height>72</Height></GUILayoutItem><GUILayoutItem><Name>Sequenza_8</Name><X>296</X><Y>416</Y><Width>120</Width><SpacingWidth>120</SpacingWidth><DescendantWidth>0</DescendantWidth><Height>96</Height></GUILayoutItem><GUILayoutItem><Name>Assignment_12</Name><X>304</X><Y>432</Y><Width>104</Width><SpacingWidth>0</SpacingWidth><DescendantWidth>0</DescendantWidth><Height>72</Height></GUILayoutItem><GUILayoutItem><Name>Sequenza_4</Name><X>440</X><Y>144</Y><Width>120</Width><SpacingWidth>120</SpacingWidth><DescendantWidth>120</DescendantWidth><Height>96</Height></GUILayoutItem><GUILayoutItem><Name>Assignment_4</Name><X>448</X><Y>160</Y><Width>104</Width><SpacingWidth>0</SpacingWidth><DescendantWidth>0</DescendantWidth><Height>72</Height></GUILayoutItem><GUILayoutItem><Name>Sequenza_6</Name><X>440</X><Y>280</Y><Width>120</Width><SpacingWidth>120</SpacingWidth><DescendantWidth>120</DescendantWidth><Height>96</Height></GUILayoutItem><GUILayoutItem><Name>Assignment_6</Name><X>448</X><Y>296</Y><Width>104</Width><SpacingWidth>0</SpacingWidth><DescendantWidth>0</DescendantWidth><Height>72</Height></GUILayoutItem><GUILayoutItem><Name>Sequenza_7</Name><X>440</X><Y>416</Y><Width>120</Width><SpacingWidth>120</SpacingWidth><DescendantWidth>0</DescendantWidth><Height>96</Height></GUILayoutItem><GUILayoutItem><Name>Normalize_1</Name><X>448</X><Y>432</Y><Width>104</Width><SpacingWidth>0</SpacingWidth><DescendantWidth>0</DescendantWidth><Height>72</Height></GUILayoutItem><GUILayoutItem><Name>Sequenza_2</Name><X>584</X><Y>144</Y><Width>120</Width><SpacingWidth>120</SpacingWidth><DescendantWidth>120</DescendantWidth><Height>96</Height></GUILayoutItem><GUILayoutItem><Name>Conditional_1</Name><X>592</X><Y>160</Y><Width>104</Width><SpacingWidth>0</SpacingWidth><DescendantWidth>0</DescendantWidth><Height>72</Height></GUILayoutItem><GUILayoutItem><Name>Sequenza_9</Name><X>584</X><Y>280</Y><Width>120</Width><SpacingWidth>120</SpacingWidth><DescendantWidth>0</DescendantWidth><Height>96</Height></GUILayoutItem><GUILayoutItem><Name>Tracer_1</Name><X>592</X><Y>296</Y><Width>104</Width><SpacingWidth>0</SpacingWidth><DescendantWidth>0</DescendantWidth><Height>72</Height></GUILayoutItem></Layout><Actions><ContextItem><Name>ReadConfigFieldsQR_0</Name><Description/><MinRange>0</MinRange><MaxRange>0</MaxRange><Value xsi:type="IlluminatorSQLQueryObject"><Timeout>60</Timeout><QueryParameters/><QueryTemplate>ProductionMain/DataLoad/DMG-SECHI/ReadConfigFieldsQR</QueryTemplate><QueryEndDate>2017-11-29T11:23:55</QueryEndDate><Results><ReferenceDocumentSource/>&lt;?xml version="1.0" encoding="UTF-8"?&gt;&lt;Rowsets CachedTime="" DateCreated="2017-11-29T11:24:36" EndDate="2017-11-29T11:24:36" StartDate="2017-11-29T10:24:36" Version="15.1 SP2 Patch 14 (Oct 17, 2016)"&gt;&lt;Rowset&gt;&lt;Columns&gt;&lt;Column Description="IDLINE" MaxRange="1" MinRange="0" Name="IDLINE" SQLDataType="12" SourceColumn="IDLINE"/&gt;&lt;Column Description="TYPE" MaxRange="1" MinRange="0" Name="TYPE" SQLDataType="12" SourceColumn="TYPE"/&gt;&lt;Column Description="MTTYPE" MaxRange="1" MinRange="0" Name="MTTYPE" SQLDataType="12" SourceColumn="MTTYPE"/&gt;&lt;Column Description="IDLINE" MaxRange="1" MinRange="0" Name="IDLINE" SQLDataType="12" SourceColumn="IDLINE"/&gt;&lt;Column Description="FIELD" MaxRange="1" MinRange="0" Name="FIELD" SQLDataType="12" SourceColumn="FIELD"/&gt;&lt;Column Description="FIELDVALUE" MaxRange="1" MinRange="0" Name="FIELDVALUE" SQLDataType="12" SourceColumn="FIELDVALUE"/&gt;&lt;/Columns&gt;&lt;Row&gt;&lt;IDLINE&gt;E01&lt;/IDLINE&gt;&lt;TYPE&gt;MTC_DMG&lt;/TYPE&gt;&lt;MTTYPE&gt;MTC_DMG&lt;/MTTYPE&gt;&lt;IDLINE/&gt;&lt;FIELD&gt;CounterVarField&lt;/FIELD&gt;&lt;FIELDVALUE&gt;580&lt;/FIELDVALUE&gt;&lt;/Row&gt;&lt;Row&gt;&lt;IDLINE&gt;E01&lt;/IDLINE&gt;&lt;TYPE&gt;MTC_DMG&lt;/TYPE&gt;&lt;MTTYPE&gt;MTC_DMG&lt;/MTTYPE&gt;&lt;IDLINE/&gt;&lt;FIELD&gt;CountVarPath&lt;/FIELD&gt;&lt;FIELDVALUE&gt;MacroSample_Head1_Macro580&lt;/FIELDVALUE&gt;&lt;/Row&gt;&lt;Row&gt;&lt;IDLINE&gt;E01&lt;/IDLINE&gt;&lt;TYPE&gt;MTC_DMG&lt;/TYPE&gt;&lt;MTTYPE&gt;MTC_DMG&lt;/MTTYPE&gt;&lt;IDLINE/&gt;&lt;FIELD&gt;MaterialVarField&lt;/FIELD&gt;&lt;FIELDVALUE&gt;550&lt;/FIELDVALUE&gt;&lt;/Row&gt;&lt;Row&gt;&lt;IDLINE&gt;E01&lt;/IDLINE&gt;&lt;TYPE&gt;MTC_DMG&lt;/TYPE&gt;&lt;MTTYPE&gt;MTC_DMG&lt;/MTTYPE&gt;&lt;IDLINE/&gt;&lt;FIELD&gt;PalletVarField&lt;/FIELD&gt;&lt;FIELDVALUE&gt;147&lt;/FIELDVALUE&gt;&lt;/Row&gt;&lt;Row&gt;&lt;IDLINE&gt;E01&lt;/IDLINE&gt;&lt;TYPE&gt;MTC_DMG&lt;/TYPE&gt;&lt;MTTYPE&gt;MTC_DMG&lt;/MTTYPE&gt;&lt;IDLINE/&gt;&lt;FIELD&gt;VariableCN&lt;/FIELD&gt;&lt;FIELDVALUE&gt;#550=0&lt;/FIELDVALUE&gt;&lt;/Row&gt;&lt;Row&gt;&lt;IDLINE&gt;E01&lt;/IDLINE&gt;&lt;TYPE&gt;MTC_DMG&lt;/TYPE&gt;&lt;MTTYPE&gt;MTC_DMG&lt;/MTTYPE&gt;&lt;IDLINE/&gt;&lt;FIELD&gt;VariableCNPath&lt;/FIELD&gt;&lt;FIELDVALUE&gt;MacroSample_Head1_Macro550&lt;/FIELDVALUE&gt;&lt;/Row&gt;&lt;/Rowset&gt;&lt;/Rowsets&gt;</Results><TagList/><QueryStartDate>2017-11-29T11:23:55</QueryStartDate><SQLTransaction/></Value><SchemaURI/><SchemaElement/><ValidateXMLOnExecution>1</ValidateXMLOnExecution><ReadOnly>false</ReadOnly><AlertXMLAssigned>false</AlertXMLAssigned></ContextItem><ContextItem><Name>Conditional_0</Name><Description/><MinRange>0</MinRange><MaxRange>0</MaxRange><Value xsi:type="ConditionalAction"><Output>false</Output><InputCount>1</InputCount><LogicalAnd>false</LogicalAnd><Input1>false</Input1></Value><ReadOnly>false</ReadOnly><AlertXMLAssigned>false</AlertXMLAssigned></ContextItem><ContextItem><Name>ReadConfigFieldsQR_1</Name><Description/><MinRange>0</MinRange><MaxRange>0</MaxRange><Value xsi:type="IlluminatorSQLQueryObject"><Timeout>60</Timeout><QueryParameters/><QueryTemplate>ProductionMain/DataLoad/DMG-SECHI/ReadConfigFieldsQR</QueryTemplate><QueryEndDate>2017-11-29T11:23:55</QueryEndDate><Results><ReferenceDocumentSource/>&lt;?xml version="1.0" encoding="UTF-8"?&gt;&lt;Rowsets CachedTime="" DateCreated="2017-11-29T11:24:36" EndDate="2017-11-29T11:24:36" StartDate="2017-11-29T10:24:36" Version="15.1 SP2 Patch 14 (Oct 17, 2016)"&gt;&lt;Rowset&gt;&lt;Columns&gt;&lt;Column Description="IDLINE" MaxRange="1" MinRange="0" Name="IDLINE" SQLDataType="12" SourceColumn="IDLINE"/&gt;&lt;Column Description="TYPE" MaxRange="1" MinRange="0" Name="TYPE" SQLDataType="12" SourceColumn="TYPE"/&gt;&lt;Column Description="MTTYPE" MaxRange="1" MinRange="0" Name="MTTYPE" SQLDataType="12" SourceColumn="MTTYPE"/&gt;&lt;Column Description="IDLINE" MaxRange="1" MinRange="0" Name="IDLINE" SQLDataType="12" SourceColumn="IDLINE"/&gt;&lt;Column Description="FIELD" MaxRange="1" MinRange="0" Name="FIELD" SQLDataType="12" SourceColumn="FIELD"/&gt;&lt;Column Description="FIELDVALUE" MaxRange="1" MinRange="0" Name="FIELDVALUE" SQLDataType="12" SourceColumn="FIELDVALUE"/&gt;&lt;/Columns&gt;&lt;Row&gt;&lt;IDLINE&gt;E01&lt;/IDLINE&gt;&lt;TYPE&gt;MTC_DMG&lt;/TYPE&gt;&lt;MTTYPE&gt;MTC_DMG&lt;/MTTYPE&gt;&lt;IDLINE/&gt;&lt;FIELD&gt;CounterVarField&lt;/FIELD&gt;&lt;FIELDVALUE&gt;580&lt;/FIELDVALUE&gt;&lt;/Row&gt;&lt;Row&gt;&lt;IDLINE&gt;E01&lt;/IDLINE&gt;&lt;TYPE&gt;MTC_DMG&lt;/TYPE&gt;&lt;MTTYPE&gt;MTC_DMG&lt;/MTTYPE&gt;&lt;IDLINE/&gt;&lt;FIELD&gt;CountVarPath&lt;/FIELD&gt;&lt;FIELDVALUE&gt;MacroSample_Head1_Macro580&lt;/FIELDVALUE&gt;&lt;/Row&gt;&lt;Row&gt;&lt;IDLINE&gt;E01&lt;/IDLINE&gt;&lt;TYPE&gt;MTC_DMG&lt;/TYPE&gt;&lt;MTTYPE&gt;MTC_DMG&lt;/MTTYPE&gt;&lt;IDLINE/&gt;&lt;FIELD&gt;MaterialVarField&lt;/FIELD&gt;&lt;FIELDVALUE&gt;550&lt;/FIELDVALUE&gt;&lt;/Row&gt;&lt;Row&gt;&lt;IDLINE&gt;E01&lt;/IDLINE&gt;&lt;TYPE&gt;MTC_DMG&lt;/TYPE&gt;&lt;MTTYPE&gt;MTC_DMG&lt;/MTTYPE&gt;&lt;IDLINE/&gt;&lt;FIELD&gt;PalletVarField&lt;/FIELD&gt;&lt;FIELDVALUE&gt;147&lt;/FIELDVALUE&gt;&lt;/Row&gt;&lt;Row&gt;&lt;IDLINE&gt;E01&lt;/IDLINE&gt;&lt;TYPE&gt;MTC_DMG&lt;/TYPE&gt;&lt;MTTYPE&gt;MTC_DMG&lt;/MTTYPE&gt;&lt;IDLINE/&gt;&lt;FIELD&gt;VariableCN&lt;/FIELD&gt;&lt;FIELDVALUE&gt;#550=0&lt;/FIELDVALUE&gt;&lt;/Row&gt;&lt;Row&gt;&lt;IDLINE&gt;E01&lt;/IDLINE&gt;&lt;TYPE&gt;MTC_DMG&lt;/TYPE&gt;&lt;MTTYPE&gt;MTC_DMG&lt;/MTTYPE&gt;&lt;IDLINE/&gt;&lt;FIELD&gt;VariableCNPath&lt;/FIELD&gt;&lt;FIELDVALUE&gt;MacroSample_Head1_Macro550&lt;/FIELDVALUE&gt;&lt;/Row&gt;&lt;/Rowset&gt;&lt;/Rowsets&gt;</Results><TagList/><QueryStartDate>2017-11-29T11:23:55</QueryStartDate><SQLTransaction/></Value><SchemaURI/><SchemaElement/><ValidateXMLOnExecution>1</ValidateXMLOnExecution><ReadOnly>false</ReadOnly><AlertXMLAssigned>false</AlertXMLAssigned></ContextItem><ContextItem><Name>Assignment_13</Name><Description/><MinRange>0</MinRange><MaxRange>0</MaxRange><Value xsi:type="Assignment"/><ReadOnly>false</ReadOnly><AlertXMLAssigned>false</AlertXMLAssigned></ContextItem><ContextItem><Name>Repeater_0</Name><Description/><MinRange>0</MinRange><MaxRange>0</MaxRange><Value xsi:type="RepeaterAction"><Output><ReferenceDocumentSource/>&lt;?xml version="1.0" encoding="UTF-8"?&gt;&lt;Row&gt;&#13;
            &lt;IDLINE&gt;E01&lt;/IDLINE&gt;&#13;
            &lt;TYPE&gt;MTC_DMG&lt;/TYPE&gt;&#13;
            &lt;MTTYPE&gt;MTC_DMG&lt;/MTTYPE&gt;&#13;
            &lt;IDLINE/&gt;&#13;
            &lt;FIELD&gt;CounterVarField&lt;/FIELD&gt;&#13;
            &lt;FIELDVALUE&gt;580&lt;/FIELDVALUE&gt;&#13;
        &lt;/Row&gt;</Output><Break>false</Break><ItemCount>0</ItemCount><CurrentItem>0</CurrentItem><Source>Local.SMTCONF{/Rowsets/Rowset/Row}</Source><Item><ReferenceDocumentSource/>&lt;?xml version="1.0" encoding="UTF-8"?&gt;&lt;Row&gt;&#13;
            &lt;IDLINE&gt;E01&lt;/IDLINE&gt;&#13;
            &lt;TYPE&gt;MTC_DMG&lt;/TYPE&gt;&#13;
            &lt;MTTYPE&gt;MTC_DMG&lt;/MTTYPE&gt;&#13;
            &lt;IDLINE/&gt;&#13;
            &lt;FIELD&gt;CounterVarField&lt;/FIELD&gt;&#13;
            &lt;FIELDVALUE&gt;580&lt;/FIELDVALUE&gt;&#13;
        &lt;/Row&gt;</Item></Value><SchemaURI/><SchemaElement/><ValidateXMLOnExecution>1</ValidateXMLOnExecution><SchemaURI/><SchemaElement/><ValidateXMLOnExecution>1</ValidateXMLOnExecution><ReadOnly>false</ReadOnly><AlertXMLAssigned>false</AlertXMLAssigned></ContextItem><ContextItem><Name>Assignment_12</Name><Description/><MinRange>0</MinRange><MaxRange>0</MaxRange><Value xsi:type="Assignment"/><ReadOnly>false</ReadOnly><AlertXMLAssigned>false</AlertXMLAssigned></ContextItem><ContextItem><Name>Assignment_4</Name><Description/><MinRange>0</MinRange><MaxRange>0</MaxRange><Value xsi:type="Assignment"/><ReadOnly>false</ReadOnly><AlertXMLAssigned>false</AlertXMLAssigned></ContextItem><ContextItem><Name>Assignment_6</Name><Description/><MinRange>0</MinRange><MaxRange>0</MaxRange><Value xsi:type="Assignment"/><ReadOnly>false</ReadOnly><AlertXMLAssigned>false</AlertXMLAssigned></ContextItem><ContextItem><Name>Normalize_1</Name><Description/><MinRange>0</MinRange><MaxRange>0</MaxRange><Value xsi:type="Normalize"><Source/><Output><ReferenceDocumentSource/></Output></Value><SchemaURI/><SchemaElement/><ValidateXMLOnExecution>1</ValidateXMLOnExecution><ReadOnly>false</ReadOnly><AlertXMLAssigned>false</AlertXMLAssigned></ContextItem><ContextItem><Name>Conditional_1</Name><Description/><MinRange>0</MinRange><MaxRange>0</MaxRange><Value xsi:type="ConditionalAction"><Output>false</Output><InputCount>1</InputCount><LogicalAnd>false</LogicalAnd><Input1>false</Input1></Value><ReadOnly>false</ReadOnly><AlertXMLAssigned>false</AlertXMLAssigned></ContextItem><ContextItem><Name>Tracer_1</Name><Description/><MinRange>0</MinRange><MaxRange>0</MaxRange><Value xsi:type="Tracer"><Message/><Level>INFO</Level></Value><ReadOnly>false</ReadOnly><AlertXMLAssigned>false</AlertXMLAssigned></ContextItem></Actions><ReaderRoles>SAP_XMII_Super_Administrator,SAP_XMII_Administrator,SAP_XMII_Developer,SAP_XMII_User</ReaderRoles><Steps><Step xsi:type="ActionSequence"><Name>Sequenza_11</Name><Description/><Steps><Step xsi:type="ActionSequence"><Name>Sequenza_10</Name><Description>Legge la SMTCONF con IDLINEA sia sulla MMACHINE che sulla SMTCONF (configurazione specifica per la linea)</Description><Steps/><Actions><Action><Name>ReadConfigFieldsQR_0</Name><Description>SQL Query</Description><IncomingLinks><Assign xsi:type="Assign"><Name/><Description/><To>ReadConfigFieldsQR_0.Param.1</To><From>Transaction.IDLINE</From></Assign><Assign xsi:type="Assign"><Name/><Description/><To>ReadConfigFieldsQR_0.Param.2</To><From>Transaction.IDLINE</From></Assign></IncomingLinks><OutgoingLinks><Assign xsi:type="AssignXml"><Name/><Description/><To>Local.SMTCONF</To><From>ReadConfigFieldsQR_0.Results</From></Assign></OutgoingLinks></Action></Actions></Step><Step xsi:type="Conditional"><Name>Sequenza_0</Name><Description>Controlla se la query precedente non ha trovato nulla</Description><Steps><Step xsi:type="ActionSequence"><Name>Sequenza_1</Name><Description>Legge la SMTCONF con IDLINEA solo sulla MMACHINE, mentre sulla SMTCONF è vuota (configurazione generale per tipo macchina)</Description><Steps/><Actions><Action><Name>ReadConfigFieldsQR_1</Name><Description>SQL Query</Description><IncomingLinks><Assign xsi:type="Assign"><Name/><Description/><To>ReadConfigFieldsQR_1.Param.1</To><From>Transaction.IDLINE</From></Assign><Assign xsi:type="Assign"><Name/><Description/><To>ReadConfigFieldsQR_1.Param.2</To><From>""</From></Assign></IncomingLinks><OutgoingLinks><Assign xsi:type="AssignXml"><Name/><Description/><To>Local.SMTCONF</To><From>ReadConfigFieldsQR_1.Results</From></Assign></OutgoingLinks></Action></Actions></Step></Steps><Actions><Action><Name>Conditional_0</Name><Description> </Description><IncomingLinks><Assign xsi:type="Assign"><Name/><Description/><To>Conditional_0.Input1</To><From>ReadConfigFieldsQR_0.Results{/Rowsets/Rowset/Row/IDLINE} == ""</From></Assign></IncomingLinks><OutgoingLinks/></Action></Actions></Step><Step xsi:type="ActionSequence"><Name>IDLINEA</Name><Description>Scrive nell'XML il campo IDLINEA</Description><Steps><Step xsi:type="Repeater"><Name>Sequenza_3</Name><Description>Ciclo sulla tabella di configurazione appena letta</Description><Steps><Step xsi:type="ActionSequence"><Name>Sequenza_8</Name><Description>Valorizza i campi provvisori con i dati di congurazione. Da questi campi verrà ricavato poi l'XML</Description><Steps/><Actions><Action><Name>Assignment_12</Name><Description> </Description><IncomingLinks/><OutgoingLinks><Assign xsi:type="Assign"><Name/><Description/><To>Local.Linea_TMP</To><From>Local.Linea_TMP &amp; "&lt;" &amp; Repeater_0.Item{/Row/FIELD} &amp; "&gt;" &amp; Repeater_0.Item{/Row/FIELDVALUE} &amp;  "&lt;/" &amp; Repeater_0.Item{/Row/FIELD} &amp; "&gt;"</From></Assign><Assign xsi:type="Assign"><Name/><Description/><To>Local.Column_TMP</To><From>Local.Column_TMP &amp; "&lt;Column Description=\""&amp; Repeater_0.Item{/Row/FIELD} &amp; "\" MaxRange=\"0\" MinRange=\"0\" Name=\"" &amp; Repeater_0.Item{/Row/FIELD} &amp; "\" SQLDataType=\"1\" SourceColumn=\"" &amp; Repeater_0.Item{/Row/FIELD} &amp; "\"/&gt;"</From></Assign></OutgoingLinks></Action></Actions></Step></Steps><Actions><Action><Name>Repeater_0</Name><Description> </Description><IncomingLinks/><OutgoingLinks/></Action></Actions></Step></Steps><Actions><Action><Name>Assignment_13</Name><Description> </Description><IncomingLinks/><OutgoingLinks><Assign xsi:type="Assign"><Name/><Description/><To>Local.Linea_TMP</To><From>Local.Linea_TMP &amp; "&lt;IDLINE&gt;" &amp; Transaction.IDLINE &amp;  "&lt;/IDLINE&gt;"</From></Assign><Assign xsi:type="Assign"><Name/><Description/><To>Local.Column_TMP</To><From>Local.Column_TMP &amp; "&lt;Column Description=\""&amp; "IDLINE" &amp; "\" MaxRange=\"0\" MinRange=\"0\" Name=\"" &amp; "IDLINE" &amp; "\" SQLDataType=\"1\" SourceColumn=\"" &amp; "IDLINE" &amp; "\"/&gt;"</From></Assign></OutgoingLinks></Action></Actions></Step><Step xsi:type="ActionSequence"><Name>Sequenza_4</Name><Description>Aggiunge i tag di inizio e fine riga</Description><Steps><Step xsi:type="ActionSequence"><Name>Sequenza_6</Name><Description/><Steps><Step xsi:type="ActionSequence"><Name>Sequenza_7</Name><Description>Normalizza il file XML</Description><Steps/><Actions><Action><Name>Normalize_1</Name><Description> </Description><IncomingLinks><Assign xsi:type="Assign"><Name/><Description/><To>Normalize_1.Source</To><From>Local.Linea_TMP</From></Assign><Assign xsi:type="AssignXml"><Name/><Description/><To>Normalize_1.Output</To><From>Local.XML_TMP</From></Assign></IncomingLinks><OutgoingLinks><Assign xsi:type="AssignXml"><Name/><Description/><To>Transaction.XML_OUT</To><From>Normalize_1.Output</From></Assign></OutgoingLinks></Action></Actions></Step></Steps><Actions><Action><Name>Assignment_6</Name><Description>Costruisce il file XML concatenando gli elementi costruiti in precedenza</Description><IncomingLinks/><OutgoingLinks><Assign xsi:type="Assign"><Name/><Description/><To>Local.Linea_TMP</To><From>"&lt;Rowsets&gt;&lt;Rowset&gt;&lt;Columns&gt;" &amp; Local.Column_TMP &amp; "&lt;/Columns&gt;" &amp; Local.Row_TMP &amp; "&lt;/Rowset&gt;&lt;/Rowsets&gt;"</From></Assign></OutgoingLinks></Action></Actions></Step></Steps><Actions><Action><Name>Assignment_4</Name><Description> </Description><IncomingLinks/><OutgoingLinks><Assign xsi:type="Assign"><Name/><Description/><To>Local.Row_TMP</To><From>Local.Row_TMP &amp; "&lt;Row&gt;" &amp; Local.Linea_TMP &amp; "&lt;/Row&gt;"</From></Assign></OutgoingLinks></Action></Actions></Step><Step xsi:type="Conditional"><Name>Sequenza_2</Name><Description>Se richiesto, scrive l'XML appena creato</Description><Steps><Step xsi:type="ActionSequence"><Name>Sequenza_9</Name><Description/><Steps/><Actions><Action><Name>Tracer_1</Name><Description> </Description><IncomingLinks><Assign xsi:type="Assign"><Name/><Description/><To>Tracer_1.Message</To><From>Transaction.XML_OUT</From></Assign></IncomingLinks><OutgoingLinks/></Action></Actions></Step></Steps><Actions><Action><Name>Conditional_1</Name><Description> </Description><IncomingLinks><Assign xsi:type="Assign"><Name/><Description/><To>Conditional_1.Input1</To><From>Transaction.LogEsteso == true</From></Assign></IncomingLinks><OutgoingLinks/></Action></Actions></Step></Steps><Actions/></Step></Steps></Transaction>