<?xml version="1.0" encoding="UTF-8"?><Transaction xmlns:xsd="http://www.w3.org/2001/XMLSchema" xmlns:xsi="http://www.w3.org/2001/XMLSchema-instance" Version="15.1.2.14"><TransactionAttributes><ContextItem><Name>AutoAppendBlankNamespaces</Name><Description>AutoAppendBlankNamespaces</Description><MinRange>0</MinRange><MaxRange>0</MaxRange><Value xsi:type="boolean">1</Value><ReadOnly>true</ReadOnly><AlertXMLAssigned>false</AlertXMLAssigned></ContextItem><ContextItem><Name>Category</Name><Description>Transaction Category</Description><MinRange>0</MinRange><MaxRange>0</MaxRange><Value xsi:type="string"/><ReadOnly>true</ReadOnly><AlertXMLAssigned>false</AlertXMLAssigned></ContextItem><ContextItem><Name>Comments</Name><Description>User Comments</Description><MinRange>0</MinRange><MaxRange>0</MaxRange><Value xsi:type="string"/><ReadOnly>true</ReadOnly><AlertXMLAssigned>false</AlertXMLAssigned></ContextItem><ContextItem><Name>CreatedBy</Name><Description>Created By</Description><MinRange>0</MinRange><MaxRange>0</MaxRange><Value xsi:type="string">it-adaluc</Value><ReadOnly>true</ReadOnly><AlertXMLAssigned>false</AlertXMLAssigned></ContextItem><ContextItem><Name>CreationDate</Name><Description>Creation Date</Description><MinRange>0</MinRange><MaxRange>0</MaxRange><Value xsi:type="dateTime">2017-02-01T14:19:43</Value><ReadOnly>true</ReadOnly><AlertXMLAssigned>false</AlertXMLAssigned></ContextItem><ContextItem><Name>Description</Name><Description>Transaction Description</Description><MinRange>0</MinRange><MaxRange>0</MaxRange><Value xsi:type="string"/><ReadOnly>true</ReadOnly><AlertXMLAssigned>false</AlertXMLAssigned></ContextItem><ContextItem><Name>FormatXMLOnConversion</Name><Description>By default XML will be formatted when assigned from XML data type to String data type. This behaviour can be changed with this flag.</Description><MinRange>0</MinRange><MaxRange>0</MaxRange><Value xsi:type="boolean">1</Value><ReadOnly>true</ReadOnly><AlertXMLAssigned>false</AlertXMLAssigned></ContextItem><ContextItem><Name>LastEditedBy</Name><Description>Last Edited By</Description><MinRange>0</MinRange><MaxRange>0</MaxRange><Value xsi:type="xsd:string">it-adaluc</Value><ReadOnly>true</ReadOnly><AlertXMLAssigned>false</AlertXMLAssigned></ContextItem><ContextItem><Name>LastEditedDate</Name><Description>Last Edited Date</Description><MinRange>0</MinRange><MaxRange>0</MaxRange><Value xsi:type="xsd:dateTime">2018-02-12T09:29:29</Value><ReadOnly>true</ReadOnly><AlertXMLAssigned>false</AlertXMLAssigned></ContextItem><ContextItem><Name>LegacyProcessingMode</Name><Description>Support the pre MII 12.1 Transaction Engine.</Description><MinRange>0</MinRange><MaxRange>0</MaxRange><Value xsi:type="boolean">0</Value><ReadOnly>true</ReadOnly><AlertXMLAssigned>false</AlertXMLAssigned></ContextItem><ContextItem><Name>Status</Name><Description>Deployment Status</Description><MinRange>0</MinRange><MaxRange>0</MaxRange><Value xsi:type="string">DEVELOPMENT</Value><ReadOnly>true</ReadOnly><AlertXMLAssigned>false</AlertXMLAssigned></ContextItem><ContextItem><Name>ThrowOnActionError</Name><Description>Throws an exception when an action error occurs</Description><MinRange>0</MinRange><MaxRange>0</MaxRange><Value xsi:type="boolean">1</Value><ReadOnly>true</ReadOnly><AlertXMLAssigned>false</AlertXMLAssigned></ContextItem><ContextItem><Name>ThrowOnLinkError</Name><Description>Throws an exception when a link error occures</Description><MinRange>0</MinRange><MaxRange>0</MaxRange><Value xsi:type="boolean">0</Value><ReadOnly>true</ReadOnly><AlertXMLAssigned>false</AlertXMLAssigned></ContextItem></TransactionAttributes><Name>ProductionMain/DataLoad/PCo/Iveco_Audi/importProdAudiIvecoFileTR </Name><Version>375</Version><WriterRoles>SAP_XMII_Super_Administrator,SAP_XMII_Administrator,SAP_XMII_Developer</WriterRoles><Context><ContextItem><Name>InputParams</Name><Description/><MinRange>0</MinRange><MaxRange>0</MaxRange><Value xsi:type="xml"><ReferenceDocumentSource/>&lt;?xml version="1.0" encoding="UTF-8"?&gt;&lt;NotificationMessage&gt;
    &lt;Header&gt;
        &lt;Name&gt;SendLocalFile&lt;/Name&gt;
        &lt;Description&gt;&lt;![CDATA[Invia i dati a MM]]&gt;&lt;/Description&gt;
        &lt;Destination&gt;Istanza MII Sviluppo&lt;/Destination&gt;
        &lt;CreatedDate&gt;2017-06-06T13:22:14&lt;/CreatedDate&gt;
        &lt;ID&gt;ff72dbb3-46d9-4deb-af3e-3392a5769681&lt;/ID&gt;
        &lt;Status&gt;Delivered&lt;/Status&gt;
    &lt;/Header&gt;
    &lt;Body&gt;
        &lt;Values&gt;
            &lt;ReceiveDataFileContent quality="None" timeStamp="0001-01-01T00:00:00.0000000" type="xsd:string"&gt;&lt;![CDATA[D:\PROGRAM FILES\trFACE .NET\Macchine\G259\Prg\programma-OMR-G171\234567|0|10000|6/08/2017 10:05:43 PM|777188|0|3|0|8|0
D:\PROGRAM FILES\trFACE .NET\Macchine\G259\Prg\programma-OMR-G171\234567|0|10000|6/08/2017 10:18:34 PM|777188|0|0|0|8|0
D:\PROGRAM FILES\trFACE .NET\Macchine\G259\Prg\programma-OMR-G171\234567|0|10000|6/08/2017 10:18:34 PM|777189|0|0|0|16|0
D:\PROGRAM FILES\trFACE .NET\Macchine\G259\Prg\programma-OMR-G171\234567|0|10000|6/08/2017 10:18:44 PM|777190|0|0|0|16|0
D:\PROGRAM FILES\trFACE .NET\Macchine\G259\Prg\programma-OMR-G171\234567|0|10000|6/08/2017 10:18:52 PM|777191|0|0|0|16|0
D:\PROGRAM FILES\trFACE .NET\Macchine\G259\Prg\programma-OMR-G171\234567|0|10000|6/08/2017 10:19:10 PM|777192|0|0|0|16|0
D:\PROGRAM FILES\trFACE .NET\Macchine\G259\Prg\programma-OMR-G171\234567|0|10000|6/08/2017 10:19:17 PM|777193|0|0|0|16|0
D:\PROGRAM FILES\trFACE .NET\Macchine\G259\Prg\programma-OMR-G171\234567|0|10000|6/08/2017 10:19:25 PM|777194|0|0|0|16|0
D:\PROGRAM FILES\trFACE .NET\Macchine\G259\Prg\programma-OMR-G171\234567|0|10000|6/08/2017 10:19:31 PM|777194|0|3|0|8|0
D:\PROGRAM FILES\trFACE .NET\Macchine\G259\Prg\programma-OMR-G171\234567|0|10000|6/08/2017 10:19:32 PM|777195|2|0|0|16|0
D:\PROGRAM FILES\trFACE .NET\Macchine\G259\Prg\programma-OMR-G171\234567|0|10000|6/08/2017 10:19:32 PM|777195|1|0|0|16|0
D:\PROGRAM FILES\trFACE .NET\Macchine\G259\Prg\programma-OMR-G171\234567|0|10000|6/08/2017 10:19:32 PM|777195|0|3|0|16|0
D:\PROGRAM FILES\trFACE .NET\Macchine\G259\Prg\programma-OMR-G171\234567|0|10000|6/08/2017 10:19:47 PM|777195|0|3|-1|64|0
D:\PROGRAM FILES\trFACE .NET\Macchine\G259\Prg\programma-OMR-G171\234567|0|10000|6/08/2017 10:20:24 PM|777195|0|0|0|72|0
D:\PROGRAM FILES\trFACE .NET\Macchine\G259\Prg\programma-OMR-G171\234567|0|10000|6/08/2017 10:20:24 PM|777196|0|0|0|16|0
D:\PROGRAM FILES\trFACE .NET\Macchine\G259\Prg\programma-OMR-G171\234567|0|10000|6/08/2017 10:20:35 PM|777197|0|0|0|16|0
D:\PROGRAM FILES\trFACE .NET\Macchine\G259\Prg\programma-OMR-G171\234567|0|10000|6/08/2017 10:20:43 PM|777198|0|0|0|16|0
D:\PROGRAM FILES\trFACE .NET\Macchine\G259\Prg\programma-OMR-G171\234567|0|10000|6/08/2017 10:20:49 PM|777198|0|3|0|8|0
D:\PROGRAM FILES\trFACE .NET\Macchine\G259\Prg\programma-OMR-G171\234567|0|10000|6/08/2017 10:20:50 PM|777199|0|3|0|16|0
D:\PROGRAM FILES\trFACE .NET\Macchine\G259\Prg\programma-OMR-G171\234567|0|10000|6/08/2017 10:21:05 PM|777199|0|3|-1|64|0
D:\PROGRAM FILES\trFACE .NET\Macchine\G259\Prg\programma-OMR-G171\234567|0|10000|6/08/2017 10:30:33 PM|777199|0|0|0|72|0
D:\PROGRAM FILES\trFACE .NET\Macchine\G259\Prg\programma-OMR-G171\234567|0|10000|6/08/2017 10:30:34 PM|777200|0|0|0|16|0
D:\PROGRAM FILES\trFACE .NET\Macchine\G259\Prg\programma-OMR-G171\234567|0|10000|6/08/2017 10:30:44 PM|777201|0|0|0|16|0
D:\PROGRAM FILES\trFACE .NET\Macchine\G259\Prg\programma-OMR-G171\234567|0|10000|6/08/2017 10:30:45 PM|777201|2|0|0|16|0
]]&gt;&lt;/ReceiveDataFileContent&gt;
            &lt;ReceiveDataOriginalFileName quality="None" timeStamp="0001-01-01T00:00:00.0000000" type="xsd:string"&gt;&lt;![CDATA[C:\Users\Guido.DeCarli\Documents\ProvaPCO\PMonitorLog0606.txt]]&gt;&lt;/ReceiveDataOriginalFileName&gt;
            &lt;ReceiveDataIsAccessible quality="None" timeStamp="0001-01-01T00:00:00.0000000" type="xsd:string"&gt;&lt;![CDATA[True]]&gt;&lt;/ReceiveDataIsAccessible&gt;
            &lt;ReceiveDataNewFileName quality="None" timeStamp="0001-01-01T00:00:00.0000000" type="xsd:string"&gt;&lt;![CDATA[C:\Users\Guido.DeCarli\Documents\ProvaPCO\Processati\PMonitorLog0606.txt]]&gt;&lt;/ReceiveDataNewFileName&gt;
            &lt;IDLINE quality="None" timeStamp="0001-01-01T00:00:00.0000000" type="xsd:string"&gt;&lt;![CDATA[HT6]]&gt;&lt;/IDLINE&gt;
            &lt;IDSLD quality="None" timeStamp="0001-01-01T00:00:00.0000000" type="xsd:string"&gt;&lt;![CDATA[GD1]]&gt;&lt;/IDSLD&gt;
        &lt;/Values&gt;
    &lt;/Body&gt;
    &lt;Faults/&gt;
&lt;/NotificationMessage&gt;</Value><SchemaURI/><SchemaElement/><ValidateXMLOnExecution>1</ValidateXMLOnExecution><ReadOnly>false</ReadOnly><AlertXMLAssigned>false</AlertXMLAssigned></ContextItem><ContextItem><Name>LogEsteso</Name><Description>Flag di salvataggio dei file XML con i dati in ingresso (solo per debug, non per uso operativo)</Description><MinRange>0</MinRange><MaxRange>0</MaxRange><Value xsi:type="boolean">0</Value><ReadOnly>false</ReadOnly><AlertXMLAssigned>false</AlertXMLAssigned></ContextItem></Context><Local><ContextItem><Name>Cond_Test</Name><Description/><MinRange>0</MinRange><MaxRange>0</MaxRange><Value xsi:type="boolean">1</Value><ReadOnly>false</ReadOnly><AlertXMLAssigned>false</AlertXMLAssigned></ContextItem><ContextItem><Name>dateupd</Name><Description>Data ora ricevimento file XML</Description><MinRange>0</MinRange><MaxRange>0</MaxRange><Value xsi:type="string"/><ReadOnly>false</ReadOnly><AlertXMLAssigned>false</AlertXMLAssigned></ContextItem><ContextItem><Name>FileBackup</Name><Description>Percorso completo del file di backup</Description><MinRange>0</MinRange><MaxRange>0</MaxRange><Value xsi:type="string"/><ReadOnly>false</ReadOnly><AlertXMLAssigned>false</AlertXMLAssigned></ContextItem><ContextItem><Name>IDFILE</Name><Description>TIpo file</Description><MinRange>0</MinRange><MaxRange>0</MaxRange><Value xsi:type="string"/><ReadOnly>false</ReadOnly><AlertXMLAssigned>false</AlertXMLAssigned></ContextItem><ContextItem><Name>LOG_DATE_SHIFT</Name><Description>LOG_ data turno</Description><MinRange>0</MinRange><MaxRange>0</MaxRange><Value xsi:type="string"/><ReadOnly>false</ReadOnly><AlertXMLAssigned>false</AlertXMLAssigned></ContextItem><ContextItem><Name>LOG_DATE_TRANSAZ</Name><Description>LOG: data transazione</Description><MinRange>0</MinRange><MaxRange>0</MaxRange><Value xsi:type="dateTime">2017-08-28T16:36:07</Value><ReadOnly>false</ReadOnly><AlertXMLAssigned>false</AlertXMLAssigned></ContextItem><ContextItem><Name>LOG_IDREP</Name><Description>LOG: reparto</Description><MinRange>0</MinRange><MaxRange>0</MaxRange><Value xsi:type="string"/><ReadOnly>false</ReadOnly><AlertXMLAssigned>false</AlertXMLAssigned></ContextItem><ContextItem><Name>LOG_PLANT</Name><Description>Log: divisione</Description><MinRange>0</MinRange><MaxRange>0</MaxRange><Value xsi:type="string"/><ReadOnly>false</ReadOnly><AlertXMLAssigned>false</AlertXMLAssigned></ContextItem><ContextItem><Name>LOG_PROGR</Name><Description>LOG: Progressivo</Description><MinRange>0</MinRange><MaxRange>0</MaxRange><Value xsi:type="string">0</Value><ReadOnly>false</ReadOnly><AlertXMLAssigned>false</AlertXMLAssigned></ContextItem><ContextItem><Name>LOG_SHIFT</Name><Description>LOG: turno</Description><MinRange>0</MinRange><MaxRange>0</MaxRange><Value xsi:type="string"/><ReadOnly>false</ReadOnly><AlertXMLAssigned>false</AlertXMLAssigned></ContextItem><ContextItem><Name>LOG_TRANSAZ</Name><Description>LOG: nome Transazione</Description><MinRange>0</MinRange><MaxRange>0</MaxRange><Value xsi:type="string">importIvecoProdFileTR</Value><ReadOnly>false</ReadOnly><AlertXMLAssigned>false</AlertXMLAssigned></ContextItem><ContextItem><Name>Messaggio_iniziale</Name><Description>Messaggio iniziale</Description><MinRange>0</MinRange><MaxRange>0</MaxRange><Value xsi:type="string"/><ReadOnly>false</ReadOnly><AlertXMLAssigned>false</AlertXMLAssigned></ContextItem><ContextItem><Name>SPCOFIELDS</Name><Description>Configurazione campi</Description><MinRange>0</MinRange><MaxRange>0</MaxRange><Value xsi:type="string"/><ReadOnly>false</ReadOnly><AlertXMLAssigned>false</AlertXMLAssigned></ContextItem><ContextItem><Name>XML_parsed</Name><Description/><MinRange>0</MinRange><MaxRange>0</MaxRange><Value xsi:type="xml"><ReferenceDocumentSource/></Value><SchemaURI/><SchemaElement/><ValidateXMLOnExecution>1</ValidateXMLOnExecution><ReadOnly>false</ReadOnly><AlertXMLAssigned>false</AlertXMLAssigned></ContextItem></Local><Layout><GUILayoutItem><Name>Sequenza_12</Name><X>8</X><Y>144</Y><Width>120</Width><SpacingWidth>120</SpacingWidth><DescendantWidth>0</DescendantWidth><Height>96</Height></GUILayoutItem><GUILayoutItem><Name>importProdAudiIvecoFileSyncTR_0</Name><X>16</X><Y>160</Y><Width>104</Width><SpacingWidth>0</SpacingWidth><DescendantWidth>0</DescendantWidth><Height>72</Height></GUILayoutItem><GUILayoutItem><Name>Sequenza_0</Name><X>8</X><Y>8</Y><Width>120</Width><SpacingWidth>120</SpacingWidth><DescendantWidth>120</DescendantWidth><Height>96</Height></GUILayoutItem><GUILayoutItem><Name>Event_Logger_0</Name><X>16</X><Y>24</Y><Width>104</Width><SpacingWidth>0</SpacingWidth><DescendantWidth>0</DescendantWidth><Height>72</Height></GUILayoutItem></Layout><Actions><ContextItem><Name>importProdAudiIvecoFileSyncTR_0</Name><Description/><MinRange>0</MinRange><MaxRange>0</MaxRange><Value xsi:type="TransactionCall"><ResetState>false</ResetState><TransactionName>ProductionMain/DataLoad/PCo/Iveco_Audi/importProdAudiIvecoFileSyncTR</TransactionName><Async>false</Async><Persist>INHERIT</Persist><LogLevel>INHERIT</LogLevel><LogType>INHERIT</LogType><StoreTransactionOutput>false</StoreTransactionOutput><Expiration>-1</Expiration><LogEsteso>false</LogEsteso><InputParams><ReferenceDocumentSource/>&lt;?xml version="1.0" encoding="UTF-8"?&gt;&lt;NotificationMessage&gt;
    &lt;Header&gt;
        &lt;Name&gt;SendLocalFile&lt;/Name&gt;
        &lt;Description&gt;&lt;![CDATA[Invia i dati a MM]]&gt;&lt;/Description&gt;
        &lt;Destination&gt;Istanza MII Sviluppo&lt;/Destination&gt;
        &lt;CreatedDate&gt;2017-06-06T13:22:14&lt;/CreatedDate&gt;
        &lt;ID&gt;ff72dbb3-46d9-4deb-af3e-3392a5769681&lt;/ID&gt;
        &lt;Status&gt;Delivered&lt;/Status&gt;
    &lt;/Header&gt;
    &lt;Body&gt;
        &lt;Values&gt;
            &lt;ReceiveDataFileContent quality="None" timeStamp="0001-01-01T00:00:00.0000000" type="xsd:string"&gt;&lt;![CDATA[D:\PROGRAM FILES\trFACE .NET\Macchine\G259\Prg\programma-OMR-G171\234567|0|10000|6/08/2017 10:05:43 PM|777188|0|3|0|8|0
D:\PROGRAM FILES\trFACE .NET\Macchine\G259\Prg\programma-OMR-G171\234567|0|10000|6/08/2017 10:18:34 PM|777188|0|0|0|8|0
D:\PROGRAM FILES\trFACE .NET\Macchine\G259\Prg\programma-OMR-G171\234567|0|10000|6/08/2017 10:18:34 PM|777189|0|0|0|16|0
D:\PROGRAM FILES\trFACE .NET\Macchine\G259\Prg\programma-OMR-G171\234567|0|10000|6/08/2017 10:18:44 PM|777190|0|0|0|16|0
D:\PROGRAM FILES\trFACE .NET\Macchine\G259\Prg\programma-OMR-G171\234567|0|10000|6/08/2017 10:18:52 PM|777191|0|0|0|16|0
D:\PROGRAM FILES\trFACE .NET\Macchine\G259\Prg\programma-OMR-G171\234567|0|10000|6/08/2017 10:19:10 PM|777192|0|0|0|16|0
D:\PROGRAM FILES\trFACE .NET\Macchine\G259\Prg\programma-OMR-G171\234567|0|10000|6/08/2017 10:19:17 PM|777193|0|0|0|16|0
D:\PROGRAM FILES\trFACE .NET\Macchine\G259\Prg\programma-OMR-G171\234567|0|10000|6/08/2017 10:19:25 PM|777194|0|0|0|16|0
D:\PROGRAM FILES\trFACE .NET\Macchine\G259\Prg\programma-OMR-G171\234567|0|10000|6/08/2017 10:19:31 PM|777194|0|3|0|8|0
D:\PROGRAM FILES\trFACE .NET\Macchine\G259\Prg\programma-OMR-G171\234567|0|10000|6/08/2017 10:19:32 PM|777195|2|0|0|16|0
D:\PROGRAM FILES\trFACE .NET\Macchine\G259\Prg\programma-OMR-G171\234567|0|10000|6/08/2017 10:19:32 PM|777195|1|0|0|16|0
D:\PROGRAM FILES\trFACE .NET\Macchine\G259\Prg\programma-OMR-G171\234567|0|10000|6/08/2017 10:19:32 PM|777195|0|3|0|16|0
D:\PROGRAM FILES\trFACE .NET\Macchine\G259\Prg\programma-OMR-G171\234567|0|10000|6/08/2017 10:19:47 PM|777195|0|3|-1|64|0
D:\PROGRAM FILES\trFACE .NET\Macchine\G259\Prg\programma-OMR-G171\234567|0|10000|6/08/2017 10:20:24 PM|777195|0|0|0|72|0
D:\PROGRAM FILES\trFACE .NET\Macchine\G259\Prg\programma-OMR-G171\234567|0|10000|6/08/2017 10:20:24 PM|777196|0|0|0|16|0
D:\PROGRAM FILES\trFACE .NET\Macchine\G259\Prg\programma-OMR-G171\234567|0|10000|6/08/2017 10:20:35 PM|777197|0|0|0|16|0
D:\PROGRAM FILES\trFACE .NET\Macchine\G259\Prg\programma-OMR-G171\234567|0|10000|6/08/2017 10:20:43 PM|777198|0|0|0|16|0
D:\PROGRAM FILES\trFACE .NET\Macchine\G259\Prg\programma-OMR-G171\234567|0|10000|6/08/2017 10:20:49 PM|777198|0|3|0|8|0
D:\PROGRAM FILES\trFACE .NET\Macchine\G259\Prg\programma-OMR-G171\234567|0|10000|6/08/2017 10:20:50 PM|777199|0|3|0|16|0
D:\PROGRAM FILES\trFACE .NET\Macchine\G259\Prg\programma-OMR-G171\234567|0|10000|6/08/2017 10:21:05 PM|777199|0|3|-1|64|0
D:\PROGRAM FILES\trFACE .NET\Macchine\G259\Prg\programma-OMR-G171\234567|0|10000|6/08/2017 10:30:33 PM|777199|0|0|0|72|0
D:\PROGRAM FILES\trFACE .NET\Macchine\G259\Prg\programma-OMR-G171\234567|0|10000|6/08/2017 10:30:34 PM|777200|0|0|0|16|0
D:\PROGRAM FILES\trFACE .NET\Macchine\G259\Prg\programma-OMR-G171\234567|0|10000|6/08/2017 10:30:44 PM|777201|0|0|0|16|0
D:\PROGRAM FILES\trFACE .NET\Macchine\G259\Prg\programma-OMR-G171\234567|0|10000|6/08/2017 10:30:45 PM|777201|2|0|0|16|0
]]&gt;&lt;/ReceiveDataFileContent&gt;
            &lt;ReceiveDataOriginalFileName quality="None" timeStamp="0001-01-01T00:00:00.0000000" type="xsd:string"&gt;&lt;![CDATA[C:\Users\Guido.DeCarli\Documents\ProvaPCO\PMonitorLog0606.txt]]&gt;&lt;/ReceiveDataOriginalFileName&gt;
            &lt;ReceiveDataIsAccessible quality="None" timeStamp="0001-01-01T00:00:00.0000000" type="xsd:string"&gt;&lt;![CDATA[True]]&gt;&lt;/ReceiveDataIsAccessible&gt;
            &lt;ReceiveDataNewFileName quality="None" timeStamp="0001-01-01T00:00:00.0000000" type="xsd:string"&gt;&lt;![CDATA[C:\Users\Guido.DeCarli\Documents\ProvaPCO\Processati\PMonitorLog0606.txt]]&gt;&lt;/ReceiveDataNewFileName&gt;
            &lt;IDLINE quality="None" timeStamp="0001-01-01T00:00:00.0000000" type="xsd:string"&gt;&lt;![CDATA[HT6]]&gt;&lt;/IDLINE&gt;
            &lt;IDSLD quality="None" timeStamp="0001-01-01T00:00:00.0000000" type="xsd:string"&gt;&lt;![CDATA[GD1]]&gt;&lt;/IDSLD&gt;
        &lt;/Values&gt;
    &lt;/Body&gt;
    &lt;Faults/&gt;
&lt;/NotificationMessage&gt;</InputParams></Value><SchemaURI/><SchemaElement/><ValidateXMLOnExecution>1</ValidateXMLOnExecution><ReadOnly>false</ReadOnly><AlertXMLAssigned>false</AlertXMLAssigned></ContextItem><ContextItem><Name>Event_Logger_0</Name><Description/><MinRange>0</MinRange><MaxRange>0</MaxRange><Value xsi:type="EventLogger"><Message>Import AudiIveco</Message><Source>UserEvent</Source><EventType>INFO</EventType></Value><ReadOnly>false</ReadOnly><AlertXMLAssigned>false</AlertXMLAssigned></ContextItem></Actions><ReaderRoles>SAP_XMII_Super_Administrator,SAP_XMII_Administrator,SAP_XMII_Developer,SAP_XMII_User</ReaderRoles><Steps><Step xsi:type="ActionSequence"><Name>Sequenza_0</Name><Description/><Steps><Step xsi:type="ActionSequence"><Name>Sequenza_12</Name><Description/><Steps/><Actions><Action><Name>importProdAudiIvecoFileSyncTR_0</Name><Description> </Description><IncomingLinks><Assign xsi:type="AssignXml"><Name/><Description/><To>importProdAudiIvecoFileSyncTR_0.InputParams</To><From>Transaction.InputParams</From></Assign><Assign xsi:type="Assign"><Name/><Description/><To>importProdAudiIvecoFileSyncTR_0.LogEsteso</To><From>Transaction.LogEsteso</From></Assign><Assign xsi:type="Assign"><Name/><Description/><To>importProdAudiIvecoFileSyncTR_0.Async</To><From>true</From></Assign><Assign xsi:type="Assign"><Name/><Description/><To>importProdAudiIvecoFileSyncTR_0.ResetState</To><From>1</From></Assign><Assign xsi:type="Assign"><Name/><Description/><To>importProdAudiIvecoFileSyncTR_0.StoreTransactionOutput</To><From>1</From></Assign><Assign xsi:type="Assign"><Name/><Description/><To>importProdAudiIvecoFileSyncTR_0.LogLevel</To><From>"INFO"</From></Assign><Assign xsi:type="Assign"><Name/><Description/><To>importProdAudiIvecoFileSyncTR_0.LogType</To><From>"INFO"</From></Assign></IncomingLinks><OutgoingLinks/></Action></Actions></Step></Steps><Actions><Action><Name>Event_Logger_0</Name><Description> </Description><IncomingLinks/><OutgoingLinks/></Action></Actions></Step></Steps></Transaction>