<?xml version="1.0" encoding="UTF-8"?><Transaction xmlns:xsd="http://www.w3.org/2001/XMLSchema" xmlns:xsi="http://www.w3.org/2001/XMLSchema-instance" Version="15.1.2.14"><TransactionAttributes><ContextItem><Name>Description</Name><Description>Transaction Description</Description><MinRange>0</MinRange><MaxRange>0</MaxRange><Value xsi:type="string"/><ReadOnly>true</ReadOnly><AlertXMLAssigned>false</AlertXMLAssigned></ContextItem><ContextItem><Name>Comments</Name><Description>User Comments</Description><MinRange>0</MinRange><MaxRange>0</MaxRange><Value xsi:type="string"/><ReadOnly>true</ReadOnly><AlertXMLAssigned>false</AlertXMLAssigned></ContextItem><ContextItem><Name>CreatedBy</Name><Description>Created By</Description><MinRange>0</MinRange><MaxRange>0</MaxRange><Value xsi:type="string">IT-PIAAND</Value><ReadOnly>true</ReadOnly><AlertXMLAssigned>false</AlertXMLAssigned></ContextItem><ContextItem><Name>CreationDate</Name><Description>Creation Date</Description><MinRange>0</MinRange><MaxRange>0</MaxRange><Value xsi:type="dateTime">2019-11-11T09:32:58</Value><ReadOnly>true</ReadOnly><AlertXMLAssigned>false</AlertXMLAssigned></ContextItem><ContextItem><Name>Category</Name><Description>Transaction Category</Description><MinRange>0</MinRange><MaxRange>0</MaxRange><Value xsi:type="string"/><ReadOnly>true</ReadOnly><AlertXMLAssigned>false</AlertXMLAssigned></ContextItem><ContextItem><Name>Status</Name><Description>Deployment Status</Description><MinRange>0</MinRange><MaxRange>0</MaxRange><Value xsi:type="string">DEVELOPMENT</Value><ReadOnly>true</ReadOnly><AlertXMLAssigned>false</AlertXMLAssigned></ContextItem><ContextItem><Name>LegacyProcessingMode</Name><Description>Support the pre MII 12.1 Transaction Engine.</Description><MinRange>0</MinRange><MaxRange>0</MaxRange><Value xsi:type="boolean">0</Value><ReadOnly>true</ReadOnly><AlertXMLAssigned>false</AlertXMLAssigned></ContextItem><ContextItem><Name>AutoAppendBlankNamespaces</Name><Description>AutoAppendBlankNamespaces</Description><MinRange>0</MinRange><MaxRange>0</MaxRange><Value xsi:type="boolean">1</Value><ReadOnly>true</ReadOnly><AlertXMLAssigned>false</AlertXMLAssigned></ContextItem><ContextItem><Name>ThrowOnLinkError</Name><Description>Throws an exception when a link error occures</Description><MinRange>0</MinRange><MaxRange>0</MaxRange><Value xsi:type="boolean">0</Value><ReadOnly>true</ReadOnly><AlertXMLAssigned>false</AlertXMLAssigned></ContextItem><ContextItem><Name>ThrowOnActionError</Name><Description>Throws an exception when an action error occurs</Description><MinRange>0</MinRange><MaxRange>0</MaxRange><Value xsi:type="boolean">1</Value><ReadOnly>true</ReadOnly><AlertXMLAssigned>false</AlertXMLAssigned></ContextItem><ContextItem><Name>FormatXMLOnConversion</Name><Description>By default XML will be formatted when assigned from XML data type to String data type. This behaviour can be changed with this flag.</Description><MinRange>0</MinRange><MaxRange>0</MaxRange><Value xsi:type="boolean">1</Value><ReadOnly>true</ReadOnly><AlertXMLAssigned>false</AlertXMLAssigned></ContextItem><ContextItem><Name>LastEditedBy</Name><Description>Last Edited By</Description><MinRange>0</MinRange><MaxRange>0</MaxRange><Value xsi:type="xsd:string">IT-PIAAND</Value><ReadOnly>true</ReadOnly><AlertXMLAssigned>false</AlertXMLAssigned></ContextItem><ContextItem><Name>LastEditedDate</Name><Description>Last Edited Date</Description><MinRange>0</MinRange><MaxRange>0</MaxRange><Value xsi:type="xsd:dateTime">2019-11-12T14:58:37</Value><ReadOnly>true</ReadOnly><AlertXMLAssigned>false</AlertXMLAssigned></ContextItem></TransactionAttributes><Name>ProductionMain/DataLoad/PCo/HellerFP6000/importFP6000FileTR</Name><Version>228</Version><WriterRoles>SAP_XMII_Super_Administrator,SAP_XMII_Administrator,SAP_XMII_Developer</WriterRoles><Context><ContextItem><Name>InputParams</Name><Description/><MinRange>0</MinRange><MaxRange>0</MaxRange><Value xsi:type="xml"><ReferenceDocumentSource/>&lt;?xml version="1.0" encoding="UTF-8"?&gt;&lt;NotificationMessage&gt;&#13;
    &lt;Header&gt;&#13;
        &lt;Name&gt;Send_XML_to_MII&lt;/Name&gt;&#13;
        &lt;Description/&gt;&#13;
        &lt;Destination&gt;MII_Dev&lt;/Destination&gt;&#13;
        &lt;CreatedDate&gt;2019-11-11T10:16:34&lt;/CreatedDate&gt;&#13;
        &lt;ID&gt;76e164c6-7123-4ed7-b867-d92cbb1932af&lt;/ID&gt;&#13;
        &lt;Status&gt;Delivered&lt;/Status&gt;&#13;
    &lt;/Header&gt;&#13;
    &lt;Body&gt;&#13;
        &lt;Values&gt;&#13;
            &lt;FileContent quality="None" timeStamp="0001-01-01T00:00:00.0000000" type="xsd:string"&gt;&lt;![CDATA[&lt;?xml version="1.0" encoding="utf-8"?&gt;&#13;
&lt;ManufacturedArticle xmlns:xsd="http://www.w3.org/2001/XMLSchema" xmlns:xsi="http://www.w3.org/2001/XMLSchema-instance"&gt;&#13;
  &lt;OrderNbr&gt;27081900&lt;/OrderNbr&gt;&#13;
  &lt;ItemId&gt;333738&lt;/ItemId&gt;&#13;
  &lt;OperationNbr&gt;Ready&lt;/OperationNbr&gt;&#13;
  &lt;Amount&gt;3&lt;/Amount&gt;&#13;
  &lt;TimeStamp&gt;11.11.2019 10:56:02&lt;/TimeStamp&gt;&#13;
  &lt;Message&gt;PartUnloaded&lt;/Message&gt;&#13;
&lt;/ManufacturedArticle&gt;]]&gt;&lt;/FileContent&gt;&#13;
            &lt;FileCreationDateUTC quality="None" timeStamp="0001-01-01T00:00:00.0000000" type="xsd:dateTime"&gt;&lt;![CDATA[2019-11-11T10:10:23]]&gt;&lt;/FileCreationDateUTC&gt;&#13;
            &lt;FileIsAccessible quality="None" timeStamp="0001-01-01T00:00:00.0000000" type="xsd:boolean"&gt;&lt;![CDATA[1]]&gt;&lt;/FileIsAccessible&gt;&#13;
            &lt;FileModificationDateUTC quality="None" timeStamp="0001-01-01T00:00:00.0000000" type="xsd:dateTime"&gt;&lt;![CDATA[2019-11-11T09:56:02]]&gt;&lt;/FileModificationDateUTC&gt;&#13;
            &lt;FileNewName quality="None" timeStamp="0001-01-01T00:00:00.0000000" type="xsd:string"&gt;&lt;![CDATA[\\10.0.5.68\Public\ERP\OutFolder_Sviluppo_Backup\ManufacturedArticles_20191111105602-2019-11-11-111634.xml]]&gt;&lt;/FileNewName&gt;&#13;
            &lt;FileOriginalName quality="None" timeStamp="0001-01-01T00:00:00.0000000" type="xsd:string"&gt;&lt;![CDATA[\\10.0.5.68\Public\ERP\OutFolder_sviluppo\ManufacturedArticles_20191112080202.xml]]&gt;&lt;/FileOriginalName&gt;&#13;
            &lt;ID_LINE quality="None" timeStamp="0001-01-01T00:00:00.0000000" type="xsd:string"&gt;&lt;![CDATA[G1]]&gt;&lt;/ID_LINE&gt;&#13;
        &lt;/Values&gt;&#13;
    &lt;/Body&gt;&#13;
    &lt;Faults/&gt;&#13;
&lt;/NotificationMessage&gt;</Value><SchemaURI/><SchemaElement/><ValidateXMLOnExecution>1</ValidateXMLOnExecution><ReadOnly>false</ReadOnly><AlertXMLAssigned>false</AlertXMLAssigned></ContextItem></Context><Local><ContextItem><Name>date_filename</Name><Description>Data dal nome del file (esempio      2019-11-11T10:56:02   )</Description><MinRange>0</MinRange><MaxRange>0</MaxRange><Value xsi:type="string"/><ReadOnly>false</ReadOnly><AlertXMLAssigned>false</AlertXMLAssigned></ContextItem><ContextItem><Name>date_filename_formatted</Name><Description>(esempio      2019-11-11 10:56:02   )</Description><MinRange>0</MinRange><MaxRange>0</MaxRange><Value xsi:type="string"/><ReadOnly>false</ReadOnly><AlertXMLAssigned>false</AlertXMLAssigned></ContextItem><ContextItem><Name>date_now</Name><Description>Data ricezione file XML</Description><MinRange>0</MinRange><MaxRange>0</MaxRange><Value xsi:type="string"/><ReadOnly>false</ReadOnly><AlertXMLAssigned>false</AlertXMLAssigned></ContextItem><ContextItem><Name>FI_Virtual</Name><Description/><MinRange>0</MinRange><MaxRange>0</MaxRange><Value xsi:type="boolean">1</Value><ReadOnly>false</ReadOnly><AlertXMLAssigned>false</AlertXMLAssigned></ContextItem><ContextItem><Name>FileBackup</Name><Description/><MinRange>0</MinRange><MaxRange>0</MaxRange><Value xsi:type="string"/><ReadOnly>false</ReadOnly><AlertXMLAssigned>false</AlertXMLAssigned></ContextItem><ContextItem><Name>GLINK</Name><Description/><MinRange>0</MinRange><MaxRange>0</MaxRange><Value xsi:type="boolean">1</Value><ReadOnly>false</ReadOnly><AlertXMLAssigned>false</AlertXMLAssigned></ContextItem><ContextItem><Name>IDMACH</Name><Description/><MinRange>0</MinRange><MaxRange>0</MaxRange><Value xsi:type="string"/><ReadOnly>false</ReadOnly><AlertXMLAssigned>false</AlertXMLAssigned></ContextItem><ContextItem><Name>IDPLANT</Name><Description/><MinRange>0</MinRange><MaxRange>0</MaxRange><Value xsi:type="string"/><ReadOnly>false</ReadOnly><AlertXMLAssigned>false</AlertXMLAssigned></ContextItem><ContextItem><Name>IDREP</Name><Description/><MinRange>0</MinRange><MaxRange>0</MaxRange><Value xsi:type="string"/><ReadOnly>false</ReadOnly><AlertXMLAssigned>false</AlertXMLAssigned></ContextItem><ContextItem><Name>ORDER</Name><Description/><MinRange>0</MinRange><MaxRange>0</MaxRange><Value xsi:type="string"/><ReadOnly>false</ReadOnly><AlertXMLAssigned>false</AlertXMLAssigned></ContextItem><ContextItem><Name>PCO_AMOUNT</Name><Description/><MinRange>0</MinRange><MaxRange>0</MaxRange><Value xsi:type="integer">0</Value><ReadOnly>false</ReadOnly><AlertXMLAssigned>false</AlertXMLAssigned></ContextItem><ContextItem><Name>PCO_ITEMID</Name><Description>Materiale</Description><MinRange>0</MinRange><MaxRange>0</MaxRange><Value xsi:type="string"/><ReadOnly>false</ReadOnly><AlertXMLAssigned>false</AlertXMLAssigned></ContextItem><ContextItem><Name>PCO_LINEID</Name><Description/><MinRange>0</MinRange><MaxRange>0</MaxRange><Value xsi:type="string"/><ReadOnly>false</ReadOnly><AlertXMLAssigned>false</AlertXMLAssigned></ContextItem><ContextItem><Name>PCO_MESSAGE</Name><Description/><MinRange>0</MinRange><MaxRange>0</MaxRange><Value xsi:type="string"/><ReadOnly>false</ReadOnly><AlertXMLAssigned>false</AlertXMLAssigned></ContextItem><ContextItem><Name>PCO_OPERATIONNBR</Name><Description/><MinRange>0</MinRange><MaxRange>0</MaxRange><Value xsi:type="string"/><ReadOnly>false</ReadOnly><AlertXMLAssigned>false</AlertXMLAssigned></ContextItem><ContextItem><Name>PCO_ORDERNBR</Name><Description/><MinRange>0</MinRange><MaxRange>0</MaxRange><Value xsi:type="string"/><ReadOnly>false</ReadOnly><AlertXMLAssigned>false</AlertXMLAssigned></ContextItem><ContextItem><Name>save_file_MII_server</Name><Description>Flag to save XML file on MII server</Description><MinRange>0</MinRange><MaxRange>0</MaxRange><Value xsi:type="boolean">0</Value><ReadOnly>false</ReadOnly><AlertXMLAssigned>false</AlertXMLAssigned></ContextItem><ContextItem><Name>Serial</Name><Description>Seriale </Description><MinRange>0</MinRange><MaxRange>0</MaxRange><Value xsi:type="string"/><ReadOnly>false</ReadOnly><AlertXMLAssigned>false</AlertXMLAssigned></ContextItem><ContextItem><Name>SHIFT</Name><Description>Turno</Description><MinRange>0</MinRange><MaxRange>0</MaxRange><Value xsi:type="string"/><ReadOnly>false</ReadOnly><AlertXMLAssigned>false</AlertXMLAssigned></ContextItem><ContextItem><Name>SHIFT_FROM</Name><Description/><MinRange>0</MinRange><MaxRange>0</MaxRange><Value xsi:type="string"/><ReadOnly>false</ReadOnly><AlertXMLAssigned>false</AlertXMLAssigned></ContextItem><ContextItem><Name>SHIFT_TO</Name><Description/><MinRange>0</MinRange><MaxRange>0</MaxRange><Value xsi:type="string"/><ReadOnly>false</ReadOnly><AlertXMLAssigned>false</AlertXMLAssigned></ContextItem><ContextItem><Name>xml_content</Name><Description/><MinRange>0</MinRange><MaxRange>0</MaxRange><Value xsi:type="xml"><ReferenceDocumentSource/>&lt;?xml version="1.0" encoding="UTF-8"?&gt;&lt;ManufacturedArticle xmlns:xsd="http://www.w3.org/2001/XMLSchema" xmlns:xsi="http://www.w3.org/2001/XMLSchema-instance"&gt;&#13;
  &lt;OrderNbr/&gt;&#13;
  &lt;ItemId/&gt;&#13;
  &lt;OperationNbr/&gt;&#13;
  &lt;Amount/&gt;&#13;
  &lt;TimeStamp/&gt;&#13;
  &lt;Message/&gt;&#13;
&lt;/ManufacturedArticle&gt;</Value><SchemaURI/><SchemaElement/><ValidateXMLOnExecution>1</ValidateXMLOnExecution><ReadOnly>false</ReadOnly><AlertXMLAssigned>false</AlertXMLAssigned></ContextItem></Local><Layout><GUILayoutItem><Name>Sequence</Name><X>704</X><Y>8</Y><Width>360</Width><SpacingWidth>1752</SpacingWidth><DescendantWidth>1752</DescendantWidth><Height>96</Height></GUILayoutItem><GUILayoutItem><Name>Sequence_0</Name><X>8</X><Y>280</Y><Width>120</Width><SpacingWidth>120</SpacingWidth><DescendantWidth>0</DescendantWidth><Height>96</Height></GUILayoutItem><GUILayoutItem><Name>XML_Saver</Name><X>16</X><Y>296</Y><Width>104</Width><SpacingWidth>0</SpacingWidth><DescendantWidth>0</DescendantWidth><Height>72</Height></GUILayoutItem><GUILayoutItem><Name>Sequence_1</Name><X>836</X><Y>144</Y><Width>240</Width><SpacingWidth>1608</SpacingWidth><DescendantWidth>1608</DescendantWidth><Height>96</Height></GUILayoutItem><GUILayoutItem><Name>Sequence_2</Name><X>896</X><Y>280</Y><Width>120</Width><SpacingWidth>1608</SpacingWidth><DescendantWidth>1608</DescendantWidth><Height>96</Height></GUILayoutItem><GUILayoutItem><Name>Conditional_MACHINE</Name><X>904</X><Y>296</Y><Width>104</Width><SpacingWidth>0</SpacingWidth><DescendantWidth>0</DescendantWidth><Height>72</Height></GUILayoutItem><GUILayoutItem><Name>Get_Machine_PCO_HELLERFP6000</Name><X>844</X><Y>160</Y><Width>104</Width><SpacingWidth>0</SpacingWidth><DescendantWidth>0</DescendantWidth><Height>72</Height></GUILayoutItem><GUILayoutItem><Name>Assignment_XML_CONTENT</Name><X>712</X><Y>24</Y><Width>104</Width><SpacingWidth>0</SpacingWidth><DescendantWidth>0</DescendantWidth><Height>72</Height></GUILayoutItem><GUILayoutItem><Name>Assignment_FIELDS</Name><X>832</X><Y>24</Y><Width>104</Width><SpacingWidth>0</SpacingWidth><DescendantWidth>0</DescendantWidth><Height>72</Height></GUILayoutItem><GUILayoutItem><Name>Tracer_FIELDS</Name><X>952</X><Y>24</Y><Width>104</Width><SpacingWidth>0</SpacingWidth><DescendantWidth>0</DescendantWidth><Height>72</Height></GUILayoutItem><GUILayoutItem><Name>Tracer_MACCHINA</Name><X>964</X><Y>160</Y><Width>104</Width><SpacingWidth>0</SpacingWidth><DescendantWidth>0</DescendantWidth><Height>72</Height></GUILayoutItem><GUILayoutItem><Name>Sequence_4</Name><X>1640</X><Y>416</Y><Width>120</Width><SpacingWidth>120</SpacingWidth><DescendantWidth>0</DescendantWidth><Height>96</Height></GUILayoutItem><GUILayoutItem><Name>Sequence_3</Name><X>824</X><Y>552</Y><Width>120</Width><SpacingWidth>1464</SpacingWidth><DescendantWidth>1464</DescendantWidth><Height>96</Height></GUILayoutItem><GUILayoutItem><Name>Conditional_Ready_PartUnloaded</Name><X>832</X><Y>568</Y><Width>104</Width><SpacingWidth>0</SpacingWidth><DescendantWidth>0</DescendantWidth><Height>72</Height></GUILayoutItem><GUILayoutItem><Name>Begin</Name><X>752</X><Y>824</Y><Width>120</Width><SpacingWidth>1320</SpacingWidth><DescendantWidth>1320</DescendantWidth><Height>96</Height></GUILayoutItem><GUILayoutItem><Name>Sequence_5</Name><X>1496</X><Y>688</Y><Width>120</Width><SpacingWidth>120</SpacingWidth><DescendantWidth>0</DescendantWidth><Height>96</Height></GUILayoutItem><GUILayoutItem><Name>Tracer_PCO</Name><X>1504</X><Y>704</Y><Width>104</Width><SpacingWidth>0</SpacingWidth><DescendantWidth>0</DescendantWidth><Height>72</Height></GUILayoutItem><GUILayoutItem><Name>INSERT INTO DPCOLOG.</Name><X>824</X><Y>416</Y><Width>120</Width><SpacingWidth>1464</SpacingWidth><DescendantWidth>1464</DescendantWidth><Height>96</Height></GUILayoutItem><GUILayoutItem><Name>SetPcoLogSQ_0</Name><X>832</X><Y>432</Y><Width>104</Width><SpacingWidth>0</SpacingWidth><DescendantWidth>0</DescendantWidth><Height>72</Height></GUILayoutItem><GUILayoutItem><Name>Sequence_8</Name><X>8</X><Y>144</Y><Width>120</Width><SpacingWidth>120</SpacingWidth><DescendantWidth>120</DescendantWidth><Height>96</Height></GUILayoutItem><GUILayoutItem><Name>Save_file_MII_server</Name><X>16</X><Y>160</Y><Width>104</Width><SpacingWidth>0</SpacingWidth><DescendantWidth>0</DescendantWidth><Height>72</Height></GUILayoutItem><GUILayoutItem><Name>getOrderFromMaterialSQ</Name><X>760</X><Y>840</Y><Width>104</Width><SpacingWidth>0</SpacingWidth><DescendantWidth>0</DescendantWidth><Height>72</Height></GUILayoutItem><GUILayoutItem><Name>Sequence_6</Name><X>752</X><Y>960</Y><Width>120</Width><SpacingWidth>1320</SpacingWidth><DescendantWidth>1320</DescendantWidth><Height>96</Height></GUILayoutItem><GUILayoutItem><Name>Conditional_ORDER</Name><X>760</X><Y>976</Y><Width>104</Width><SpacingWidth>0</SpacingWidth><DescendantWidth>0</DescendantWidth><Height>72</Height></GUILayoutItem><GUILayoutItem><Name>Sequence_16</Name><X>500</X><Y>1096</Y><Width>120</Width><SpacingWidth>816</SpacingWidth><DescendantWidth>816</DescendantWidth><Height>96</Height></GUILayoutItem><GUILayoutItem><Name>Sequence_10</Name><X>212</X><Y>1232</Y><Width>120</Width><SpacingWidth>240</SpacingWidth><DescendantWidth>240</DescendantWidth><Height>96</Height></GUILayoutItem><GUILayoutItem><Name>Loop_PCO_AMOUNT</Name><X>220</X><Y>1248</Y><Width>104</Width><SpacingWidth>0</SpacingWidth><DescendantWidth>0</DescendantWidth><Height>72</Height></GUILayoutItem><GUILayoutItem><Name>Sequence_14</Name><X>152</X><Y>1368</Y><Width>240</Width><SpacingWidth>240</SpacingWidth><DescendantWidth>0</DescendantWidth><Height>96</Height></GUILayoutItem><GUILayoutItem><Name>Sequence_15</Name><X>632</X><Y>1232</Y><Width>120</Width><SpacingWidth>552</SpacingWidth><DescendantWidth>552</DescendantWidth><Height>96</Height></GUILayoutItem><GUILayoutItem><Name>SQL_Transaction_Begin_0</Name><X>640</X><Y>1248</Y><Width>104</Width><SpacingWidth>0</SpacingWidth><DescendantWidth>0</DescendantWidth><Height>72</Height></GUILayoutItem><GUILayoutItem><Name>Sequence_TRACER_DLINEACT</Name><X>416</X><Y>1640</Y><Width>120</Width><SpacingWidth>120</SpacingWidth><DescendantWidth>0</DescendantWidth><Height>96</Height></GUILayoutItem><GUILayoutItem><Name>Alert_on_Dashboard</Name><X>992</X><Y>1096</Y><Width>480</Width><SpacingWidth>480</SpacingWidth><DescendantWidth>0</DescendantWidth><Height>96</Height></GUILayoutItem><GUILayoutItem><Name>addAlarmSQ_MALARM</Name><X>1000</X><Y>1112</Y><Width>104</Width><SpacingWidth>0</SpacingWidth><DescendantWidth>0</DescendantWidth><Height>72</Height></GUILayoutItem><GUILayoutItem><Name>AddDAlarmSQ_DALARM</Name><X>1120</X><Y>1112</Y><Width>104</Width><SpacingWidth>0</SpacingWidth><DescendantWidth>0</DescendantWidth><Height>72</Height></GUILayoutItem><GUILayoutItem><Name>updMachineDateUpdSQ_0</Name><X>1240</X><Y>1112</Y><Width>104</Width><SpacingWidth>0</SpacingWidth><DescendantWidth>0</DescendantWidth><Height>72</Height></GUILayoutItem><GUILayoutItem><Name>Sequence_11</Name><X>692</X><Y>688</Y><Width>240</Width><SpacingWidth>1320</SpacingWidth><DescendantWidth>1320</DescendantWidth><Height>96</Height></GUILayoutItem><GUILayoutItem><Name>getShiftByUpdateTR_0</Name><X>700</X><Y>704</Y><Width>104</Width><SpacingWidth>0</SpacingWidth><DescendantWidth>0</DescendantWidth><Height>72</Height></GUILayoutItem><GUILayoutItem><Name>Tracer_SHIFT</Name><X>820</X><Y>704</Y><Width>104</Width><SpacingWidth>0</SpacingWidth><DescendantWidth>0</DescendantWidth><Height>72</Height></GUILayoutItem><GUILayoutItem><Name>Tracer_ALARM</Name><X>1360</X><Y>1112</Y><Width>104</Width><SpacingWidth>0</SpacingWidth><DescendantWidth>0</DescendantWidth><Height>72</Height></GUILayoutItem><GUILayoutItem><Name>Tracer_LOOP</Name><X>160</X><Y>1384</Y><Width>104</Width><SpacingWidth>0</SpacingWidth><DescendantWidth>0</DescendantWidth><Height>72</Height></GUILayoutItem><GUILayoutItem><Name>importFP6000TR_0</Name><X>280</X><Y>1384</Y><Width>104</Width><SpacingWidth>0</SpacingWidth><DescendantWidth>0</DescendantWidth><Height>72</Height></GUILayoutItem><GUILayoutItem><Name>Sequence_13</Name><X>632</X><Y>1368</Y><Width>120</Width><SpacingWidth>552</SpacingWidth><DescendantWidth>552</DescendantWidth><Height>96</Height></GUILayoutItem><GUILayoutItem><Name>updateDLineActSQ_0</Name><X>640</X><Y>1384</Y><Width>104</Width><SpacingWidth>0</SpacingWidth><DescendantWidth>0</DescendantWidth><Height>72</Height></GUILayoutItem><GUILayoutItem><Name>Sequence_17</Name><X>704</X><Y>1504</Y><Width>120</Width><SpacingWidth>408</SpacingWidth><DescendantWidth>408</DescendantWidth><Height>96</Height></GUILayoutItem><GUILayoutItem><Name>updDMachActSQ_0</Name><X>712</X><Y>1520</Y><Width>104</Width><SpacingWidth>0</SpacingWidth><DescendantWidth>0</DescendantWidth><Height>72</Height></GUILayoutItem><GUILayoutItem><Name>Sequence_7</Name><X>416</X><Y>1504</Y><Width>120</Width><SpacingWidth>120</SpacingWidth><DescendantWidth>120</DescendantWidth><Height>96</Height></GUILayoutItem><GUILayoutItem><Name>Catch_UPD_DLINEACT</Name><X>424</X><Y>1520</Y><Width>104</Width><SpacingWidth>0</SpacingWidth><DescendantWidth>0</DescendantWidth><Height>72</Height></GUILayoutItem><GUILayoutItem><Name>Sequence_18</Name><X>560</X><Y>1640</Y><Width>120</Width><SpacingWidth>120</SpacingWidth><DescendantWidth>120</DescendantWidth><Height>96</Height></GUILayoutItem><GUILayoutItem><Name>Catch_UPD_MACHACT</Name><X>568</X><Y>1656</Y><Width>104</Width><SpacingWidth>0</SpacingWidth><DescendantWidth>0</DescendantWidth><Height>72</Height></GUILayoutItem><GUILayoutItem><Name>Sequence_19</Name><X>704</X><Y>1640</Y><Width>120</Width><SpacingWidth>120</SpacingWidth><DescendantWidth>0</DescendantWidth><Height>96</Height></GUILayoutItem><GUILayoutItem><Name>exportLineProdToGlinkTR_Prod</Name><X>712</X><Y>1656</Y><Width>104</Width><SpacingWidth>0</SpacingWidth><DescendantWidth>0</DescendantWidth><Height>72</Height></GUILayoutItem><GUILayoutItem><Name>Tracer_DLINEACT</Name><X>424</X><Y>1656</Y><Width>104</Width><SpacingWidth>0</SpacingWidth><DescendantWidth>0</DescendantWidth><Height>72</Height></GUILayoutItem><GUILayoutItem><Name>Sequence_9</Name><X>560</X><Y>1776</Y><Width>120</Width><SpacingWidth>120</SpacingWidth><DescendantWidth>0</DescendantWidth><Height>96</Height></GUILayoutItem><GUILayoutItem><Name>Tracer_MACHTACT</Name><X>568</X><Y>1792</Y><Width>104</Width><SpacingWidth>0</SpacingWidth><DescendantWidth>0</DescendantWidth><Height>72</Height></GUILayoutItem><GUILayoutItem><Name>Sequence_12</Name><X>848</X><Y>1640</Y><Width>120</Width><SpacingWidth>120</SpacingWidth><DescendantWidth>0</DescendantWidth><Height>96</Height></GUILayoutItem><GUILayoutItem><Name>SQL_Transaction_Commit_0</Name><X>856</X><Y>1656</Y><Width>104</Width><SpacingWidth>0</SpacingWidth><DescendantWidth>0</DescendantWidth><Height>72</Height></GUILayoutItem></Layout><Actions><ContextItem><Name>XML_Saver</Name><Description/><MinRange>0</MinRange><MaxRange>0</MaxRange><Value xsi:type="XmlSaver"><Path>WEB://ProductionMain/DataLoad/FP6000/TEST3.XML</Path><XmlContent><ReferenceDocumentSource/></XmlContent></Value><SchemaURI/><SchemaElement/><ValidateXMLOnExecution>1</ValidateXMLOnExecution><ReadOnly>false</ReadOnly><AlertXMLAssigned>false</AlertXMLAssigned></ContextItem><ContextItem><Name>Conditional_MACHINE</Name><Description/><MinRange>0</MinRange><MaxRange>0</MaxRange><Value xsi:type="ConditionalAction"><Output>false</Output><InputCount>1</InputCount><LogicalAnd>false</LogicalAnd><Input1>false</Input1></Value><ReadOnly>false</ReadOnly><AlertXMLAssigned>false</AlertXMLAssigned></ContextItem><ContextItem><Name>Get_Machine_PCO_HELLERFP6000</Name><Description/><MinRange>0</MinRange><MaxRange>0</MaxRange><Value xsi:type="IlluminatorSQLQueryObject"><Timeout>60</Timeout><QueryParameters/><QueryStartDate>2017-05-30T14:23:28</QueryStartDate><SQLTransaction/><QueryTemplate>ProductionMain/DBSupport/SQLExec</QueryTemplate><QueryEndDate>2017-05-30T14:23:28</QueryEndDate><Results><ReferenceDocumentSource/>&lt;?xml version="1.0" encoding="UTF-8"?&gt;&lt;Rowsets CachedTime="" DateCreated="2017-05-30T14:23:23" EndDate="2017-05-30T14:23:23" StartDate="2017-05-30T13:23:23" Version="15.1 SP2 Patch 14 (Oct 17, 2016)"&gt;&lt;Rowset&gt;&lt;Columns&gt;&lt;Column Description="FILED" MaxRange="1" MinRange="0" Name="FILED" SQLDataType="12" SourceColumn="FILED"/&gt;&lt;/Columns&gt;&lt;Row&gt;&lt;FILED&gt;Random&lt;/FILED&gt;&lt;/Row&gt;&lt;/Rowset&gt;&lt;/Rowsets&gt;</Results><TagList/></Value><SchemaURI/><SchemaElement/><ValidateXMLOnExecution>1</ValidateXMLOnExecution><ReadOnly>false</ReadOnly><AlertXMLAssigned>false</AlertXMLAssigned></ContextItem><ContextItem><Name>Assignment_XML_CONTENT</Name><Description/><MinRange>0</MinRange><MaxRange>0</MaxRange><Value xsi:type="Assignment"/><ReadOnly>false</ReadOnly><AlertXMLAssigned>false</AlertXMLAssigned></ContextItem><ContextItem><Name>Assignment_FIELDS</Name><Description/><MinRange>0</MinRange><MaxRange>0</MaxRange><Value xsi:type="Assignment"/><ReadOnly>false</ReadOnly><AlertXMLAssigned>false</AlertXMLAssigned></ContextItem><ContextItem><Name>Tracer_FIELDS</Name><Description/><MinRange>0</MinRange><MaxRange>0</MaxRange><Value xsi:type="Tracer"><Message/><Level>INFO</Level></Value><ReadOnly>false</ReadOnly><AlertXMLAssigned>false</AlertXMLAssigned></ContextItem><ContextItem><Name>Tracer_MACCHINA</Name><Description/><MinRange>0</MinRange><MaxRange>0</MaxRange><Value xsi:type="Tracer"><Message/><Level>INFO</Level></Value><ReadOnly>false</ReadOnly><AlertXMLAssigned>false</AlertXMLAssigned></ContextItem><ContextItem><Name>Conditional_Ready_PartUnloaded</Name><Description/><MinRange>0</MinRange><MaxRange>0</MaxRange><Value xsi:type="ConditionalAction"><Output>false</Output><InputCount>2</InputCount><LogicalAnd>true</LogicalAnd><Input1>false</Input1><Input2>false</Input2></Value><ReadOnly>false</ReadOnly><AlertXMLAssigned>false</AlertXMLAssigned></ContextItem><ContextItem><Name>Tracer_PCO</Name><Description/><MinRange>0</MinRange><MaxRange>0</MaxRange><Value xsi:type="Tracer"><Message/><Level>INFO</Level></Value><ReadOnly>false</ReadOnly><AlertXMLAssigned>false</AlertXMLAssigned></ContextItem><ContextItem><Name>SetPcoLogSQ_0</Name><Description/><MinRange>0</MinRange><MaxRange>0</MaxRange><Value xsi:type="IlluminatorSQLQueryObject"><Timeout>60</Timeout><QueryParameters/><QueryStartDate>2017-05-30T10:34:06</QueryStartDate><SQLTransaction/><QueryTemplate>ProductionMain/DataLoad/PCo/Common/SetPcoLogSQ</QueryTemplate><QueryEndDate>2017-05-30T10:34:06</QueryEndDate><Results><ReferenceDocumentSource/>&lt;?xml version="1.0" encoding="UTF-8"?&gt;&lt;Rowsets CachedTime="" DateCreated="2017-05-30T10:34:01" EndDate="2017-05-30T10:34:01" StartDate="2017-05-30T09:34:01" Version="15.1 SP2 Patch 14 (Oct 17, 2016)"&gt;&lt;FatalError&gt;com.mysql.jdbc.MysqlDataTruncation: Data truncation: Incorrect datetime value: '' for column 'DATEUPD' at row 1&lt;/FatalError&gt;&lt;/Rowsets&gt;</Results><TagList/></Value><SchemaURI/><SchemaElement/><ValidateXMLOnExecution>1</ValidateXMLOnExecution><ReadOnly>false</ReadOnly><AlertXMLAssigned>false</AlertXMLAssigned></ContextItem><ContextItem><Name>Save_file_MII_server</Name><Description/><MinRange>0</MinRange><MaxRange>0</MaxRange><Value xsi:type="ConditionalAction"><Output>false</Output><InputCount>1</InputCount><LogicalAnd>false</LogicalAnd><Input1>false</Input1></Value><ReadOnly>false</ReadOnly><AlertXMLAssigned>false</AlertXMLAssigned></ContextItem><ContextItem><Name>getOrderFromMaterialSQ</Name><Description/><MinRange>0</MinRange><MaxRange>0</MaxRange><Value xsi:type="IlluminatorSQLQueryObject"><Timeout>60</Timeout><QueryParameters/><QueryStartDate>2017-12-19T09:47:57</QueryStartDate><SQLTransaction/><QueryTemplate>ProductionMain/DBSupport/SQLExec</QueryTemplate><QueryEndDate>2017-12-19T09:47:57</QueryEndDate><Results><ReferenceDocumentSource/>&lt;?xml version="1.0" encoding="UTF-8"?&gt;&lt;Rowsets CachedTime="" DateCreated="2017-12-19T09:48:46" EndDate="2017-12-19T09:48:46" StartDate="2017-12-19T08:48:46" Version="15.1 SP2 Patch 14 (Oct 17, 2016)"&gt;&lt;Rowset&gt;&lt;Columns&gt;&lt;Column Description="FILED" MaxRange="1" MinRange="0" Name="FILED" SQLDataType="12" SourceColumn="FILED"/&gt;&lt;/Columns&gt;&lt;Row&gt;&lt;FILED&gt;Random&lt;/FILED&gt;&lt;/Row&gt;&lt;/Rowset&gt;&lt;/Rowsets&gt;</Results><TagList/></Value><SchemaURI/><SchemaElement/><ValidateXMLOnExecution>1</ValidateXMLOnExecution><ReadOnly>false</ReadOnly><AlertXMLAssigned>false</AlertXMLAssigned></ContextItem><ContextItem><Name>Conditional_ORDER</Name><Description/><MinRange>0</MinRange><MaxRange>0</MaxRange><Value xsi:type="ConditionalAction"><Output>false</Output><InputCount>1</InputCount><LogicalAnd>false</LogicalAnd><Input1>false</Input1></Value><ReadOnly>false</ReadOnly><AlertXMLAssigned>false</AlertXMLAssigned></ContextItem><ContextItem><Name>Loop_PCO_AMOUNT</Name><Description/><MinRange>0</MinRange><MaxRange>0</MaxRange><Value xsi:type="WhileRepeaterAction"><Break>false</Break><MaxIterations>256</MaxIterations><CurrentItem>1</CurrentItem></Value><ReadOnly>false</ReadOnly><AlertXMLAssigned>false</AlertXMLAssigned></ContextItem><ContextItem><Name>SQL_Transaction_Begin_0</Name><Description/><MinRange>0</MinRange><MaxRange>0</MaxRange><Value xsi:type="SQLTransactionBegin"><Server>MESMII (DB mySql)</Server><ConnectionTimeout>60</ConnectionTimeout></Value><ReadOnly>false</ReadOnly><AlertXMLAssigned>false</AlertXMLAssigned></ContextItem><ContextItem><Name>addAlarmSQ_MALARM</Name><Description/><MinRange>0</MinRange><MaxRange>0</MaxRange><Value xsi:type="IlluminatorSQLQueryObject"><Timeout>60</Timeout><QueryParameters/><QueryStartDate>2018-03-14T09:39:30</QueryStartDate><SQLTransaction/><QueryTemplate>ProductionMain/MasterData/Alarm/addAlarmSQ</QueryTemplate><QueryEndDate>2018-03-14T09:39:30</QueryEndDate><Results><ReferenceDocumentSource/>&lt;?xml version="1.0" encoding="UTF-8"?&gt;&lt;Rowsets CachedTime="" DateCreated="2018-03-14T09:39:43" EndDate="2018-03-14T09:39:43" StartDate="2018-03-14T08:39:43" Version="15.1 SP2 Patch 14 (Oct 17, 2016)"/&gt;</Results><TagList/></Value><SchemaURI/><SchemaElement/><ValidateXMLOnExecution>1</ValidateXMLOnExecution><ReadOnly>false</ReadOnly><AlertXMLAssigned>false</AlertXMLAssigned></ContextItem><ContextItem><Name>AddDAlarmSQ_DALARM</Name><Description/><MinRange>0</MinRange><MaxRange>0</MaxRange><Value xsi:type="IlluminatorSQLQueryObject"><Timeout>60</Timeout><QueryParameters/><QueryStartDate>2018-03-14T09:46:44</QueryStartDate><SQLTransaction/><QueryTemplate>ProductionMain/DataLoad/Movement/AddDAlarmSQ</QueryTemplate><QueryEndDate>2018-03-14T09:46:44</QueryEndDate><Results><ReferenceDocumentSource/>&lt;?xml version="1.0" encoding="UTF-8"?&gt;&lt;Rowsets CachedTime="" DateCreated="2018-03-14T09:46:57" EndDate="2018-03-14T09:46:57" StartDate="2018-03-14T08:46:57" Version="15.1 SP2 Patch 14 (Oct 17, 2016)"/&gt;</Results><TagList/></Value><SchemaURI/><SchemaElement/><ValidateXMLOnExecution>1</ValidateXMLOnExecution><ReadOnly>false</ReadOnly><AlertXMLAssigned>false</AlertXMLAssigned></ContextItem><ContextItem><Name>updMachineDateUpdSQ_0</Name><Description/><MinRange>0</MinRange><MaxRange>0</MaxRange><Value xsi:type="IlluminatorSQLQueryObject"><Timeout>60</Timeout><QueryParameters/><QueryStartDate>2019-10-30T16:54:07</QueryStartDate><SQLTransaction/><QueryTemplate>ProductionMain/MasterData/Machines/updMachineDateUpdSQ</QueryTemplate><QueryEndDate>2019-10-30T16:54:07</QueryEndDate><Results><ReferenceDocumentSource/>&lt;?xml version="1.0" encoding="UTF-8"?&gt;&lt;Rowsets CachedTime="" DateCreated="2019-10-30T16:54:43" EndDate="2019-10-30T16:54:43" StartDate="2019-10-30T15:54:43" Version="15.1 SP2 Patch 14 (Oct 17, 2016)"&gt;&lt;FatalError&gt;com.mysql.jdbc.MysqlDataTruncation: Data truncation: Incorrect datetime value: '' for column 'DATE_UPD' at row 1&lt;/FatalError&gt;&lt;/Rowsets&gt;</Results><TagList/></Value><SchemaURI/><SchemaElement/><ValidateXMLOnExecution>1</ValidateXMLOnExecution><ReadOnly>false</ReadOnly><AlertXMLAssigned>false</AlertXMLAssigned></ContextItem><ContextItem><Name>getShiftByUpdateTR_0</Name><Description/><MinRange>0</MinRange><MaxRange>0</MaxRange><Value xsi:type="TransactionCall"><ResetState>false</ResetState><TransactionName>ProductionMain/TimeShift/getShiftByUpdateTR</TransactionName><Async>false</Async><Persist>INHERIT</Persist><LogLevel>INHERIT</LogLevel><LogType>INHERIT</LogType><StoreTransactionOutput>false</StoreTransactionOutput><Expiration>-1</Expiration><NoTrace>X</NoTrace><Calc_Prev>false</Calc_Prev><Plant/><DateUpd>2018-09-05T21:56:17</DateUpd><Language/><IDRep/><Calc_Localize>true</Calc_Localize><IDLine/></Value><ReadOnly>false</ReadOnly><AlertXMLAssigned>false</AlertXMLAssigned></ContextItem><ContextItem><Name>Tracer_SHIFT</Name><Description/><MinRange>0</MinRange><MaxRange>0</MaxRange><Value xsi:type="Tracer"><Message/><Level>INFO</Level></Value><ReadOnly>false</ReadOnly><AlertXMLAssigned>false</AlertXMLAssigned></ContextItem><ContextItem><Name>Tracer_ALARM</Name><Description/><MinRange>0</MinRange><MaxRange>0</MaxRange><Value xsi:type="Tracer"><Message/><Level>INFO</Level></Value><ReadOnly>false</ReadOnly><AlertXMLAssigned>false</AlertXMLAssigned></ContextItem><ContextItem><Name>Tracer_LOOP</Name><Description/><MinRange>0</MinRange><MaxRange>0</MaxRange><Value xsi:type="Tracer"><Message/><Level>INFO</Level></Value><ReadOnly>false</ReadOnly><AlertXMLAssigned>false</AlertXMLAssigned></ContextItem><ContextItem><Name>importFP6000TR_0</Name><Description/><MinRange>0</MinRange><MaxRange>0</MaxRange><Value xsi:type="TransactionCall"><ResetState>false</ResetState><TransactionName>ProductionMain/DataLoad/PCo/HellerFP6000/importFP6000TR</TransactionName><Async>false</Async><Persist>INHERIT</Persist><LogLevel>INHERIT</LogLevel><LogType>INHERIT</LogType><StoreTransactionOutput>false</StoreTransactionOutput><Expiration>-1</Expiration><IDMACH/><ORDER/><SHIFT/><IDREP/><IDPLANT/><IDLINE/><SHIFT_FROM/><MATERIAL/><SHIFT_TO/><TIMESTAMP_FILENAME/></Value><ReadOnly>false</ReadOnly><AlertXMLAssigned>false</AlertXMLAssigned></ContextItem><ContextItem><Name>updateDLineActSQ_0</Name><Description/><MinRange>0</MinRange><MaxRange>0</MaxRange><Value xsi:type="IlluminatorSQLQueryObject"><Timeout>60</Timeout><QueryParameters/><QueryStartDate>2017-12-20T09:21:19</QueryStartDate><SQLTransaction/><QueryTemplate>ProductionMain/DataLoad/PCo/Iveco_Audi/updateDLineActSQ</QueryTemplate><QueryEndDate>2017-12-20T09:21:19</QueryEndDate><Results><ReferenceDocumentSource/>&lt;?xml version="1.0" encoding="UTF-8"?&gt;&lt;Rowsets CachedTime="" DateCreated="2019-11-11T15:01:34" EndDate="2019-11-11T15:01:34" StartDate="2019-11-11T14:01:34" Version="15.1 SP2 Patch 14 (Oct 17, 2016)"/&gt;</Results><TagList/></Value><SchemaURI/><SchemaElement/><ValidateXMLOnExecution>1</ValidateXMLOnExecution><ReadOnly>false</ReadOnly><AlertXMLAssigned>false</AlertXMLAssigned></ContextItem><ContextItem><Name>updDMachActSQ_0</Name><Description/><MinRange>0</MinRange><MaxRange>0</MaxRange><Value xsi:type="IlluminatorSQLQueryObject"><Timeout>60</Timeout><QueryParameters/><QueryStartDate>2017-12-20T09:25:29</QueryStartDate><SQLTransaction/><QueryTemplate>ProductionMain/DataLoad/PCo/Iveco_Audi/updDMachActSQ</QueryTemplate><QueryEndDate>2017-12-20T09:25:29</QueryEndDate><Results><ReferenceDocumentSource/>&lt;?xml version="1.0" encoding="UTF-8"?&gt;&lt;Rowsets CachedTime="" DateCreated="2017-12-20T09:26:17" EndDate="2017-12-20T09:26:17" StartDate="2017-12-20T08:26:17" Version="15.1 SP2 Patch 14 (Oct 17, 2016)"&gt;&lt;FatalError&gt;com.mysql.jdbc.exceptions.jdbc4.MySQLSyntaxErrorException: You have an error in your SQL syntax; check the manual that corresponds to your MySQL server version for the right syntax to use near '&#13;
QTY_SCRAP = ,&#13;
EXID = ''&#13;
WHERE IDMACH = ''' at line 6&lt;/FatalError&gt;&lt;/Rowsets&gt;</Results><TagList/></Value><SchemaURI/><SchemaElement/><ValidateXMLOnExecution>1</ValidateXMLOnExecution><ReadOnly>false</ReadOnly><AlertXMLAssigned>false</AlertXMLAssigned></ContextItem><ContextItem><Name>Catch_UPD_DLINEACT</Name><Description/><MinRange>0</MinRange><MaxRange>0</MaxRange><Value xsi:type="CatchAction"/><ReadOnly>false</ReadOnly><AlertXMLAssigned>false</AlertXMLAssigned></ContextItem><ContextItem><Name>Catch_UPD_MACHACT</Name><Description/><MinRange>0</MinRange><MaxRange>0</MaxRange><Value xsi:type="CatchAction"/><ReadOnly>false</ReadOnly><AlertXMLAssigned>false</AlertXMLAssigned></ContextItem><ContextItem><Name>exportLineProdToGlinkTR_Prod</Name><Description/><MinRange>0</MinRange><MaxRange>0</MaxRange><Value xsi:type="TransactionCall"><ResetState>false</ResetState><TransactionName>ProductionMain/DataLoad/GLINK/exportLineProdToGlinkTR</TransactionName><Async>false</Async><Persist>INHERIT</Persist><LogLevel>INHERIT</LogLevel><LogType>INHERIT</LogType><StoreTransactionOutput>false</StoreTransactionOutput><Expiration>-1</Expiration><Line/><Shift/><Plant/><QtyProd>0</QtyProd><QtyScrap>0</QtyScrap><DateShift/><Material/></Value><ReadOnly>false</ReadOnly><AlertXMLAssigned>false</AlertXMLAssigned></ContextItem><ContextItem><Name>Tracer_DLINEACT</Name><Description/><MinRange>0</MinRange><MaxRange>0</MaxRange><Value xsi:type="Tracer"><Message/><Level>INFO</Level></Value><ReadOnly>false</ReadOnly><AlertXMLAssigned>false</AlertXMLAssigned></ContextItem><ContextItem><Name>Tracer_MACHTACT</Name><Description/><MinRange>0</MinRange><MaxRange>0</MaxRange><Value xsi:type="Tracer"><Message/><Level>INFO</Level></Value><ReadOnly>false</ReadOnly><AlertXMLAssigned>false</AlertXMLAssigned></ContextItem><ContextItem><Name>SQL_Transaction_Commit_0</Name><Description/><MinRange>0</MinRange><MaxRange>0</MaxRange><Value xsi:type="SQLTransactionCommit"><SQLTransaction/></Value><ReadOnly>false</ReadOnly><AlertXMLAssigned>false</AlertXMLAssigned></ContextItem></Actions><ReaderRoles>SAP_XMII_Super_Administrator,SAP_XMII_Administrator,SAP_XMII_Developer,SAP_XMII_User</ReaderRoles><Steps><Step xsi:type="ActionSequence"><Name>Sequence</Name><Description/><Steps><Step xsi:type="Conditional"><Name>Sequence_8</Name><Description/><Steps><Step xsi:type="ActionSequence"><Name>Sequence_0</Name><Description/><Steps/><Actions><Action><Name>XML_Saver</Name><Description> </Description><IncomingLinks><Assign xsi:type="AssignXml"><Name/><Description/><To>XML_Saver.XmlContent</To><From>Transaction.InputParams</From></Assign><Assign xsi:type="Assign"><Name/><Description/><To>XML_Saver.Path</To><From>"WEB://ProductionMain/DataLoad/FP6000/" &amp; Local.PCO_LINEID &amp; "_" &amp; stringpart(datenow, 1, 4) &amp; stringpart(datenow, 6, 2) &amp; "_" &amp; stringpart(datenow, 9, 2) &amp; "_" &amp; stringpart(datenow, 12, 2) &amp; stringpart(datenow, 15, 2) &amp; stringpart(datenow, 18, 2) &amp; ".xml"</From></Assign></IncomingLinks><OutgoingLinks/></Action></Actions></Step></Steps><Actions><Action><Name>Save_file_MII_server</Name><Description> </Description><IncomingLinks><Assign xsi:type="Assign"><Name/><Description/><To>Save_file_MII_server.Input1</To><From>Local.save_file_MII_server == true</From></Assign></IncomingLinks><OutgoingLinks/></Action></Actions></Step><Step xsi:type="ActionSequence"><Name>Sequence_1</Name><Description/><Steps><Step xsi:type="Conditional"><Name>Sequence_2</Name><Description/><Steps><Step xsi:type="ActionSequence"><Name>INSERT INTO DPCOLOG.</Name><Description/><Steps><Step xsi:type="Conditional"><Name>Sequence_3</Name><Description/><Steps><Step xsi:type="ActionSequence"><Name>Sequence_11</Name><Description/><Steps><Step xsi:type="ActionSequence"><Name>Begin</Name><Description/><Steps><Step xsi:type="Conditional"><Name>Sequence_6</Name><Description/><Steps><Step xsi:type="ActionSequence"><Name>Sequence_16</Name><Description/><Steps><Step xsi:type="WhileRepeater"><Name>Sequence_10</Name><Description/><Steps><Step xsi:type="ActionSequence"><Name>Sequence_14</Name><Description/><Steps/><Actions><Action><Name>Tracer_LOOP</Name><Description> </Description><IncomingLinks><Assign xsi:type="Assign"><Name/><Description/><To>Tracer_LOOP.Level</To><From>" ------------------------- " &amp; Local.PCO_AMOUNT &amp; " -------------- "</From></Assign></IncomingLinks><OutgoingLinks/></Action><Action><Name>importFP6000TR_0</Name><Description> </Description><IncomingLinks><Assign xsi:type="Assign"><Name/><Description/><To>importFP6000TR_0.IDMACH</To><From>Local.IDMACH</From></Assign><Assign xsi:type="Assign"><Name/><Description/><To>importFP6000TR_0.ORDER</To><From>Local.ORDER</From></Assign><Assign xsi:type="Assign"><Name/><Description/><To>importFP6000TR_0.SHIFT</To><From>Local.SHIFT</From></Assign><Assign xsi:type="Assign"><Name/><Description/><To>importFP6000TR_0.IDREP</To><From>Local.IDREP</From></Assign><Assign xsi:type="Assign"><Name/><Description/><To>importFP6000TR_0.IDPLANT</To><From>Local.IDPLANT</From></Assign><Assign xsi:type="Assign"><Name/><Description/><To>importFP6000TR_0.IDLINE</To><From>Local.PCO_LINEID</From></Assign><Assign xsi:type="Assign"><Name/><Description/><To>importFP6000TR_0.SHIFT_FROM</To><From>Local.SHIFT_FROM</From></Assign><Assign xsi:type="Assign"><Name/><Description/><To>importFP6000TR_0.MATERIAL</To><From>Local.PCO_ITEMID</From></Assign><Assign xsi:type="Assign"><Name/><Description/><To>importFP6000TR_0.SHIFT_TO</To><From>Local.SHIFT_TO</From></Assign><Assign xsi:type="Assign"><Name/><Description/><To>importFP6000TR_0.TIMESTAMP_FILENAME</To><From>Local.date_filename_formatted</From></Assign></IncomingLinks><OutgoingLinks/></Action></Actions></Step></Steps><Actions><Action><Name>Loop_PCO_AMOUNT</Name><Description> </Description><IncomingLinks><Assign xsi:type="Assign"><Name/><Description/><To>Loop_PCO_AMOUNT.MaxIterations</To><From>Local.PCO_AMOUNT</From></Assign></IncomingLinks><OutgoingLinks/></Action></Actions></Step><Step xsi:type="ActionSequence"><Name>Sequence_15</Name><Description/><Steps><Step xsi:type="ActionSequence"><Name>Sequence_13</Name><Description/><Steps><Step xsi:type="Catch"><Name>Sequence_7</Name><Description/><Steps><Step xsi:type="ActionSequence"><Name>Sequence_TRACER_DLINEACT</Name><Description/><Steps/><Actions><Action><Name>Tracer_DLINEACT</Name><Description> </Description><IncomingLinks><Assign xsi:type="Assign"><Name/><Description/><To>Tracer_DLINEACT.Message</To><From>"DLINEACT : " &amp; Catch_UPD_DLINEACT.ExceptionType &amp; " ; " &amp; Catch_UPD_DLINEACT.Message</From></Assign></IncomingLinks><OutgoingLinks/></Action></Actions></Step></Steps><Actions><Action><Name>Catch_UPD_DLINEACT</Name><Description>Catches an exception</Description><IncomingLinks/><OutgoingLinks/></Action></Actions></Step><Step xsi:type="ActionSequence"><Name>Sequence_17</Name><Description/><Steps><Step xsi:type="Catch"><Name>Sequence_18</Name><Description/><Steps><Step xsi:type="ActionSequence"><Name>Sequence_9</Name><Description/><Steps/><Actions><Action><Name>Tracer_MACHTACT</Name><Description> </Description><IncomingLinks><Assign xsi:type="Assign"><Name/><Description/><To>Tracer_MACHTACT.Message</To><From>"MACHACT: " &amp; Catch_UPD_MACHACT.ExceptionType &amp; " ; " &amp; Catch_UPD_MACHACT.Message</From></Assign></IncomingLinks><OutgoingLinks/></Action></Actions></Step></Steps><Actions><Action><Name>Catch_UPD_MACHACT</Name><Description>Catches an exception</Description><IncomingLinks/><OutgoingLinks/></Action></Actions></Step><Step xsi:type="ActionSequence"><Name>Sequence_19</Name><Description/><Steps/><Actions><Action><Name>exportLineProdToGlinkTR_Prod</Name><Description> </Description><IncomingLinks><Assign xsi:type="Assign"><Name/><Description/><To>exportLineProdToGlinkTR_Prod.Line</To><From>Local.PCO_LINEID</From></Assign><Assign xsi:type="Assign"><Name/><Description/><To>exportLineProdToGlinkTR_Prod.Plant</To><From>Local.IDPLANT</From></Assign><Assign xsi:type="Assign"><Name/><Description/><To>exportLineProdToGlinkTR_Prod.QtyProd</To><From>Local.PCO_AMOUNT</From></Assign><Assign xsi:type="Assign"><Name/><Description/><To>exportLineProdToGlinkTR_Prod.QtyScrap</To><From>0</From></Assign><Assign xsi:type="Assign"><Name/><Description/><To>exportLineProdToGlinkTR_Prod.Material</To><From>Local.PCO_ITEMID</From></Assign><Assign xsi:type="Assign"><Name/><Description/><To>exportLineProdToGlinkTR_Prod.DateShift</To><From>Local.SHIFT_FROM</From></Assign><Assign xsi:type="Assign"><Name/><Description/><To>exportLineProdToGlinkTR_Prod.Shift</To><From>Local.SHIFT</From></Assign><Assign xsi:type="Assign"><Name/><Description/><To>exportLineProdToGlinkTR_Prod.Async</To><From>1</From></Assign></IncomingLinks><OutgoingLinks/></Action></Actions></Step><Step xsi:type="ActionSequence"><Name>Sequence_12</Name><Description/><Steps/><Actions><Action><Name>SQL_Transaction_Commit_0</Name><Description>Commit the transaction</Description><IncomingLinks><Assign xsi:type="Assign"><Name/><Description/><To>SQL_Transaction_Commit_0.SQLTransaction</To><From>SQL_Transaction_Begin_0.SQLTransaction</From></Assign></IncomingLinks><OutgoingLinks/></Action></Actions></Step></Steps><Actions><Action><Name>updDMachActSQ_0</Name><Description>SQL Query</Description><IncomingLinks><Assign xsi:type="Assign"><Name/><Description/><To>updDMachActSQ_0.SQLTransaction</To><From>SQL_Transaction_Begin_0.SQLTransaction</From></Assign><Assign xsi:type="Assign"><Name/><Description/><To>updDMachActSQ_0.Param.1</To><From>Local.IDMACH</From></Assign><Assign xsi:type="Assign"><Name/><Description/><To>updDMachActSQ_0.Param.2</To><From>Local.PCO_LINEID</From></Assign><Assign xsi:type="Assign"><Name/><Description/><To>updDMachActSQ_0.Param.3</To><From>Local.date_filename_formatted</From></Assign><Assign xsi:type="Assign"><Name/><Description/><To>updDMachActSQ_0.Param.4</To><From>"3"</From></Assign><Assign xsi:type="Assign"><Name/><Description/><To>updDMachActSQ_0.Param.5</To><From>Local.date_now</From></Assign><Assign xsi:type="Assign"><Name/><Description/><To>updDMachActSQ_0.Param.6</To><From>Local.PCO_AMOUNT</From></Assign><Assign xsi:type="Assign"><Name/><Description/><To>updDMachActSQ_0.Param.7</To><From>0</From></Assign><Assign xsi:type="Assign"><Name/><Description/><To>updDMachActSQ_0.Param.8</To><From>""</From></Assign></IncomingLinks><OutgoingLinks/></Action></Actions></Step></Steps><Actions><Action><Name>updateDLineActSQ_0</Name><Description>SQL Query</Description><IncomingLinks><Assign xsi:type="Assign"><Name/><Description/><To>updateDLineActSQ_0.SQLTransaction</To><From>SQL_Transaction_Begin_0.SQLTransaction</From></Assign><Assign xsi:type="Assign"><Name/><Description/><To>updateDLineActSQ_0.Param.1</To><From>Local.PCO_LINEID</From></Assign><Assign xsi:type="Assign"><Name/><Description/><To>updateDLineActSQ_0.Param.2</To><From>Local.date_filename_formatted</From></Assign><Assign xsi:type="Assign"><Name/><Description/><To>updateDLineActSQ_0.Param.3</To><From>Local.date_now</From></Assign><Assign xsi:type="Assign"><Name/><Description/><To>updateDLineActSQ_0.Param.4</To><From>""</From></Assign><Assign xsi:type="Assign"><Name/><Description/><To>updateDLineActSQ_0.Param.5</To><From>""</From></Assign><Assign xsi:type="Assign"><Name/><Description/><To>updateDLineActSQ_0.Param.6</To><From>Local.PCO_ITEMID</From></Assign><Assign xsi:type="Assign"><Name/><Description/><To>updateDLineActSQ_0.Param.8</To><From>Local.ORDER</From></Assign><Assign xsi:type="Assign"><Name/><Description/><To>updateDLineActSQ_0.Param.9</To><From>"3"</From></Assign><Assign xsi:type="Assign"><Name/><Description/><To>updateDLineActSQ_0.Param.7</To><From>stringif( Local.FI_Virtual == "1","", Local.Serial )</From></Assign></IncomingLinks><OutgoingLinks/></Action></Actions></Step></Steps><Actions><Action><Name>SQL_Transaction_Begin_0</Name><Description>Inizio della procedura che andrà a scrivere le tabelle di pari passo.</Description><IncomingLinks/><OutgoingLinks/></Action></Actions></Step></Steps><Actions/></Step><Step xsi:type="ActionSequence"><Name>Alert_on_Dashboard</Name><Description/><Steps/><Actions><Action><Name>addAlarmSQ_MALARM</Name><Description>SQL Query</Description><IncomingLinks><Assign xsi:type="Assign"><Name/><Description/><To>addAlarmSQ_MALARM.Param.1</To><From>Local.IDPLANT</From></Assign><Assign xsi:type="Assign"><Name/><Description/><To>addAlarmSQ_MALARM.Param.2</To><From>Local.PCO_LINEID</From></Assign><Assign xsi:type="Assign"><Name/><Description/><To>addAlarmSQ_MALARM.Param.3</To><From>"MII-FPHELLER"</From></Assign><Assign xsi:type="Assign"><Name/><Description/><To>addAlarmSQ_MALARM.Param.4</To><From>"Manca attribuzione Ordine al Materiale " &amp; Local.PCO_ITEMID</From></Assign><Assign xsi:type="Assign"><Name/><Description/><To>addAlarmSQ_MALARM.Param.5</To><From>datenow</From></Assign><Assign xsi:type="Assign"><Name/><Description/><To>addAlarmSQ_MALARM.Param.6</To><From>""</From></Assign><Assign xsi:type="Assign"><Name/><Description/><To>addAlarmSQ_MALARM.Param.7</To><From>""</From></Assign><Assign xsi:type="Assign"><Name/><Description/><To>addAlarmSQ_MALARM.Param.8</To><From>1</From></Assign></IncomingLinks><OutgoingLinks/></Action><Action><Name>AddDAlarmSQ_DALARM</Name><Description>SQL Query</Description><IncomingLinks><Assign xsi:type="Assign"><Name/><Description/><To>AddDAlarmSQ_DALARM.Param.1</To><From>Local.IDPLANT</From></Assign><Assign xsi:type="Assign"><Name/><Description/><To>AddDAlarmSQ_DALARM.Param.2</To><From>Local.PCO_LINEID</From></Assign><Assign xsi:type="Assign"><Name/><Description/><To>AddDAlarmSQ_DALARM.Param.3</To><From>"MII-FPHELLER"</From></Assign><Assign xsi:type="Assign"><Name/><Description/><To>AddDAlarmSQ_DALARM.Param.4</To><From>Local.date_filename_formatted</From></Assign><Assign xsi:type="Assign"><Name/><Description/><To>AddDAlarmSQ_DALARM.Param.5</To><From>datenow</From></Assign><Assign xsi:type="Assign"><Name/><Description/><To>AddDAlarmSQ_DALARM.Param.6</To><From>1</From></Assign><Assign xsi:type="Assign"><Name/><Description/><To>AddDAlarmSQ_DALARM.Param.7</To><From>Local.SHIFT_FROM</From></Assign><Assign xsi:type="Assign"><Name/><Description/><To>AddDAlarmSQ_DALARM.Param.8</To><From>Local.SHIFT</From></Assign></IncomingLinks><OutgoingLinks/></Action><Action><Name>updMachineDateUpdSQ_0</Name><Description>SQL Query</Description><IncomingLinks><Assign xsi:type="Assign"><Name/><Description/><To>updMachineDateUpdSQ_0.Param.1</To><From>Local.IDMACH</From></Assign><Assign xsi:type="Assign"><Name/><Description/><To>updMachineDateUpdSQ_0.Param.2</To><From>datenow</From></Assign></IncomingLinks><OutgoingLinks/></Action><Action><Name>Tracer_ALARM</Name><Description> </Description><IncomingLinks><Assign xsi:type="Assign"><Name/><Description/><To>Tracer_ALARM.Message</To><From>"Manca attribuzione Ordine al Materiale " &amp; Local.PCO_ITEMID</From></Assign></IncomingLinks><OutgoingLinks/></Action></Actions></Step></Steps><Actions><Action><Name>Conditional_ORDER</Name><Description> </Description><IncomingLinks><Assign xsi:type="Assign"><Name/><Description/><To>Conditional_ORDER.Input1</To><From>Local.ORDER != ""</From></Assign></IncomingLinks><OutgoingLinks/></Action></Actions></Step></Steps><Actions><Action><Name>getOrderFromMaterialSQ</Name><Description>SQL Query</Description><IncomingLinks><Assign xsi:type="Assign"><Name/><Description/><To>getOrderFromMaterialSQ.Query</To><From>"SELECT IF(MMATERIAL.`ORDER` IS NULL,'',MMATERIAL.`ORDER`) AS `ORDER`
FROM MMATERIAL
WHERE MMATERIAL.MATERIAL = '" &amp; stringtrim( Local.PCO_ITEMID) &amp; "'"</From></Assign></IncomingLinks><OutgoingLinks><Assign xsi:type="Assign"><Name/><Description/><To>Local.ORDER</To><From>getOrderFromMaterialSQ.Results{/Rowsets/Rowset/Row/ORDER}</From></Assign></OutgoingLinks></Action></Actions></Step></Steps><Actions><Action><Name>getShiftByUpdateTR_0</Name><Description> </Description><IncomingLinks><Assign xsi:type="Assign"><Name/><Description/><To>getShiftByUpdateTR_0.IDLine</To><From>Local.PCO_LINEID</From></Assign><Assign xsi:type="Assign"><Name/><Description/><To>getShiftByUpdateTR_0.DateUpd</To><From>Local.date_filename_formatted</From></Assign></IncomingLinks><OutgoingLinks><Assign xsi:type="Assign"><Name/><Description/><To>Local.SHIFT</To><From>getShiftByUpdateTR_0.Shift</From></Assign><Assign xsi:type="Assign"><Name/><Description/><To>Local.SHIFT_FROM</To><From>getShiftByUpdateTR_0.DateID</From></Assign><Assign xsi:type="Assign"><Name/><Description/><To>Local.SHIFT_TO</To><From>getShiftByUpdateTR_0.TimeTo</From></Assign></OutgoingLinks></Action><Action><Name>Tracer_SHIFT</Name><Description> </Description><IncomingLinks><Assign xsi:type="Assign"><Name/><Description/><To>Tracer_SHIFT.Message</To><From>"SHIFT : " &amp; " " &amp; Local.SHIFT &amp; "\r\n" &amp; " " &amp;
"SHIFT_FROM : " &amp; " " &amp;  Local.SHIFT_FROM &amp; "\r\n" &amp; " " &amp;
"SHIFT_TO : " &amp; " " &amp; Local.SHIFT_TO &amp; "\r\n" </From></Assign></IncomingLinks><OutgoingLinks/></Action></Actions></Step><Step xsi:type="ActionSequence"><Name>Sequence_5</Name><Description/><Steps/><Actions><Action><Name>Tracer_PCO</Name><Description> </Description><IncomingLinks><Assign xsi:type="Assign"><Name/><Description/><To>Tracer_PCO.Message</To><From>"MESSAGE : " &amp; Local.PCO_MESSAGE &amp; "\r\n" &amp;
"OPERATIONNBR : " &amp; Local.PCO_OPERATIONNBR</From></Assign></IncomingLinks><OutgoingLinks/></Action></Actions></Step></Steps><Actions><Action><Name>Conditional_Ready_PartUnloaded</Name><Description> Local.PCO_OPERATIONNBR == "Ready" &amp;&amp; Local.PCO_MESSAGE == "PartUnloaded"</Description><IncomingLinks><Assign xsi:type="Assign"><Name/><Description/><To>Conditional_Ready_PartUnloaded.Input1</To><From>Local.PCO_OPERATIONNBR == "Ready"</From></Assign><Assign xsi:type="Assign"><Name/><Description/><To>Conditional_Ready_PartUnloaded.Input2</To><From>Local.PCO_MESSAGE == "PartUnloaded"</From></Assign></IncomingLinks><OutgoingLinks/></Action></Actions></Step></Steps><Actions><Action><Name>SetPcoLogSQ_0</Name><Description>SQL Query</Description><IncomingLinks><Assign xsi:type="Assign"><Name/><Description/><To>SetPcoLogSQ_0.Param.1</To><From>Local.IDREP</From></Assign><Assign xsi:type="Assign"><Name/><Description/><To>SetPcoLogSQ_0.Param.2</To><From>Local.PCO_LINEID</From></Assign><Assign xsi:type="Assign"><Name/><Description/><To>SetPcoLogSQ_0.Param.4</To><From>Local.date_now</From></Assign><Assign xsi:type="Assign"><Name/><Description/><To>SetPcoLogSQ_0.Param.6</To><From>Local.FileBackup</From></Assign><Assign xsi:type="Assign"><Name/><Description/><To>SetPcoLogSQ_0.Param.7</To><From>1</From></Assign><Assign xsi:type="Assign"><Name/><Description/><To>SetPcoLogSQ_0.Param.9</To><From>Local.IDPLANT</From></Assign><Assign xsi:type="Assign"><Name/><Description/><To>SetPcoLogSQ_0.Param.10</To><From>Local.IDMACH</From></Assign><Assign xsi:type="Assign"><Name/><Description/><To>SetPcoLogSQ_0.Param.3</To><From>Transaction.InputParams{/NotificationMessage/Body/Values/IDSLD}</From></Assign></IncomingLinks><OutgoingLinks/></Action></Actions></Step><Step xsi:type="ActionSequence"><Name>Sequence_4</Name><Description/><Steps/><Actions/></Step></Steps><Actions><Action><Name>Conditional_MACHINE</Name><Description>Se trovo 1 MACCHINA collegata alla LINEA selezionata</Description><IncomingLinks><Assign xsi:type="Assign"><Name/><Description/><To>Conditional_MACHINE.Input1</To><From>Local.IDMACH != ""</From></Assign></IncomingLinks><OutgoingLinks/></Action></Actions></Step></Steps><Actions><Action><Name>Get_Machine_PCO_HELLERFP6000</Name><Description>Machine TYPE
PCO-HELLERFP6000</Description><IncomingLinks><Assign xsi:type="Assign"><Name/><Description/><To>Get_Machine_PCO_HELLERFP6000.Query</To><From>" SELECT MMACHINE.IDLINE," &amp;
       " MMACHINE.IDMACH," &amp;
       " MLINES.IDREP," &amp;
       " MDEPART.PLANT" &amp;
  " FROM MMACHINE" &amp;
  " JOIN MLINES ON MLINES.IDLINE = MMACHINE.IDLINE" &amp;
  " JOIN MDEPART ON MDEPART.IDREP = MLINES.IDREP" &amp;
 " WHERE MMACHINE.IDLINE = '" &amp; Local.PCO_LINEID &amp; "' " &amp;
   " AND (MMACHINE.TYPE = 'PCO-HELLERFP6000' )
ORDER BY IDMACH DESC
LIMIT 1"</From></Assign></IncomingLinks><OutgoingLinks><Assign xsi:type="Assign"><Name/><Description/><To>Local.IDMACH</To><From>Get_Machine_PCO_HELLERFP6000.Results{/Rowsets/Rowset/Row/IDMACH}</From></Assign><Assign xsi:type="Assign"><Name/><Description/><To>Local.IDREP</To><From>Get_Machine_PCO_HELLERFP6000.Results{/Rowsets/Rowset/Row/IDREP}</From></Assign><Assign xsi:type="Assign"><Name/><Description/><To>Local.IDPLANT</To><From>Get_Machine_PCO_HELLERFP6000.Results{/Rowsets/Rowset/Row/PLANT}</From></Assign></OutgoingLinks></Action><Action><Name>Tracer_MACCHINA</Name><Description> </Description><IncomingLinks><Assign xsi:type="Assign"><Name/><Description/><To>Tracer_MACCHINA.Message</To><From>"IDMACH : " &amp; " " &amp; Local.IDMACH &amp; "\r\n" &amp; " " &amp;
"IDREP : " &amp; " " &amp;  Local.IDREP &amp; "\r\n" &amp; " " &amp;
"IDPLANT : " &amp; " " &amp; Local.IDPLANT &amp; "\r\n" </From></Assign></IncomingLinks><OutgoingLinks/></Action></Actions></Step></Steps><Actions><Action><Name>Assignment_XML_CONTENT</Name><Description>poter leggere i dati passati da PCO:
 ASSIGN_VALUE da inputparams transaction a local XML per </Description><IncomingLinks/><OutgoingLinks><Assign xsi:type="Assign"><Name/><Description/><To>Local.xml_content</To><From>Transaction.InputParams{/NotificationMessage/Body/Values/FileContent}</From></Assign></OutgoingLinks></Action><Action><Name>Assignment_FIELDS</Name><Description> </Description><IncomingLinks/><OutgoingLinks><Assign xsi:type="Assign"><Name/><Description/><To>Local.PCO_OPERATIONNBR</To><From>Local.xml_content{/ManufacturedArticle/OperationNbr}</From></Assign><Assign xsi:type="Assign"><Name/><Description/><To>Local.PCO_MESSAGE</To><From>Local.xml_content{/ManufacturedArticle/Message}</From></Assign><Assign xsi:type="Assign"><Name/><Description/><To>Local.PCO_AMOUNT</To><From>Local.xml_content{/ManufacturedArticle/Amount}</From></Assign><Assign xsi:type="Assign"><Name/><Description/><To>Local.PCO_LINEID</To><From>Transaction.InputParams{/NotificationMessage/Body/Values/ID_LINE}</From></Assign><Assign xsi:type="Assign"><Name/><Description/><To>Local.FileBackup</To><From>stringreplace(Transaction.InputParams{/NotificationMessage/Body/Values/FileNewName}, "\\", "\\\\" )</From></Assign><Assign xsi:type="Assign"><Name/><Description/><To>Local.date_filename</To><From>stringpart(stringtrim(stringreplace(stringright(Transaction.InputParams{/NotificationMessage/Body/Values/FileOriginalName}, 18 ), ".xml", "")), 1, 4) &amp; "-" &amp; stringpart(stringtrim(stringreplace(stringright(Transaction.InputParams{/NotificationMessage/Body/Values/FileOriginalName}, 18 ), ".xml", "")), 5, 2) &amp; "-" &amp; stringpart(stringtrim(stringreplace(stringright(Transaction.InputParams{/NotificationMessage/Body/Values/FileOriginalName}, 18 ), ".xml", "")), 7, 2) &amp; "T" &amp; stringpart(stringtrim(stringreplace(stringright(Transaction.InputParams{/NotificationMessage/Body/Values/FileOriginalName}, 18 ), ".xml", "")), 9, 2) &amp; ":" &amp;
stringpart(stringtrim(stringreplace(stringright(Transaction.InputParams{/NotificationMessage/Body/Values/FileOriginalName}, 18 ), ".xml", "")), 11, 2) &amp; ":" &amp;
stringpart(stringtrim(stringreplace(stringright(Transaction.InputParams{/NotificationMessage/Body/Values/FileOriginalName}, 18 ), ".xml", "")), 13, 2)</From></Assign><Assign xsi:type="Assign"><Name/><Description/><To>Local.date_filename_formatted</To><From>stringpart(stringtrim(stringreplace(stringright(Transaction.InputParams{/NotificationMessage/Body/Values/FileOriginalName}, 18 ), ".xml", "")), 1, 4) &amp; "-" &amp; stringpart(stringtrim(stringreplace(stringright(Transaction.InputParams{/NotificationMessage/Body/Values/FileOriginalName}, 18 ), ".xml", "")), 5, 2) &amp; "-" &amp; stringpart(stringtrim(stringreplace(stringright(Transaction.InputParams{/NotificationMessage/Body/Values/FileOriginalName}, 18 ), ".xml", "")), 7, 2) &amp; " " &amp; stringpart(stringtrim(stringreplace(stringright(Transaction.InputParams{/NotificationMessage/Body/Values/FileOriginalName}, 18 ), ".xml", "")), 9, 2) &amp; ":" &amp;
stringpart(stringtrim(stringreplace(stringright(Transaction.InputParams{/NotificationMessage/Body/Values/FileOriginalName}, 18 ), ".xml", "")), 11, 2) &amp; ":" &amp;
stringpart(stringtrim(stringreplace(stringright(Transaction.InputParams{/NotificationMessage/Body/Values/FileOriginalName}, 18 ), ".xml", "")), 13, 2)</From></Assign><Assign xsi:type="Assign"><Name/><Description/><To>Local.date_now</To><From>datenow</From></Assign><Assign xsi:type="Assign"><Name/><Description/><To>Local.PCO_ITEMID</To><From>Local.xml_content{/ManufacturedArticle/ItemId}</From></Assign><Assign xsi:type="Assign"><Name/><Description/><To>Local.PCO_ORDERNBR</To><From>Local.xml_content{/ManufacturedArticle/OrderNbr}</From></Assign></OutgoingLinks></Action><Action><Name>Tracer_FIELDS</Name><Description> </Description><IncomingLinks><Assign xsi:type="Assign"><Name/><Description/><To>Tracer_FIELDS.Message</To><From>"LINEA : " &amp; Local.PCO_LINEID &amp; "\r\n" &amp;
"MATERIAL : " &amp; Local.PCO_ITEMID &amp; "\r\n" &amp;
"ORDER : " &amp; Local.PCO_ORDERNBR &amp; "\r\n" &amp;
"AMOUNT : " &amp; Local.PCO_AMOUNT &amp; "\r\n" &amp;
"MESSAGE : " &amp; Local.PCO_MESSAGE &amp; "\r\n" &amp;
"OPERATIONNBR : " &amp; Local.PCO_OPERATIONNBR &amp; "\r\n" &amp;
"date_now : " &amp; Local.date_now &amp; "\r\n" &amp;
"FileBackup : " &amp; Local.FileBackup &amp; "\r\n" &amp;
"date_filename : " &amp; Local.date_filename &amp; "\r\n" 

</From></Assign></IncomingLinks><OutgoingLinks/></Action></Actions></Step></Steps></Transaction>