<?xml version="1.0" encoding="UTF-8"?><Transaction xmlns:xsd="http://www.w3.org/2001/XMLSchema" xmlns:xsi="http://www.w3.org/2001/XMLSchema-instance" Version="15.1.2.14"><TransactionAttributes><ContextItem><Name>AutoAppendBlankNamespaces</Name><Description>AutoAppendBlankNamespaces</Description><MinRange>0</MinRange><MaxRange>0</MaxRange><Value xsi:type="boolean">1</Value><ReadOnly>true</ReadOnly><AlertXMLAssigned>false</AlertXMLAssigned></ContextItem><ContextItem><Name>Category</Name><Description>Transaction Category</Description><MinRange>0</MinRange><MaxRange>0</MaxRange><Value xsi:type="string"/><ReadOnly>true</ReadOnly><AlertXMLAssigned>false</AlertXMLAssigned></ContextItem><ContextItem><Name>Comments</Name><Description>User Comments</Description><MinRange>0</MinRange><MaxRange>0</MaxRange><Value xsi:type="string"/><ReadOnly>true</ReadOnly><AlertXMLAssigned>false</AlertXMLAssigned></ContextItem><ContextItem><Name>CreatedBy</Name><Description>Created By</Description><MinRange>0</MinRange><MaxRange>0</MaxRange><Value xsi:type="string">it-adaluc</Value><ReadOnly>true</ReadOnly><AlertXMLAssigned>false</AlertXMLAssigned></ContextItem><ContextItem><Name>CreationDate</Name><Description>Creation Date</Description><MinRange>0</MinRange><MaxRange>0</MaxRange><Value xsi:type="dateTime">2017-05-22T14:00:07</Value><ReadOnly>true</ReadOnly><AlertXMLAssigned>false</AlertXMLAssigned></ContextItem><ContextItem><Name>Description</Name><Description>Transaction Description</Description><MinRange>0</MinRange><MaxRange>0</MaxRange><Value xsi:type="string"/><ReadOnly>true</ReadOnly><AlertXMLAssigned>false</AlertXMLAssigned></ContextItem><ContextItem><Name>FormatXMLOnConversion</Name><Description>By default XML will be formatted when assigned from XML data type to String data type. This behaviour can be changed with this flag.</Description><MinRange>0</MinRange><MaxRange>0</MaxRange><Value xsi:type="boolean">1</Value><ReadOnly>true</ReadOnly><AlertXMLAssigned>false</AlertXMLAssigned></ContextItem><ContextItem><Name>LastEditedBy</Name><Description>Last Edited By</Description><MinRange>0</MinRange><MaxRange>0</MaxRange><Value xsi:type="xsd:string">it-decgui</Value><ReadOnly>true</ReadOnly><AlertXMLAssigned>false</AlertXMLAssigned></ContextItem><ContextItem><Name>LastEditedDate</Name><Description>Last Edited Date</Description><MinRange>0</MinRange><MaxRange>0</MaxRange><Value xsi:type="xsd:dateTime">2017-09-13T16:27:34</Value><ReadOnly>true</ReadOnly><AlertXMLAssigned>false</AlertXMLAssigned></ContextItem><ContextItem><Name>LegacyProcessingMode</Name><Description>Support the pre MII 12.1 Transaction Engine.</Description><MinRange>0</MinRange><MaxRange>0</MaxRange><Value xsi:type="boolean">0</Value><ReadOnly>true</ReadOnly><AlertXMLAssigned>false</AlertXMLAssigned></ContextItem><ContextItem><Name>Status</Name><Description>Deployment Status</Description><MinRange>0</MinRange><MaxRange>0</MaxRange><Value xsi:type="string">DEVELOPMENT</Value><ReadOnly>true</ReadOnly><AlertXMLAssigned>false</AlertXMLAssigned></ContextItem><ContextItem><Name>ThrowOnActionError</Name><Description>Throws an exception when an action error occurs</Description><MinRange>0</MinRange><MaxRange>0</MaxRange><Value xsi:type="boolean">1</Value><ReadOnly>true</ReadOnly><AlertXMLAssigned>false</AlertXMLAssigned></ContextItem><ContextItem><Name>ThrowOnLinkError</Name><Description>Throws an exception when a link error occures</Description><MinRange>0</MinRange><MaxRange>0</MaxRange><Value xsi:type="boolean">1</Value><ReadOnly>true</ReadOnly><AlertXMLAssigned>false</AlertXMLAssigned></ContextItem></TransactionAttributes><Name>ProductionMain/DataLoad/PCo/FMB/SIR/ParseSirFileTR</Name><Version>422</Version><WriterRoles>SAP_XMII_Super_Administrator,SAP_XMII_Administrator,SAP_XMII_Developer</WriterRoles><Context><ContextItem><Name>data_in</Name><Description>XML con i dati in entrata</Description><MinRange>0</MinRange><MaxRange>0</MaxRange><Value xsi:type="xml"><ReferenceDocumentSource/>&lt;?xml version="1.0" encoding="UTF-8"?&gt;&lt;Rowsets&gt;&#13;
    &lt;Rowset&gt;&#13;
        &lt;Columns&gt;&#13;
            &lt;Column Description="PLANT" MaxRange="0" MinRange="0" Name="PLANT" SQLDataType="1" SourceColumn="PLANT"/&gt;&#13;
            &lt;Column Description="IDREP" MaxRange="0" MinRange="0" Name="IDREP" SQLDataType="1" SourceColumn="IDREP"/&gt;&#13;
            &lt;Column Description="IDLINE" MaxRange="0" MinRange="0" Name="IDLINE" SQLDataType="1" SourceColumn="IDLINE"/&gt;&#13;
            &lt;Column Description="IDMACH" MaxRange="0" MinRange="0" Name="IDMACH" SQLDataType="1" SourceColumn="IDMACH"/&gt;&#13;
            &lt;Column Description="MAT_PREFIX" MaxRange="0" MinRange="0" Name="MAT_PREFIX" SQLDataType="1" SourceColumn="MAT_PREFIX"/&gt;&#13;
            &lt;Column Description="CODICE_PEZZO" MaxRange="0" MinRange="0" Name="CODICE_PEZZO" SQLDataType="1" SourceColumn="CODICE_PEZZO"/&gt;&#13;
            &lt;Column Description="DATA_E_ORA_INGRESSO" MaxRange="0" MinRange="0" Name="DATA_E_ORA_INGRESSO" SQLDataType="1" SourceColumn="DATA_E_ORA_INGRESSO"/&gt;&#13;
            &lt;Column Description="DATA_E_ORA_USCITA" MaxRange="0" MinRange="0" Name="DATA_E_ORA_USCITA" SQLDataType="1" SourceColumn="DATA_E_ORA_USCITA"/&gt;&#13;
            &lt;Column Description="ESITO_GLOBALE" MaxRange="0" MinRange="0" Name="ESITO_GLOBALE" SQLDataType="1" SourceColumn="ESITO_GLOBALE"/&gt;&#13;
            &lt;Column Description="ESITO_CONTROLLO_PLANARITA" MaxRange="0" MinRange="0" Name="ESITO_CONTROLLO_PLANARITA" SQLDataType="1" SourceColumn="ESITO_CONTROLLO_PLANARITA"/&gt;&#13;
            &lt;Column Description="ESITO_TAGLIO_R1" MaxRange="0" MinRange="0" Name="ESITO_TAGLIO_R1" SQLDataType="1" SourceColumn="ESITO_TAGLIO_R1"/&gt;&#13;
            &lt;Column Description="ESITO_TAGLIO_R2" MaxRange="0" MinRange="0" Name="ESITO_TAGLIO_R2" SQLDataType="1" SourceColumn="ESITO_TAGLIO_R2"/&gt;&#13;
            &lt;Column Description="ESITO_TAGLIO_R3" MaxRange="0" MinRange="0" Name="ESITO_TAGLIO_R3" SQLDataType="1" SourceColumn="ESITO_TAGLIO_R3"/&gt;&#13;
        &lt;/Columns&gt;&#13;
        &lt;Row&gt;&#13;
            &lt;PLANT&gt;4101&lt;/PLANT&gt;&#13;
            &lt;IDREP&gt;FM&lt;/IDREP&gt;&#13;
            &lt;IDLINE&gt;SIR1&lt;/IDLINE&gt;&#13;
            &lt;IDMACH&gt;SIR1-PCO&lt;/IDMACH&gt;&#13;
            &lt;MAT_PREFIX&gt;L10&lt;/MAT_PREFIX&gt;&#13;
            &lt;CODICE_PEZZO&gt;FA00ADA8941105613517F01334&lt;/CODICE_PEZZO&gt;&#13;
            &lt;DATA_E_ORA_INGRESSO&gt;15/5/17  23:57:58&lt;/DATA_E_ORA_INGRESSO&gt;&#13;
            &lt;DATA_E_ORA_USCITA&gt;16/5/17  0:7:57&lt;/DATA_E_ORA_USCITA&gt;&#13;
            &lt;ESITO_GLOBALE&gt;Buono&lt;/ESITO_GLOBALE&gt;&#13;
            &lt;ESITO_CONTROLLO_PLANARITA&gt;Non Verificato&lt;/ESITO_CONTROLLO_PLANARITA&gt;&#13;
            &lt;ESITO_TAGLIO_R1&gt;Non Verificato&lt;/ESITO_TAGLIO_R1&gt;&#13;
            &lt;ESITO_TAGLIO_R2&gt;Non Verificato&lt;/ESITO_TAGLIO_R2&gt;&#13;
            &lt;ESITO_TAGLIO_R3&gt;Non Verificato&lt;/ESITO_TAGLIO_R3&gt;&#13;
        &lt;/Row&gt;&#13;
        &lt;Row&gt;&#13;
            &lt;PLANT&gt;4101&lt;/PLANT&gt;&#13;
            &lt;IDREP&gt;FM&lt;/IDREP&gt;&#13;
            &lt;IDLINE&gt;SIR1&lt;/IDLINE&gt;&#13;
            &lt;IDMACH&gt;SIR1-PCO&lt;/IDMACH&gt;&#13;
            &lt;MAT_PREFIX&gt;L10&lt;/MAT_PREFIX&gt;&#13;
            &lt;CODICE_PEZZO&gt;FA00ADA8941005613517F01334&lt;/CODICE_PEZZO&gt;&#13;
            &lt;DATA_E_ORA_INGRESSO&gt;15/5/17  23:58:58&lt;/DATA_E_ORA_INGRESSO&gt;&#13;
            &lt;DATA_E_ORA_USCITA&gt;16/5/17  0:7:57&lt;/DATA_E_ORA_USCITA&gt;&#13;
            &lt;ESITO_GLOBALE&gt;Buono&lt;/ESITO_GLOBALE&gt;&#13;
            &lt;ESITO_CONTROLLO_PLANARITA&gt;Non Verificato&lt;/ESITO_CONTROLLO_PLANARITA&gt;&#13;
            &lt;ESITO_TAGLIO_R1&gt;Non Verificato&lt;/ESITO_TAGLIO_R1&gt;&#13;
            &lt;ESITO_TAGLIO_R2&gt;Non Verificato&lt;/ESITO_TAGLIO_R2&gt;&#13;
            &lt;ESITO_TAGLIO_R3&gt;Non Verificato&lt;/ESITO_TAGLIO_R3&gt;&#13;
        &lt;/Row&gt;&#13;
        &lt;Row&gt;&#13;
            &lt;PLANT&gt;4101&lt;/PLANT&gt;&#13;
            &lt;IDREP&gt;FM&lt;/IDREP&gt;&#13;
            &lt;IDLINE&gt;SIR1&lt;/IDLINE&gt;&#13;
            &lt;IDMACH&gt;SIR1-PCO&lt;/IDMACH&gt;&#13;
            &lt;MAT_PREFIX&gt;L10&lt;/MAT_PREFIX&gt;&#13;
            &lt;CODICE_PEZZO&gt;FA00ADA8941105613517F01333&lt;/CODICE_PEZZO&gt;&#13;
            &lt;DATA_E_ORA_INGRESSO&gt;16/5/17  0:0:19&lt;/DATA_E_ORA_INGRESSO&gt;&#13;
            &lt;DATA_E_ORA_USCITA&gt;16/5/17  0:10:6&lt;/DATA_E_ORA_USCITA&gt;&#13;
            &lt;ESITO_GLOBALE&gt;Buono&lt;/ESITO_GLOBALE&gt;&#13;
            &lt;ESITO_CONTROLLO_PLANARITA&gt;Non Verificato&lt;/ESITO_CONTROLLO_PLANARITA&gt;&#13;
            &lt;ESITO_TAGLIO_R1&gt;Non Verificato&lt;/ESITO_TAGLIO_R1&gt;&#13;
            &lt;ESITO_TAGLIO_R2&gt;Non Verificato&lt;/ESITO_TAGLIO_R2&gt;&#13;
            &lt;ESITO_TAGLIO_R3&gt;Non Verificato&lt;/ESITO_TAGLIO_R3&gt;&#13;
        &lt;/Row&gt;&#13;
        &lt;Row&gt;&#13;
            &lt;PLANT&gt;4101&lt;/PLANT&gt;&#13;
            &lt;IDREP&gt;FM&lt;/IDREP&gt;&#13;
            &lt;IDLINE&gt;SIR1&lt;/IDLINE&gt;&#13;
            &lt;IDMACH&gt;SIR1-PCO&lt;/IDMACH&gt;&#13;
            &lt;MAT_PREFIX&gt;L10&lt;/MAT_PREFIX&gt;&#13;
            &lt;CODICE_PEZZO&gt;FA00ADA8941005613517F01333&lt;/CODICE_PEZZO&gt;&#13;
            &lt;DATA_E_ORA_INGRESSO&gt;16/5/17  0:0:29&lt;/DATA_E_ORA_INGRESSO&gt;&#13;
            &lt;DATA_E_ORA_USCITA&gt;16/5/17  0:10:6&lt;/DATA_E_ORA_USCITA&gt;&#13;
            &lt;ESITO_GLOBALE&gt;Buono&lt;/ESITO_GLOBALE&gt;&#13;
            &lt;ESITO_CONTROLLO_PLANARITA&gt;Non Verificato&lt;/ESITO_CONTROLLO_PLANARITA&gt;&#13;
            &lt;ESITO_TAGLIO_R1&gt;Non Verificato&lt;/ESITO_TAGLIO_R1&gt;&#13;
            &lt;ESITO_TAGLIO_R2&gt;Non Verificato&lt;/ESITO_TAGLIO_R2&gt;&#13;
            &lt;ESITO_TAGLIO_R3&gt;Non Verificato&lt;/ESITO_TAGLIO_R3&gt;&#13;
        &lt;/Row&gt;&#13;
    &lt;/Rowset&gt;&#13;
&lt;/Rowsets&gt;</Value><SchemaURI/><SchemaElement/><ValidateXMLOnExecution>0</ValidateXMLOnExecution><ReadOnly>false</ReadOnly><AlertXMLAssigned>false</AlertXMLAssigned></ContextItem><ContextItem><Name>data_out</Name><Description>XML con i dati in uscita</Description><MinRange>0</MinRange><MaxRange>0</MaxRange><Value xsi:type="xml"><ReferenceDocumentSource/></Value><SchemaURI/><SchemaElement/><ValidateXMLOnExecution>1</ValidateXMLOnExecution><ReadOnly>true</ReadOnly><AlertXMLAssigned>false</AlertXMLAssigned></ContextItem><ContextItem><Name>Log</Name><Description>Visualizza log (con i trace)</Description><MinRange>0</MinRange><MaxRange>0</MaxRange><Value xsi:type="boolean">0</Value><ReadOnly>false</ReadOnly><AlertXMLAssigned>false</AlertXMLAssigned></ContextItem></Context><Local><ContextItem><Name>Data_e_Ora_Ingresso</Name><Description>Data e ora di ingresso</Description><MinRange>0</MinRange><MaxRange>0</MaxRange><Value xsi:type="string"/><ReadOnly>false</ReadOnly><AlertXMLAssigned>false</AlertXMLAssigned></ContextItem><ContextItem><Name>Data_e_Ora_Uscita</Name><Description>Data e Ora Uscita</Description><MinRange>0</MinRange><MaxRange>0</MaxRange><Value xsi:type="string"/><ReadOnly>false</ReadOnly><AlertXMLAssigned>false</AlertXMLAssigned></ContextItem><ContextItem><Name>material</Name><Description>Codice materiale</Description><MinRange>0</MinRange><MaxRange>0</MaxRange><Value xsi:type="string"/><ReadOnly>false</ReadOnly><AlertXMLAssigned>false</AlertXMLAssigned></ContextItem><ContextItem><Name>PEZZI_PRODOTTI</Name><Description>Pezzi prodotti</Description><MinRange>0</MinRange><MaxRange>0</MaxRange><Value xsi:type="string"/><ReadOnly>false</ReadOnly><AlertXMLAssigned>false</AlertXMLAssigned></ContextItem><ContextItem><Name>PEZZI_SCARTATI</Name><Description>Pezzi scartati</Description><MinRange>0</MinRange><MaxRange>0</MaxRange><Value xsi:type="string"/><ReadOnly>false</ReadOnly><AlertXMLAssigned>false</AlertXMLAssigned></ContextItem><ContextItem><Name>STATO_MACCHINA</Name><Description>Stato Macchina</Description><MinRange>0</MinRange><MaxRange>0</MaxRange><Value xsi:type="string"/><ReadOnly>false</ReadOnly><AlertXMLAssigned>false</AlertXMLAssigned></ContextItem><ContextItem><Name>strlen</Name><Description>Lunghezza stringa</Description><MinRange>0</MinRange><MaxRange>0</MaxRange><Value xsi:type="string"/><ReadOnly>false</ReadOnly><AlertXMLAssigned>false</AlertXMLAssigned></ContextItem><ContextItem><Name>table</Name><Description>Tabella dei dati</Description><MinRange>0</MinRange><MaxRange>0</MaxRange><Value xsi:type="xml"><ReferenceDocumentSource/></Value><SchemaURI/><SchemaElement/><ValidateXMLOnExecution>1</ValidateXMLOnExecution><ReadOnly>false</ReadOnly><AlertXMLAssigned>false</AlertXMLAssigned></ContextItem></Local><Layout><GUILayoutItem><Name>Sequenza_0</Name><X>296</X><Y>8</Y><Width>120</Width><SpacingWidth>696</SpacingWidth><DescendantWidth>696</DescendantWidth><Height>96</Height></GUILayoutItem><GUILayoutItem><Name>Ciclo_data_in_0</Name><X>80</X><Y>144</Y><Width>120</Width><SpacingWidth>264</SpacingWidth><DescendantWidth>264</DescendantWidth><Height>96</Height></GUILayoutItem><GUILayoutItem><Name>Repeater_0</Name><X>88</X><Y>160</Y><Width>104</Width><SpacingWidth>0</SpacingWidth><DescendantWidth>0</DescendantWidth><Height>72</Height></GUILayoutItem><GUILayoutItem><Name>Seq_ParseAddValPrecTR_0</Name><X>296</X><Y>280</Y><Width>120</Width><SpacingWidth>120</SpacingWidth><DescendantWidth>0</DescendantWidth><Height>96</Height></GUILayoutItem><GUILayoutItem><Name>Document_0</Name><X>304</X><Y>24</Y><Width>104</Width><SpacingWidth>0</SpacingWidth><DescendantWidth>0</DescendantWidth><Height>72</Height></GUILayoutItem><GUILayoutItem><Name>Sequenza_2</Name><X>296</X><Y>144</Y><Width>120</Width><SpacingWidth>120</SpacingWidth><DescendantWidth>120</DescendantWidth><Height>96</Height></GUILayoutItem><GUILayoutItem><Name>Conditional_0</Name><X>304</X><Y>160</Y><Width>104</Width><SpacingWidth>0</SpacingWidth><DescendantWidth>0</DescendantWidth><Height>72</Height></GUILayoutItem><GUILayoutItem><Name>Sequenza_3</Name><X>20</X><Y>416</Y><Width>240</Width><SpacingWidth>264</SpacingWidth><DescendantWidth>264</DescendantWidth><Height>96</Height></GUILayoutItem><GUILayoutItem><Name>FormatDateTR_IN</Name><X>28</X><Y>432</Y><Width>104</Width><SpacingWidth>0</SpacingWidth><DescendantWidth>0</DescendantWidth><Height>72</Height></GUILayoutItem><GUILayoutItem><Name>FormatDateTR_OUT</Name><X>148</X><Y>432</Y><Width>104</Width><SpacingWidth>0</SpacingWidth><DescendantWidth>0</DescendantWidth><Height>72</Height></GUILayoutItem><GUILayoutItem><Name>Sequenza_1</Name><X>440</X><Y>280</Y><Width>120</Width><SpacingWidth>120</SpacingWidth><DescendantWidth>0</DescendantWidth><Height>96</Height></GUILayoutItem><GUILayoutItem><Name>Tracer_1</Name><X>448</X><Y>296</Y><Width>104</Width><SpacingWidth>0</SpacingWidth><DescendantWidth>0</DescendantWidth><Height>72</Height></GUILayoutItem><GUILayoutItem><Name>Sequenza_5</Name><X>440</X><Y>144</Y><Width>120</Width><SpacingWidth>120</SpacingWidth><DescendantWidth>120</DescendantWidth><Height>96</Height></GUILayoutItem><GUILayoutItem><Name>Conditional_1</Name><X>448</X><Y>160</Y><Width>104</Width><SpacingWidth>0</SpacingWidth><DescendantWidth>0</DescendantWidth><Height>72</Height></GUILayoutItem><GUILayoutItem><Name>Val_record_INPUT</Name><X>152</X><Y>552</Y><Width>120</Width><SpacingWidth>120</SpacingWidth><DescendantWidth>120</DescendantWidth><Height>96</Height></GUILayoutItem><GUILayoutItem><Name>Row_1</Name><X>160</X><Y>568</Y><Width>104</Width><SpacingWidth>0</SpacingWidth><DescendantWidth>0</DescendantWidth><Height>72</Height></GUILayoutItem><GUILayoutItem><Name>Sequenza_13</Name><X>584</X><Y>144</Y><Width>120</Width><SpacingWidth>120</SpacingWidth><DescendantWidth>0</DescendantWidth><Height>96</Height></GUILayoutItem><GUILayoutItem><Name>Assignment_4</Name><X>592</X><Y>160</Y><Width>104</Width><SpacingWidth>0</SpacingWidth><DescendantWidth>0</DescendantWidth><Height>72</Height></GUILayoutItem><GUILayoutItem><Name>Sequenza_14</Name><X>8</X><Y>552</Y><Width>120</Width><SpacingWidth>120</SpacingWidth><DescendantWidth>0</DescendantWidth><Height>96</Height></GUILayoutItem><GUILayoutItem><Name>ParseCodPezzoTR_0</Name><X>16</X><Y>568</Y><Width>104</Width><SpacingWidth>0</SpacingWidth><DescendantWidth>0</DescendantWidth><Height>72</Height></GUILayoutItem><GUILayoutItem><Name>Val_record_OUTPUT</Name><X>152</X><Y>688</Y><Width>120</Width><SpacingWidth>120</SpacingWidth><DescendantWidth>0</DescendantWidth><Height>96</Height></GUILayoutItem><GUILayoutItem><Name>Row_2</Name><X>160</X><Y>704</Y><Width>104</Width><SpacingWidth>0</SpacingWidth><DescendantWidth>0</DescendantWidth><Height>72</Height></GUILayoutItem><GUILayoutItem><Name>Sequenza_6</Name><X>80</X><Y>280</Y><Width>120</Width><SpacingWidth>264</SpacingWidth><DescendantWidth>264</DescendantWidth><Height>96</Height></GUILayoutItem><GUILayoutItem><Name>Assignment_0</Name><X>88</X><Y>296</Y><Width>104</Width><SpacingWidth>0</SpacingWidth><DescendantWidth>0</DescendantWidth><Height>72</Height></GUILayoutItem></Layout><Actions><ContextItem><Name>Repeater_0</Name><Description/><MinRange>0</MinRange><MaxRange>0</MaxRange><Value xsi:type="RepeaterAction"><Output><ReferenceDocumentSource/>&lt;?xml version="1.0" encoding="UTF-8"?&gt;&lt;Row&gt;&#13;
            &lt;PLANT&gt;4101&lt;/PLANT&gt;&#13;
            &lt;IDREP&gt;FM&lt;/IDREP&gt;&#13;
            &lt;IDLINE&gt;SIR1&lt;/IDLINE&gt;&#13;
            &lt;IDMACH&gt;SIR1-PCO&lt;/IDMACH&gt;&#13;
            &lt;MAT_PREFIX&gt;L10&lt;/MAT_PREFIX&gt;&#13;
            &lt;CODICE_PEZZO&gt;FA00ADA8941105613517F01334&lt;/CODICE_PEZZO&gt;&#13;
            &lt;DATA_E_ORA_INGRESSO&gt;15/5/17  23:57:58&lt;/DATA_E_ORA_INGRESSO&gt;&#13;
            &lt;DATA_E_ORA_USCITA&gt;16/5/17  0:7:57&lt;/DATA_E_ORA_USCITA&gt;&#13;
            &lt;ESITO_GLOBALE&gt;Buono&lt;/ESITO_GLOBALE&gt;&#13;
            &lt;ESITO_CONTROLLO_PLANARITA&gt;Non Verificato&lt;/ESITO_CONTROLLO_PLANARITA&gt;&#13;
            &lt;ESITO_TAGLIO_R1&gt;Non Verificato&lt;/ESITO_TAGLIO_R1&gt;&#13;
            &lt;ESITO_TAGLIO_R2&gt;Non Verificato&lt;/ESITO_TAGLIO_R2&gt;&#13;
            &lt;ESITO_TAGLIO_R3&gt;Non Verificato&lt;/ESITO_TAGLIO_R3&gt;&#13;
        &lt;/Row&gt;</Output><Break>false</Break><ItemCount>0</ItemCount><CurrentItem>0</CurrentItem><Source>Transaction.data_in{/Rowsets/Rowset/Row}</Source><Item><ReferenceDocumentSource/>&lt;?xml version="1.0" encoding="UTF-8"?&gt;&lt;Row&gt;&#13;
            &lt;PLANT&gt;4101&lt;/PLANT&gt;&#13;
            &lt;IDREP&gt;FM&lt;/IDREP&gt;&#13;
            &lt;IDLINE&gt;SIR1&lt;/IDLINE&gt;&#13;
            &lt;IDMACH&gt;SIR1-PCO&lt;/IDMACH&gt;&#13;
            &lt;MAT_PREFIX&gt;L10&lt;/MAT_PREFIX&gt;&#13;
            &lt;CODICE_PEZZO&gt;FA00ADA8941105613517F01334&lt;/CODICE_PEZZO&gt;&#13;
            &lt;DATA_E_ORA_INGRESSO&gt;15/5/17  23:57:58&lt;/DATA_E_ORA_INGRESSO&gt;&#13;
            &lt;DATA_E_ORA_USCITA&gt;16/5/17  0:7:57&lt;/DATA_E_ORA_USCITA&gt;&#13;
            &lt;ESITO_GLOBALE&gt;Buono&lt;/ESITO_GLOBALE&gt;&#13;
            &lt;ESITO_CONTROLLO_PLANARITA&gt;Non Verificato&lt;/ESITO_CONTROLLO_PLANARITA&gt;&#13;
            &lt;ESITO_TAGLIO_R1&gt;Non Verificato&lt;/ESITO_TAGLIO_R1&gt;&#13;
            &lt;ESITO_TAGLIO_R2&gt;Non Verificato&lt;/ESITO_TAGLIO_R2&gt;&#13;
            &lt;ESITO_TAGLIO_R3&gt;Non Verificato&lt;/ESITO_TAGLIO_R3&gt;&#13;
        &lt;/Row&gt;</Item></Value><SchemaURI/><SchemaElement/><ValidateXMLOnExecution>1</ValidateXMLOnExecution><SchemaURI/><SchemaElement/><ValidateXMLOnExecution>1</ValidateXMLOnExecution><ReadOnly>false</ReadOnly><AlertXMLAssigned>false</AlertXMLAssigned></ContextItem><ContextItem><Name>Document_0</Name><Description/><MinRange>0</MinRange><MaxRange>0</MaxRange><Value xsi:type="IlluminatorDocument"><Output><ReferenceDocumentSource/>&lt;?xml version="1.0" encoding="UTF-8"?&gt;&lt;Rowsets DateCreated="2017-09-13T16:24:25" EndDate="2017-06-15T12:17:08" StartDate="2017-06-15T12:17:08" Version="15.1 SP2 Patch 14"&gt;&lt;Rowset&gt;&lt;Columns&gt;&lt;Column Description="Divisione" MaxRange="1" MinRange="0" Name="PLANT" SQLDataType="1" SourceColumn="PLANT"/&gt;&lt;Column Description="Reparto" MaxRange="1" MinRange="0" Name="IDREP" SQLDataType="1" SourceColumn="IDREP"/&gt;&lt;Column Description="Linea" MaxRange="1" MinRange="0" Name="IDLINE" SQLDataType="1" SourceColumn="IDLINE"/&gt;&lt;Column Description="Macchina" MaxRange="1" MinRange="0" Name="IDMACH" SQLDataType="1" SourceColumn="IDMACH"/&gt;&lt;Column Description="Codice Materiale" MaxRange="1" MinRange="0" Name="MATERIAL" SQLDataType="1" SourceColumn="MATERIAL"/&gt;&lt;Column Description="Numero di serie" MaxRange="1" MinRange="0" Name="SERIAL" SQLDataType="1" SourceColumn="SERIAL"/&gt;&lt;Column Description="Data / ora di registrazione" MaxRange="1" MinRange="0" Name="DATA_ORA_REGISTRAZIONE" SQLDataType="1" SourceColumn="DATA_ORA_REGISTRAZIONE"/&gt;&lt;Column Description="Data / ora di registrazione (valore precedente)" MaxRange="1" MinRange="0" Name="DATA_ORA_REGISTRAZIONE_PREC" SQLDataType="1" SourceColumn="DATA_ORA_REGISTRAZIONE_PREC"/&gt;&lt;Column Description="Data / ora di registrazione (inizio dello stato corrente)" MaxRange="1" MinRange="0" Name="DATA_ORA_REGISTRAZIONE_BEGIN" SQLDataType="1" SourceColumn="DATA_ORA_REGISTRAZIONE_BEGIN"/&gt;&lt;Column Description="Pezzi prodotti (contatore progressivo)" MaxRange="1" MinRange="0" Name="PEZZI_PRODOTTI_PROGR" SQLDataType="1" SourceColumn="PEZZI_PRODOTTI_PROGR"/&gt;&lt;Column Description="Pezzi prodotti (valore assoluto precedente)" MaxRange="1" MinRange="0" Name="PEZZI_PRODOTTI_PREC" SQLDataType="1" SourceColumn="PEZZI_PRODOTTI_PREC"/&gt;&lt;Column Description="Pezzi prodotti" MaxRange="1" MinRange="0" Name="PEZZI_PRODOTTI" SQLDataType="1" SourceColumn="PEZZI_PRODOTTI"/&gt;&lt;Column Description="Pezzi scartati (contatore progressivo)" MaxRange="1" MinRange="0" Name="PEZZI_SCARTATI_PROGR" SQLDataType="1" SourceColumn="PEZZI_SCARTATI_PROGR"/&gt;&lt;Column Description="Pezzi scartati (valore assoluto precedente)" MaxRange="1" MinRange="0" Name="PEZZI_SCARTATI_PREC" SQLDataType="1" SourceColumn="PEZZI_SCARTATI_PREC"/&gt;&lt;Column Description="Pezzi scartati" MaxRange="1" MinRange="0" Name="PEZZI_SCARTATI" SQLDataType="1" SourceColumn="PEZZI_SCARTATI"/&gt;&lt;Column Description="Stato macchina" MaxRange="1" MinRange="0" Name="STATO_MACCHINA" SQLDataType="1" SourceColumn="STATO_MACCHINA"/&gt;&lt;Column Description="Stato macchina (valore precedente)" MaxRange="1" MinRange="0" Name="STATO_MACCHINA_PREC" SQLDataType="1" SourceColumn="STATO_MACCHINA_PREC"/&gt;&lt;Column Description="Causale fermo" MaxRange="1" MinRange="0" Name="CAUSALE_FERMO" SQLDataType="1" SourceColumn="CAUSALE_FERMO"/&gt;&lt;Column Description="Causale fermo (valore precedente)" MaxRange="1" MinRange="0" Name="CAUSALE_FERMO_PREC" SQLDataType="1" SourceColumn="CAUSALE_FERMO_PREC"/&gt;&lt;Column Description="Comnmessa" MaxRange="1" MinRange="0" Name="ORDER" SQLDataType="1" SourceColumn="ORDER"/&gt;&lt;Column Description="Esito Globale" MaxRange="1" MinRange="0" Name="ESITO_GLOBALE" SQLDataType="1" SourceColumn="ESITO_GLOBALE"/&gt;&lt;Column Description="Esito Controllo Planarità" MaxRange="1" MinRange="0" Name="ESITO_CONTROLLO_PLANARITA" SQLDataType="1" SourceColumn="ESITO_CONTROLLO_PLANARITA"/&gt;&lt;Column Description="Esito Taglio R1" MaxRange="1" MinRange="0" Name="ESITO_TAGLIO_R1" SQLDataType="1" SourceColumn="ESITO_TAGLIO_R1"/&gt;&lt;Column Description="Esito Taglio R2" MaxRange="1" MinRange="0" Name="ESITO_TAGLIO_R2" SQLDataType="1" SourceColumn="ESITO_TAGLIO_R2"/&gt;&lt;Column Description="Esito Taglio R3" MaxRange="1" MinRange="0" Name="ESITO_TAGLIO_R3" SQLDataType="1" SourceColumn="ESITO_TAGLIO_R3"/&gt;&lt;Column Description="Input / Output" MaxRange="1" MinRange="0" Name="I_O" SQLDataType="1" SourceColumn="I_O"/&gt;&lt;/Columns&gt;&lt;Row&gt;&lt;PLANT&gt;STRING&lt;/PLANT&gt;&lt;IDREP&gt;STRING&lt;/IDREP&gt;&lt;IDLINE&gt;STRING&lt;/IDLINE&gt;&lt;IDMACH&gt;STRING&lt;/IDMACH&gt;&lt;MATERIAL&gt;STRING&lt;/MATERIAL&gt;&lt;SERIAL&gt;STRING&lt;/SERIAL&gt;&lt;DATA_ORA_REGISTRAZIONE&gt;STRING&lt;/DATA_ORA_REGISTRAZIONE&gt;&lt;DATA_ORA_REGISTRAZIONE_PREC&gt;STRING&lt;/DATA_ORA_REGISTRAZIONE_PREC&gt;&lt;DATA_ORA_REGISTRAZIONE_BEGIN&gt;STRING&lt;/DATA_ORA_REGISTRAZIONE_BEGIN&gt;&lt;PEZZI_PRODOTTI_PROGR&gt;STRING&lt;/PEZZI_PRODOTTI_PROGR&gt;&lt;PEZZI_PRODOTTI_PREC&gt;STRING&lt;/PEZZI_PRODOTTI_PREC&gt;&lt;PEZZI_PRODOTTI&gt;STRING&lt;/PEZZI_PRODOTTI&gt;&lt;PEZZI_SCARTATI_PROGR&gt;STRING&lt;/PEZZI_SCARTATI_PROGR&gt;&lt;PEZZI_SCARTATI_PREC&gt;STRING&lt;/PEZZI_SCARTATI_PREC&gt;&lt;PEZZI_SCARTATI&gt;STRING&lt;/PEZZI_SCARTATI&gt;&lt;STATO_MACCHINA&gt;STRING&lt;/STATO_MACCHINA&gt;&lt;STATO_MACCHINA_PREC&gt;STRING&lt;/STATO_MACCHINA_PREC&gt;&lt;CAUSALE_FERMO&gt;STRING&lt;/CAUSALE_FERMO&gt;&lt;CAUSALE_FERMO_PREC&gt;STRING&lt;/CAUSALE_FERMO_PREC&gt;&lt;ORDER&gt;STRING&lt;/ORDER&gt;&lt;ESITO_GLOBALE&gt;STRING&lt;/ESITO_GLOBALE&gt;&lt;ESITO_CONTROLLO_PLANARITA&gt;STRING&lt;/ESITO_CONTROLLO_PLANARITA&gt;&lt;ESITO_TAGLIO_R1&gt;STRING&lt;/ESITO_TAGLIO_R1&gt;&lt;ESITO_TAGLIO_R2&gt;STRING&lt;/ESITO_TAGLIO_R2&gt;&lt;ESITO_TAGLIO_R3&gt;STRING&lt;/ESITO_TAGLIO_R3&gt;&lt;I_O&gt;STRING&lt;/I_O&gt;&lt;/Row&gt;&lt;/Rowset&gt;&lt;/Rowsets&gt;</Output><EndDate>2017-06-15T12:17:08</EndDate><StartDate>2017-06-15T12:17:08</StartDate><ColumnSpecifications><ContextItem><Name>PLANT</Name><Description>Divisione</Description><MinRange>0</MinRange><MaxRange>1</MaxRange><Value xsi:type="string">STRING</Value><ReadOnly>false</ReadOnly><AlertXMLAssigned>false</AlertXMLAssigned></ContextItem><ContextItem><Name>IDREP</Name><Description>Reparto</Description><MinRange>0</MinRange><MaxRange>1</MaxRange><Value xsi:type="string">STRING</Value><ReadOnly>false</ReadOnly><AlertXMLAssigned>false</AlertXMLAssigned></ContextItem><ContextItem><Name>IDLINE</Name><Description>Linea</Description><MinRange>0</MinRange><MaxRange>1</MaxRange><Value xsi:type="string">STRING</Value><ReadOnly>false</ReadOnly><AlertXMLAssigned>false</AlertXMLAssigned></ContextItem><ContextItem><Name>IDMACH</Name><Description>Macchina</Description><MinRange>0</MinRange><MaxRange>1</MaxRange><Value xsi:type="string">STRING</Value><ReadOnly>false</ReadOnly><AlertXMLAssigned>false</AlertXMLAssigned></ContextItem><ContextItem><Name>MATERIAL</Name><Description>Codice Materiale</Description><MinRange>0</MinRange><MaxRange>1</MaxRange><Value xsi:type="string">STRING</Value><ReadOnly>false</ReadOnly><AlertXMLAssigned>false</AlertXMLAssigned></ContextItem><ContextItem><Name>SERIAL</Name><Description>Numero di serie</Description><MinRange>0</MinRange><MaxRange>1</MaxRange><Value xsi:type="string">STRING</Value><ReadOnly>false</ReadOnly><AlertXMLAssigned>false</AlertXMLAssigned></ContextItem><ContextItem><Name>DATA_ORA_REGISTRAZIONE</Name><Description>Data / ora di registrazione</Description><MinRange>0</MinRange><MaxRange>1</MaxRange><Value xsi:type="string">STRING</Value><ReadOnly>false</ReadOnly><AlertXMLAssigned>false</AlertXMLAssigned></ContextItem><ContextItem><Name>DATA_ORA_REGISTRAZIONE_PREC</Name><Description>Data / ora di registrazione (valore precedente)</Description><MinRange>0</MinRange><MaxRange>1</MaxRange><Value xsi:type="string">STRING</Value><ReadOnly>false</ReadOnly><AlertXMLAssigned>false</AlertXMLAssigned></ContextItem><ContextItem><Name>DATA_ORA_REGISTRAZIONE_BEGIN</Name><Description>Data / ora di registrazione (inizio dello stato corrente)</Description><MinRange>0</MinRange><MaxRange>1</MaxRange><Value xsi:type="string">STRING</Value><ReadOnly>false</ReadOnly><AlertXMLAssigned>false</AlertXMLAssigned></ContextItem><ContextItem><Name>PEZZI_PRODOTTI_PROGR</Name><Description>Pezzi prodotti (contatore progressivo)</Description><MinRange>0</MinRange><MaxRange>1</MaxRange><Value xsi:type="string">STRING</Value><ReadOnly>false</ReadOnly><AlertXMLAssigned>false</AlertXMLAssigned></ContextItem><ContextItem><Name>PEZZI_PRODOTTI_PREC</Name><Description>Pezzi prodotti (valore assoluto precedente)</Description><MinRange>0</MinRange><MaxRange>1</MaxRange><Value xsi:type="string">STRING</Value><ReadOnly>false</ReadOnly><AlertXMLAssigned>false</AlertXMLAssigned></ContextItem><ContextItem><Name>PEZZI_PRODOTTI</Name><Description>Pezzi prodotti</Description><MinRange>0</MinRange><MaxRange>1</MaxRange><Value xsi:type="string">STRING</Value><ReadOnly>false</ReadOnly><AlertXMLAssigned>false</AlertXMLAssigned></ContextItem><ContextItem><Name>PEZZI_SCARTATI_PROGR</Name><Description>Pezzi scartati (contatore progressivo)</Description><MinRange>0</MinRange><MaxRange>1</MaxRange><Value xsi:type="string">STRING</Value><ReadOnly>false</ReadOnly><AlertXMLAssigned>false</AlertXMLAssigned></ContextItem><ContextItem><Name>PEZZI_SCARTATI_PREC</Name><Description>Pezzi scartati (valore assoluto precedente)</Description><MinRange>0</MinRange><MaxRange>1</MaxRange><Value xsi:type="string">STRING</Value><ReadOnly>false</ReadOnly><AlertXMLAssigned>false</AlertXMLAssigned></ContextItem><ContextItem><Name>PEZZI_SCARTATI</Name><Description>Pezzi scartati</Description><MinRange>0</MinRange><MaxRange>1</MaxRange><Value xsi:type="string">STRING</Value><ReadOnly>false</ReadOnly><AlertXMLAssigned>false</AlertXMLAssigned></ContextItem><ContextItem><Name>STATO_MACCHINA</Name><Description>Stato macchina</Description><MinRange>0</MinRange><MaxRange>1</MaxRange><Value xsi:type="string">STRING</Value><ReadOnly>false</ReadOnly><AlertXMLAssigned>false</AlertXMLAssigned></ContextItem><ContextItem><Name>STATO_MACCHINA_PREC</Name><Description>Stato macchina (valore precedente)</Description><MinRange>0</MinRange><MaxRange>1</MaxRange><Value xsi:type="string">STRING</Value><ReadOnly>false</ReadOnly><AlertXMLAssigned>false</AlertXMLAssigned></ContextItem><ContextItem><Name>CAUSALE_FERMO</Name><Description>Causale fermo</Description><MinRange>0</MinRange><MaxRange>1</MaxRange><Value xsi:type="string">STRING</Value><ReadOnly>false</ReadOnly><AlertXMLAssigned>false</AlertXMLAssigned></ContextItem><ContextItem><Name>CAUSALE_FERMO_PREC</Name><Description>Causale fermo (valore precedente)</Description><MinRange>0</MinRange><MaxRange>1</MaxRange><Value xsi:type="string">STRING</Value><ReadOnly>false</ReadOnly><AlertXMLAssigned>false</AlertXMLAssigned></ContextItem><ContextItem><Name>ORDER</Name><Description>Comnmessa</Description><MinRange>0</MinRange><MaxRange>1</MaxRange><Value xsi:type="string">STRING</Value><ReadOnly>false</ReadOnly><AlertXMLAssigned>false</AlertXMLAssigned></ContextItem><ContextItem><Name>ESITO_GLOBALE</Name><Description>Esito Globale</Description><MinRange>0</MinRange><MaxRange>1</MaxRange><Value xsi:type="string">STRING</Value><ReadOnly>false</ReadOnly><AlertXMLAssigned>false</AlertXMLAssigned></ContextItem><ContextItem><Name>ESITO_CONTROLLO_PLANARITA</Name><Description>Esito Controllo Planarità</Description><MinRange>0</MinRange><MaxRange>1</MaxRange><Value xsi:type="string">STRING</Value><ReadOnly>false</ReadOnly><AlertXMLAssigned>false</AlertXMLAssigned></ContextItem><ContextItem><Name>ESITO_TAGLIO_R1</Name><Description>Esito Taglio R1</Description><MinRange>0</MinRange><MaxRange>1</MaxRange><Value xsi:type="string">STRING</Value><ReadOnly>false</ReadOnly><AlertXMLAssigned>false</AlertXMLAssigned></ContextItem><ContextItem><Name>ESITO_TAGLIO_R2</Name><Description>Esito Taglio R2</Description><MinRange>0</MinRange><MaxRange>1</MaxRange><Value xsi:type="string">STRING</Value><ReadOnly>false</ReadOnly><AlertXMLAssigned>false</AlertXMLAssigned></ContextItem><ContextItem><Name>ESITO_TAGLIO_R3</Name><Description>Esito Taglio R3</Description><MinRange>0</MinRange><MaxRange>1</MaxRange><Value xsi:type="string">STRING</Value><ReadOnly>false</ReadOnly><AlertXMLAssigned>false</AlertXMLAssigned></ContextItem><ContextItem><Name>I_O</Name><Description>Input / Output</Description><MinRange>0</MinRange><MaxRange>1</MaxRange><Value xsi:type="string">STRING</Value><ReadOnly>false</ReadOnly><AlertXMLAssigned>false</AlertXMLAssigned></ContextItem></ColumnSpecifications></Value><SchemaURI/><SchemaElement/><ValidateXMLOnExecution>1</ValidateXMLOnExecution><ReadOnly>false</ReadOnly><AlertXMLAssigned>false</AlertXMLAssigned></ContextItem><ContextItem><Name>Conditional_0</Name><Description/><MinRange>0</MinRange><MaxRange>0</MaxRange><Value xsi:type="ConditionalAction"><Output>false</Output><InputCount>1</InputCount><LogicalAnd>false</LogicalAnd><Input1>false</Input1></Value><ReadOnly>false</ReadOnly><AlertXMLAssigned>false</AlertXMLAssigned></ContextItem><ContextItem><Name>FormatDateTR_IN</Name><Description/><MinRange>0</MinRange><MaxRange>0</MaxRange><Value xsi:type="TransactionCall"><ResetState>false</ResetState><TransactionName>ProductionMain/DataLoad/PCo/FMB/SIR/FormatDateTR</TransactionName><Async>false</Async><Persist>INHERIT</Persist><LogLevel>INHERIT</LogLevel><LogType>INHERIT</LogType><StoreTransactionOutput>false</StoreTransactionOutput><Expiration>-1</Expiration><date_in>16/5/17  0:7:57</date_in><sep_hours>:</sep_hours><sep_date>/</sep_date></Value><ReadOnly>false</ReadOnly><AlertXMLAssigned>false</AlertXMLAssigned></ContextItem><ContextItem><Name>FormatDateTR_OUT</Name><Description/><MinRange>0</MinRange><MaxRange>0</MaxRange><Value xsi:type="TransactionCall"><ResetState>false</ResetState><TransactionName>ProductionMain/DataLoad/PCo/FMB/SIR/FormatDateTR</TransactionName><Async>false</Async><Persist>INHERIT</Persist><LogLevel>INHERIT</LogLevel><LogType>INHERIT</LogType><StoreTransactionOutput>false</StoreTransactionOutput><Expiration>-1</Expiration><date_in>16/5/17  0:7:57</date_in><sep_hours>:</sep_hours><sep_date>/</sep_date></Value><ReadOnly>false</ReadOnly><AlertXMLAssigned>false</AlertXMLAssigned></ContextItem><ContextItem><Name>Tracer_1</Name><Description/><MinRange>0</MinRange><MaxRange>0</MaxRange><Value xsi:type="Tracer"><Message/><Level>INFO</Level></Value><ReadOnly>false</ReadOnly><AlertXMLAssigned>false</AlertXMLAssigned></ContextItem><ContextItem><Name>Conditional_1</Name><Description/><MinRange>0</MinRange><MaxRange>0</MaxRange><Value xsi:type="ConditionalAction"><Output>false</Output><InputCount>1</InputCount><LogicalAnd>false</LogicalAnd><Input1>false</Input1></Value><ReadOnly>false</ReadOnly><AlertXMLAssigned>false</AlertXMLAssigned></ContextItem><ContextItem><Name>Row_1</Name><Description/><MinRange>0</MinRange><MaxRange>0</MaxRange><Value xsi:type="IlluminatorRow"><IlluminatorDocument>Document_0.Output</IlluminatorDocument></Value><ReadOnly>false</ReadOnly><AlertXMLAssigned>false</AlertXMLAssigned></ContextItem><ContextItem><Name>Assignment_4</Name><Description/><MinRange>0</MinRange><MaxRange>0</MaxRange><Value xsi:type="Assignment"/><ReadOnly>false</ReadOnly><AlertXMLAssigned>false</AlertXMLAssigned></ContextItem><ContextItem><Name>ParseCodPezzoTR_0</Name><Description/><MinRange>0</MinRange><MaxRange>0</MaxRange><Value xsi:type="TransactionCall"><ResetState>false</ResetState><TransactionName>ProductionMain/DataLoad/PCo/FMB/SIR/ParseCodPezzoTR</TransactionName><Async>false</Async><Persist>INHERIT</Persist><LogLevel>INHERIT</LogLevel><LogType>INHERIT</LogType><StoreTransactionOutput>false</StoreTransactionOutput><Expiration>-1</Expiration><CodicePezzo>FA00AAX8820002206116250037</CodicePezzo><Log>false</Log></Value><ReadOnly>false</ReadOnly><AlertXMLAssigned>false</AlertXMLAssigned></ContextItem><ContextItem><Name>Row_2</Name><Description/><MinRange>0</MinRange><MaxRange>0</MaxRange><Value xsi:type="IlluminatorRow"><IlluminatorDocument>Document_0.Output</IlluminatorDocument></Value><ReadOnly>false</ReadOnly><AlertXMLAssigned>false</AlertXMLAssigned></ContextItem><ContextItem><Name>Assignment_0</Name><Description/><MinRange>0</MinRange><MaxRange>0</MaxRange><Value xsi:type="Assignment"/><ReadOnly>false</ReadOnly><AlertXMLAssigned>false</AlertXMLAssigned></ContextItem></Actions><ReaderRoles>SAP_XMII_Super_Administrator,SAP_XMII_Administrator,SAP_XMII_Developer,SAP_XMII_User</ReaderRoles><Steps><Step xsi:type="ActionSequence"><Name>Sequenza_0</Name><Description>Definizione della tabella</Description><Steps><Step xsi:type="Repeater"><Name>Ciclo_data_in_0</Name><Description>Ciclo sulla tabella in entrata</Description><Steps><Step xsi:type="ActionSequence"><Name>Sequenza_6</Name><Description/><Steps><Step xsi:type="ActionSequence"><Name>Sequenza_3</Name><Description/><Steps><Step xsi:type="ActionSequence"><Name>Sequenza_14</Name><Description/><Steps/><Actions><Action><Name>ParseCodPezzoTR_0</Name><Description> </Description><IncomingLinks><Assign xsi:type="Assign"><Name/><Description/><To>ParseCodPezzoTR_0.CodicePezzo</To><From>Repeater_0.Item{/Row/CODICE_PEZZO}</From></Assign><Assign xsi:type="Assign"><Name/><Description/><To>ParseCodPezzoTR_0.Log</To><From>Transaction.Log</From></Assign></IncomingLinks><OutgoingLinks><Assign xsi:type="Assign"><Name/><Description/><To>Local.material</To><From>ParseCodPezzoTR_0.CodPart</From></Assign></OutgoingLinks></Action></Actions></Step><Step xsi:type="ActionSequence"><Name>Val_record_INPUT</Name><Description>Valorizzazione del record di INPUT della nuova tabella</Description><Steps><Step xsi:type="ActionSequence"><Name>Val_record_OUTPUT</Name><Description>Valorizzazione del record di OUTPUT della nuova tabella</Description><Steps/><Actions><Action><Name>Row_2</Name><Description> </Description><IncomingLinks><Assign xsi:type="Assign"><Name/><Description/><To>Row_2.PLANT</To><From>Repeater_0.Item{/Row/PLANT}</From></Assign><Assign xsi:type="Assign"><Name/><Description/><To>Row_2.IDREP</To><From>Repeater_0.Item{/Row/IDREP}</From></Assign><Assign xsi:type="Assign"><Name/><Description/><To>Row_2.IDLINE</To><From>Repeater_0.Item{/Row/IDLINE}</From></Assign><Assign xsi:type="Assign"><Name/><Description/><To>Row_2.IDMACH</To><From>Repeater_0.Item{/Row/IDMACH}</From></Assign><Assign xsi:type="Assign"><Name/><Description/><To>Row_2.MATERIAL</To><From>Repeater_0.Item{/Row/MAT_PREFIX} &amp; "-" &amp; Local.material</From></Assign><Assign xsi:type="Assign"><Name/><Description/><To>Row_2.SERIAL</To><From>Repeater_0.Item{/Row/CODICE_PEZZO}</From></Assign><Assign xsi:type="Assign"><Name/><Description/><To>Row_2.DATA_ORA_REGISTRAZIONE</To><From>Local.Data_e_Ora_Uscita</From></Assign><Assign xsi:type="Assign"><Name/><Description/><To>Row_2.PEZZI_PRODOTTI_PROGR</To><From>""</From></Assign><Assign xsi:type="Assign"><Name/><Description/><To>Row_2.PEZZI_SCARTATI</To><From>Local.PEZZI_SCARTATI</From></Assign><Assign xsi:type="Assign"><Name/><Description/><To>Row_2.STATO_MACCHINA</To><From>Globals.StateMach_3</From></Assign><Assign xsi:type="Assign"><Name/><Description/><To>Row_2.CAUSALE_FERMO</To><From>""</From></Assign><Assign xsi:type="Assign"><Name/><Description/><To>Row_2.PEZZI_SCARTATI_PROGR</To><From>""</From></Assign><Assign xsi:type="Assign"><Name/><Description/><To>Row_2.PEZZI_PRODOTTI</To><From>Local.PEZZI_PRODOTTI</From></Assign><Assign xsi:type="Assign"><Name/><Description/><To>Row_2.PEZZI_PRODOTTI_PREC</To><From>""</From></Assign><Assign xsi:type="Assign"><Name/><Description/><To>Row_2.PEZZI_SCARTATI_PREC</To><From>""</From></Assign><Assign xsi:type="Assign"><Name/><Description/><To>Row_2.STATO_MACCHINA_PREC</To><From>""</From></Assign><Assign xsi:type="Assign"><Name/><Description/><To>Row_2.CAUSALE_FERMO_PREC</To><From>""</From></Assign><Assign xsi:type="Assign"><Name/><Description/><To>Row_2.DATA_ORA_REGISTRAZIONE_PREC</To><From>""</From></Assign><Assign xsi:type="Assign"><Name/><Description/><To>Row_2.ORDER</To><From>""</From></Assign><Assign xsi:type="Assign"><Name/><Description/><To>Row_2.ESITO_GLOBALE</To><From>Repeater_0.Item{/Row/ESITO_GLOBALE}</From></Assign><Assign xsi:type="Assign"><Name/><Description/><To>Row_2.ESITO_CONTROLLO_PLANARITA</To><From>Repeater_0.Item{/Row/ESITO_CONTROLLO_PLANARITA}</From></Assign><Assign xsi:type="Assign"><Name/><Description/><To>Row_2.ESITO_TAGLIO_R1</To><From>Repeater_0.Item{/Row/ESITO_TAGLIO_R1}</From></Assign><Assign xsi:type="Assign"><Name/><Description/><To>Row_2.ESITO_TAGLIO_R2</To><From>Repeater_0.Item{/Row/ESITO_TAGLIO_R2}</From></Assign><Assign xsi:type="Assign"><Name/><Description/><To>Row_2.ESITO_TAGLIO_R3</To><From>Repeater_0.Item{/Row/ESITO_TAGLIO_R3}</From></Assign><Assign xsi:type="Assign"><Name/><Description/><To>Row_2.DATA_ORA_REGISTRAZIONE_BEGIN</To><From>""</From></Assign><Assign xsi:type="Assign"><Name/><Description/><To>Row_2.I_O</To><From>"O"</From></Assign></IncomingLinks><OutgoingLinks/></Action></Actions></Step></Steps><Actions><Action><Name>Row_1</Name><Description> </Description><IncomingLinks><Assign xsi:type="Assign"><Name/><Description/><To>Row_1.PLANT</To><From>Repeater_0.Item{/Row/PLANT}</From></Assign><Assign xsi:type="Assign"><Name/><Description/><To>Row_1.IDREP</To><From>Repeater_0.Item{/Row/IDREP}</From></Assign><Assign xsi:type="Assign"><Name/><Description/><To>Row_1.IDLINE</To><From>Repeater_0.Item{/Row/IDLINE}</From></Assign><Assign xsi:type="Assign"><Name/><Description/><To>Row_1.IDMACH</To><From>Repeater_0.Item{/Row/IDMACH}</From></Assign><Assign xsi:type="Assign"><Name/><Description/><To>Row_1.MATERIAL</To><From>Repeater_0.Item{/Row/MAT_PREFIX} &amp; "-" &amp; Local.material</From></Assign><Assign xsi:type="Assign"><Name/><Description/><To>Row_1.SERIAL</To><From>Repeater_0.Item{/Row/CODICE_PEZZO}</From></Assign><Assign xsi:type="Assign"><Name/><Description/><To>Row_1.DATA_ORA_REGISTRAZIONE</To><From>Local.Data_e_Ora_Ingresso</From></Assign><Assign xsi:type="Assign"><Name/><Description/><To>Row_1.PEZZI_PRODOTTI_PROGR</To><From>""</From></Assign><Assign xsi:type="Assign"><Name/><Description/><To>Row_1.PEZZI_SCARTATI</To><From>Local.PEZZI_SCARTATI</From></Assign><Assign xsi:type="Assign"><Name/><Description/><To>Row_1.STATO_MACCHINA</To><From>Globals.StateMach_3</From></Assign><Assign xsi:type="Assign"><Name/><Description/><To>Row_1.CAUSALE_FERMO</To><From>""</From></Assign><Assign xsi:type="Assign"><Name/><Description/><To>Row_1.PEZZI_SCARTATI_PROGR</To><From>""</From></Assign><Assign xsi:type="Assign"><Name/><Description/><To>Row_1.PEZZI_PRODOTTI</To><From>Local.PEZZI_PRODOTTI</From></Assign><Assign xsi:type="Assign"><Name/><Description/><To>Row_1.PEZZI_PRODOTTI_PREC</To><From>""</From></Assign><Assign xsi:type="Assign"><Name/><Description/><To>Row_1.PEZZI_SCARTATI_PREC</To><From>""</From></Assign><Assign xsi:type="Assign"><Name/><Description/><To>Row_1.STATO_MACCHINA_PREC</To><From>""</From></Assign><Assign xsi:type="Assign"><Name/><Description/><To>Row_1.CAUSALE_FERMO_PREC</To><From>""</From></Assign><Assign xsi:type="Assign"><Name/><Description/><To>Row_1.DATA_ORA_REGISTRAZIONE_PREC</To><From>""</From></Assign><Assign xsi:type="Assign"><Name/><Description/><To>Row_1.ORDER</To><From>""</From></Assign><Assign xsi:type="Assign"><Name/><Description/><To>Row_1.ESITO_GLOBALE</To><From>Repeater_0.Item{/Row/ESITO_GLOBALE}</From></Assign><Assign xsi:type="Assign"><Name/><Description/><To>Row_1.ESITO_CONTROLLO_PLANARITA</To><From>Repeater_0.Item{/Row/ESITO_CONTROLLO_PLANARITA}</From></Assign><Assign xsi:type="Assign"><Name/><Description/><To>Row_1.ESITO_TAGLIO_R1</To><From>Repeater_0.Item{/Row/ESITO_TAGLIO_R1}</From></Assign><Assign xsi:type="Assign"><Name/><Description/><To>Row_1.ESITO_TAGLIO_R2</To><From>Repeater_0.Item{/Row/ESITO_TAGLIO_R2}</From></Assign><Assign xsi:type="Assign"><Name/><Description/><To>Row_1.ESITO_TAGLIO_R3</To><From>Repeater_0.Item{/Row/ESITO_TAGLIO_R3}</From></Assign><Assign xsi:type="Assign"><Name/><Description/><To>Row_1.DATA_ORA_REGISTRAZIONE_BEGIN</To><From>""</From></Assign><Assign xsi:type="Assign"><Name/><Description/><To>Row_1.I_O</To><From>"I"</From></Assign></IncomingLinks><OutgoingLinks/></Action></Actions></Step></Steps><Actions><Action><Name>FormatDateTR_IN</Name><Description> </Description><IncomingLinks><Assign xsi:type="Assign"><Name/><Description/><To>FormatDateTR_IN.date_in</To><From>Repeater_0.Item{/Row/DATA_E_ORA_INGRESSO}</From></Assign><Assign xsi:type="Assign"><Name/><Description/><To>FormatDateTR_IN.sep_hours</To><From>":"</From></Assign><Assign xsi:type="Assign"><Name/><Description/><To>FormatDateTR_IN.sep_date</To><From>"/"</From></Assign></IncomingLinks><OutgoingLinks><Assign xsi:type="Assign"><Name/><Description/><To>Local.Data_e_Ora_Ingresso</To><From>FormatDateTR_IN.date_out_txt</From></Assign></OutgoingLinks></Action><Action><Name>FormatDateTR_OUT</Name><Description> </Description><IncomingLinks><Assign xsi:type="Assign"><Name/><Description/><To>FormatDateTR_OUT.date_in</To><From>Repeater_0.Item{/Row/DATA_E_ORA_USCITA}</From></Assign><Assign xsi:type="Assign"><Name/><Description/><To>FormatDateTR_OUT.sep_hours</To><From>":"</From></Assign><Assign xsi:type="Assign"><Name/><Description/><To>FormatDateTR_OUT.sep_date</To><From>"/"</From></Assign></IncomingLinks><OutgoingLinks><Assign xsi:type="Assign"><Name/><Description/><To>Local.Data_e_Ora_Uscita</To><From>FormatDateTR_OUT.date_out_txt</From></Assign></OutgoingLinks></Action></Actions></Step></Steps><Actions><Action><Name>Assignment_0</Name><Description> </Description><IncomingLinks/><OutgoingLinks><Assign xsi:type="Assign"><Name/><Description/><To>Local.PEZZI_PRODOTTI</To><From>stringif(Repeater_0.Item{/Row/ESITO_GLOBALE} == "Buono", 1, 0)</From></Assign><Assign xsi:type="Assign"><Name/><Description/><To>Local.PEZZI_SCARTATI</To><From>stringif(Repeater_0.Item{/Row/ESITO_GLOBALE} == "Buono", 0, 1)</From></Assign></OutgoingLinks></Action></Actions></Step></Steps><Actions><Action><Name>Repeater_0</Name><Description> </Description><IncomingLinks/><OutgoingLinks/></Action></Actions></Step><Step xsi:type="Conditional"><Name>Sequenza_2</Name><Description/><Steps><Step xsi:type="ActionSequence"><Name>Seq_ParseAddValPrecTR_0</Name><Description>Valorizza i campi "precedenti"
(transazione non necessaria per questi files)</Description><Steps/><Actions/></Step></Steps><Actions><Action><Name>Conditional_0</Name><Description> </Description><IncomingLinks><Assign xsi:type="Assign"><Name/><Description/><To>Conditional_0.Input1</To><From>false</From></Assign></IncomingLinks><OutgoingLinks/></Action></Actions></Step><Step xsi:type="Conditional"><Name>Sequenza_5</Name><Description/><Steps><Step xsi:type="ActionSequence"><Name>Sequenza_1</Name><Description/><Steps/><Actions><Action><Name>Tracer_1</Name><Description> </Description><IncomingLinks><Assign xsi:type="Assign"><Name/><Description/><To>Tracer_1.Message</To><From>Document_0.Output</From></Assign></IncomingLinks><OutgoingLinks/></Action></Actions></Step></Steps><Actions><Action><Name>Conditional_1</Name><Description> </Description><IncomingLinks><Assign xsi:type="Assign"><Name/><Description/><To>Conditional_1.Input1</To><From>Transaction.Log == true</From></Assign></IncomingLinks><OutgoingLinks/></Action></Actions></Step><Step xsi:type="ActionSequence"><Name>Sequenza_13</Name><Description/><Steps/><Actions><Action><Name>Assignment_4</Name><Description> </Description><IncomingLinks/><OutgoingLinks><Assign xsi:type="AssignXml"><Name/><Description/><To>Transaction.data_out</To><From>Document_0.Output</From></Assign></OutgoingLinks></Action></Actions></Step></Steps><Actions><Action><Name>Document_0</Name><Description> </Description><IncomingLinks/><OutgoingLinks/></Action></Actions></Step></Steps></Transaction>